/*
WARNING: Do NOT edit the input and output ports in this file in a text
editor if you plan to continue editing the block that represents it in
the Block Editor! File corruption is VERY likely to occur.
*/
/*
Copyright (C) 1991-2015 Altera Corporation. All rights reserved.
Your use of Altera Corporation's design tools, logic functions 
and other software and tools, and its AMPP partner logic 
functions, and any output files from any of the foregoing 
(including device programming or simulation files), and any 
associated documentation or information are expressly subject 
to the terms and conditions of the Altera Program License 
Subscription Agreement, the Altera Quartus Prime License Agreement,
the Altera MegaCore Function License Agreement, or other 
applicable license agreement, including, without limitation, 
that your use is for the sole purpose of programming logic 
devices manufactured by Altera and sold by Altera or its 
authorized distributors.  Please refer to the applicable 
agreement for further details.
*/
(header "graphic" (version "1.4"))
(pin
	(input)
	(rect -176 280 -8 296)
	(text "INPUT" (rect 125 0 166 11)(font "Arial" (font_size 6)))
	(text "ins[7..0]" (rect 5 0 79 14)(font "Arial" ))
	(pt 168 8)
	(drawing
		(line (pt 84 12)(pt 109 12))
		(line (pt 84 4)(pt 109 4))
		(line (pt 113 8)(pt 168 8))
		(line (pt 84 12)(pt 84 4))
		(line (pt 109 4)(pt 113 8))
		(line (pt 109 12)(pt 113 8))
	)
	(text "VCC" (rect 128 7 152 18)(font "Arial" (font_size 6)))
)
(pin
	(input)
	(rect 200 64 368 80)
	(text "INPUT" (rect 125 0 166 11)(font "Arial" (font_size 6)))
	(text "ready" (rect 5 0 46 14)(font "Arial" ))
	(pt 168 8)
	(drawing
		(line (pt 84 12)(pt 109 12))
		(line (pt 84 4)(pt 109 4))
		(line (pt 113 8)(pt 168 8))
		(line (pt 84 12)(pt 84 4))
		(line (pt 109 4)(pt 113 8))
		(line (pt 109 12)(pt 113 8))
	)
	(text "VCC" (rect 128 7 152 18)(font "Arial" (font_size 6)))
)
(pin
	(input)
	(rect 200 32 368 48)
	(text "INPUT" (rect 125 0 166 11)(font "Arial" (font_size 6)))
	(text "CLK" (rect 5 0 29 14)(font "Arial" ))
	(pt 168 8)
	(drawing
		(line (pt 84 12)(pt 109 12))
		(line (pt 84 4)(pt 109 4))
		(line (pt 113 8)(pt 168 8))
		(line (pt 84 12)(pt 84 4))
		(line (pt 109 4)(pt 113 8))
		(line (pt 109 12)(pt 113 8))
	)
	(text "VCC" (rect 128 7 152 18)(font "Arial" (font_size 6)))
)
(pin
	(input)
	(rect 200 16 368 32)
	(text "INPUT" (rect 125 0 166 11)(font "Arial" (font_size 6)))
	(text "reset" (rect 5 0 46 14)(font "Arial" ))
	(pt 168 8)
	(drawing
		(line (pt 84 12)(pt 109 12))
		(line (pt 84 4)(pt 109 4))
		(line (pt 113 8)(pt 168 8))
		(line (pt 84 12)(pt 84 4))
		(line (pt 109 4)(pt 113 8))
		(line (pt 109 12)(pt 113 8))
	)
	(text "VCC" (rect 128 7 152 18)(font "Arial" (font_size 6)))
)
(pin
	(input)
	(rect 368 760 536 776)
	(text "INPUT" (rect 125 0 166 11)(font "Arial" (font_size 6)))
	(text "start" (rect 5 0 46 14)(font "Arial" ))
	(pt 168 8)
	(drawing
		(line (pt 84 12)(pt 109 12))
		(line (pt 84 4)(pt 109 4))
		(line (pt 113 8)(pt 168 8))
		(line (pt 84 12)(pt 84 4))
		(line (pt 109 4)(pt 113 8))
		(line (pt 109 12)(pt 113 8))
	)
	(text "VCC" (rect 128 7 152 18)(font "Arial" (font_size 6)))
)
(pin
	(input)
	(rect 160 48 368 64)
	(text "INPUT" (rect 165 0 206 11)(font "Arial" (font_size 6)))
	(text "Counter[4..0]" (rect 5 0 112 14)(font "Arial" ))
	(pt 208 8)
	(drawing
		(line (pt 124 12)(pt 149 12))
		(line (pt 124 4)(pt 149 4))
		(line (pt 153 8)(pt 208 8))
		(line (pt 124 12)(pt 124 4))
		(line (pt 149 4)(pt 153 8))
		(line (pt 149 12)(pt 153 8))
	)
	(text "VCC" (rect 168 7 192 18)(font "Arial" (font_size 6)))
)
(pin
	(input)
	(rect 296 944 472 960)
	(text "INPUT" (rect 133 0 174 11)(font "Arial" (font_size 6)))
	(text "DR[31..0]" (rect 5 0 79 14)(font "Arial" ))
	(pt 176 8)
	(drawing
		(line (pt 92 12)(pt 117 12))
		(line (pt 92 4)(pt 117 4))
		(line (pt 121 8)(pt 176 8))
		(line (pt 92 12)(pt 92 4))
		(line (pt 117 4)(pt 121 8))
		(line (pt 117 12)(pt 121 8))
	)
	(text "VCC" (rect 136 7 160 18)(font "Arial" (font_size 6)))
)
(pin
	(output)
	(rect 264 -56 440 -40)
	(text "OUTPUT" (rect 1 0 50 11)(font "Arial" (font_size 6)))
	(text "vld" (rect 90 0 114 14)(font "Arial" ))
	(pt 0 8)
	(drawing
		(line (pt 0 8)(pt 52 8))
		(line (pt 52 4)(pt 78 4))
		(line (pt 52 12)(pt 78 12))
		(line (pt 52 12)(pt 52 4))
		(line (pt 78 4)(pt 82 8))
		(line (pt 82 8)(pt 78 12))
		(line (pt 78 12)(pt 82 8))
	)
)
(pin
	(output)
	(rect 1056 -88 1232 -72)
	(text "OUTPUT" (rect 1 0 50 11)(font "Arial" (font_size 6)))
	(text "DR_clrn" (rect 90 0 147 14)(font "Arial" ))
	(pt 0 8)
	(drawing
		(line (pt 0 8)(pt 52 8))
		(line (pt 52 4)(pt 78 4))
		(line (pt 52 12)(pt 78 12))
		(line (pt 52 12)(pt 52 4))
		(line (pt 78 4)(pt 82 8))
		(line (pt 82 8)(pt 78 12))
		(line (pt 78 12)(pt 82 8))
	)
)
(pin
	(output)
	(rect 1056 -72 1232 -56)
	(text "OUTPUT" (rect 1 0 50 11)(font "Arial" (font_size 6)))
	(text "DR_load" (rect 90 0 147 14)(font "Arial" ))
	(pt 0 8)
	(drawing
		(line (pt 0 8)(pt 52 8))
		(line (pt 52 4)(pt 78 4))
		(line (pt 52 12)(pt 78 12))
		(line (pt 52 12)(pt 52 4))
		(line (pt 78 4)(pt 82 8))
		(line (pt 82 8)(pt 78 12))
		(line (pt 78 12)(pt 82 8))
	)
)
(pin
	(output)
	(rect 1056 -56 1232 -40)
	(text "OUTPUT" (rect 1 0 50 11)(font "Arial" (font_size 6)))
	(text "DR_inc" (rect 90 0 139 14)(font "Arial" ))
	(pt 0 8)
	(drawing
		(line (pt 0 8)(pt 52 8))
		(line (pt 52 4)(pt 78 4))
		(line (pt 52 12)(pt 78 12))
		(line (pt 52 12)(pt 52 4))
		(line (pt 78 4)(pt 82 8))
		(line (pt 82 8)(pt 78 12))
		(line (pt 78 12)(pt 82 8))
	)
)
(pin
	(output)
	(rect 1032 -40 1235 -24)
	(text "OUTPUT" (rect 1 0 50 11)(font "Arial" (font_size 6)))
	(text "DR_shiftleft2" (rect 90 0 197 14)(font "Arial" ))
	(pt 0 8)
	(drawing
		(line (pt 0 8)(pt 52 8))
		(line (pt 52 4)(pt 78 4))
		(line (pt 52 12)(pt 78 12))
		(line (pt 52 12)(pt 52 4))
		(line (pt 78 4)(pt 82 8))
		(line (pt 82 8)(pt 78 12))
		(line (pt 78 12)(pt 82 8))
	)
)
(pin
	(output)
	(rect 1056 -24 1232 -8)
	(text "OUTPUT" (rect 1 0 50 11)(font "Arial" (font_size 6)))
	(text "DR_load4" (rect 90 0 156 14)(font "Arial" ))
	(pt 0 8)
	(drawing
		(line (pt 0 8)(pt 52 8))
		(line (pt 52 4)(pt 78 4))
		(line (pt 52 12)(pt 78 12))
		(line (pt 52 12)(pt 52 4))
		(line (pt 78 4)(pt 82 8))
		(line (pt 82 8)(pt 78 12))
		(line (pt 78 12)(pt 82 8))
	)
)
(pin
	(output)
	(rect 1032 -8 1235 8)
	(text "OUTPUT" (rect 1 0 50 11)(font "Arial" (font_size 6)))
	(text "DR_shiftleft8" (rect 90 0 197 14)(font "Arial" ))
	(pt 0 8)
	(drawing
		(line (pt 0 8)(pt 52 8))
		(line (pt 52 4)(pt 78 4))
		(line (pt 52 12)(pt 78 12))
		(line (pt 52 12)(pt 52 4))
		(line (pt 78 4)(pt 82 8))
		(line (pt 82 8)(pt 78 12))
		(line (pt 78 12)(pt 82 8))
	)
)
(pin
	(output)
	(rect 1048 48 1224 64)
	(text "OUTPUT" (rect 1 0 50 11)(font "Arial" (font_size 6)))
	(text "AC_clrn" (rect 90 0 147 14)(font "Arial" ))
	(pt 0 8)
	(drawing
		(line (pt 0 8)(pt 52 8))
		(line (pt 52 4)(pt 78 4))
		(line (pt 52 12)(pt 78 12))
		(line (pt 52 12)(pt 52 4))
		(line (pt 78 4)(pt 82 8))
		(line (pt 82 8)(pt 78 12))
		(line (pt 78 12)(pt 82 8))
	)
)
(pin
	(output)
	(rect 1048 64 1224 80)
	(text "OUTPUT" (rect 1 0 50 11)(font "Arial" (font_size 6)))
	(text "AC_load" (rect 90 0 147 14)(font "Arial" ))
	(pt 0 8)
	(drawing
		(line (pt 0 8)(pt 52 8))
		(line (pt 52 4)(pt 78 4))
		(line (pt 52 12)(pt 78 12))
		(line (pt 52 12)(pt 52 4))
		(line (pt 78 4)(pt 82 8))
		(line (pt 82 8)(pt 78 12))
		(line (pt 78 12)(pt 82 8))
	)
)
(pin
	(output)
	(rect 1048 80 1224 96)
	(text "OUTPUT" (rect 1 0 50 11)(font "Arial" (font_size 6)))
	(text "AC_inc" (rect 90 0 139 14)(font "Arial" ))
	(pt 0 8)
	(drawing
		(line (pt 0 8)(pt 52 8))
		(line (pt 52 4)(pt 78 4))
		(line (pt 52 12)(pt 78 12))
		(line (pt 52 12)(pt 52 4))
		(line (pt 78 4)(pt 82 8))
		(line (pt 82 8)(pt 78 12))
		(line (pt 78 12)(pt 82 8))
	)
)
(pin
	(output)
	(rect 1024 96 1227 112)
	(text "OUTPUT" (rect 1 0 50 11)(font "Arial" (font_size 6)))
	(text "AC_shiftleft2" (rect 90 0 197 14)(font "Arial" ))
	(pt 0 8)
	(drawing
		(line (pt 0 8)(pt 52 8))
		(line (pt 52 4)(pt 78 4))
		(line (pt 52 12)(pt 78 12))
		(line (pt 52 12)(pt 52 4))
		(line (pt 78 4)(pt 82 8))
		(line (pt 82 8)(pt 78 12))
		(line (pt 78 12)(pt 82 8))
	)
)
(pin
	(output)
	(rect 1048 112 1224 128)
	(text "OUTPUT" (rect 1 0 50 11)(font "Arial" (font_size 6)))
	(text "AC_load4" (rect 90 0 156 14)(font "Arial" ))
	(pt 0 8)
	(drawing
		(line (pt 0 8)(pt 52 8))
		(line (pt 52 4)(pt 78 4))
		(line (pt 52 12)(pt 78 12))
		(line (pt 52 12)(pt 52 4))
		(line (pt 78 4)(pt 82 8))
		(line (pt 82 8)(pt 78 12))
		(line (pt 78 12)(pt 82 8))
	)
)
(pin
	(output)
	(rect 1024 128 1227 144)
	(text "OUTPUT" (rect 1 0 50 11)(font "Arial" (font_size 6)))
	(text "AC_shiftleft8" (rect 90 0 197 14)(font "Arial" ))
	(pt 0 8)
	(drawing
		(line (pt 0 8)(pt 52 8))
		(line (pt 52 4)(pt 78 4))
		(line (pt 52 12)(pt 78 12))
		(line (pt 52 12)(pt 52 4))
		(line (pt 78 4)(pt 82 8))
		(line (pt 82 8)(pt 78 12))
		(line (pt 78 12)(pt 82 8))
	)
)
(pin
	(output)
	(rect 240 -80 476 -64)
	(text "OUTPUT" (rect 1 0 50 11)(font "Arial" (font_size 6)))
	(text "ALU_control[5..0]" (rect 90 0 230 14)(font "Arial" ))
	(pt 0 8)
	(drawing
		(line (pt 0 8)(pt 52 8))
		(line (pt 52 4)(pt 78 4))
		(line (pt 52 12)(pt 78 12))
		(line (pt 52 12)(pt 52 4))
		(line (pt 78 4)(pt 82 8))
		(line (pt 82 8)(pt 78 12))
		(line (pt 78 12)(pt 82 8))
	)
)
(pin
	(output)
	(rect 120 400 296 416)
	(text "OUTPUT" (rect 1 0 50 11)(font "Arial" (font_size 6)))
	(text "IR_clrn" (rect 90 0 147 14)(font "Arial" ))
	(pt 0 8)
	(drawing
		(line (pt 0 8)(pt 52 8))
		(line (pt 52 4)(pt 78 4))
		(line (pt 52 12)(pt 78 12))
		(line (pt 52 12)(pt 52 4))
		(line (pt 78 4)(pt 82 8))
		(line (pt 82 8)(pt 78 12))
		(line (pt 78 12)(pt 82 8))
	)
)
(pin
	(output)
	(rect 120 416 296 432)
	(text "OUTPUT" (rect 1 0 50 11)(font "Arial" (font_size 6)))
	(text "IR_load" (rect 90 0 147 14)(font "Arial" ))
	(pt 0 8)
	(drawing
		(line (pt 0 8)(pt 52 8))
		(line (pt 52 4)(pt 78 4))
		(line (pt 52 12)(pt 78 12))
		(line (pt 52 12)(pt 52 4))
		(line (pt 78 4)(pt 82 8))
		(line (pt 82 8)(pt 78 12))
		(line (pt 78 12)(pt 82 8))
	)
)
(pin
	(output)
	(rect 368 520 544 536)
	(text "OUTPUT" (rect 1 0 50 11)(font "Arial" (font_size 6)))
	(text "B_select" (rect 90 0 156 14)(font "Arial" ))
	(pt 0 8)
	(drawing
		(line (pt 0 8)(pt 52 8))
		(line (pt 52 4)(pt 78 4))
		(line (pt 52 12)(pt 78 12))
		(line (pt 52 12)(pt 52 4))
		(line (pt 78 4)(pt 82 8))
		(line (pt 82 8)(pt 78 12))
		(line (pt 78 12)(pt 82 8))
	)
)
(pin
	(output)
	(rect 392 400 568 416)
	(text "OUTPUT" (rect 1 0 50 11)(font "Arial" (font_size 6)))
	(text "TR_clrn" (rect 90 0 147 14)(font "Arial" ))
	(pt 0 8)
	(drawing
		(line (pt 0 8)(pt 52 8))
		(line (pt 52 4)(pt 78 4))
		(line (pt 52 12)(pt 78 12))
		(line (pt 52 12)(pt 52 4))
		(line (pt 78 4)(pt 82 8))
		(line (pt 82 8)(pt 78 12))
		(line (pt 78 12)(pt 82 8))
	)
)
(pin
	(output)
	(rect 392 416 568 432)
	(text "OUTPUT" (rect 1 0 50 11)(font "Arial" (font_size 6)))
	(text "TR_load" (rect 90 0 147 14)(font "Arial" ))
	(pt 0 8)
	(drawing
		(line (pt 0 8)(pt 52 8))
		(line (pt 52 4)(pt 78 4))
		(line (pt 52 12)(pt 78 12))
		(line (pt 52 12)(pt 52 4))
		(line (pt 78 4)(pt 82 8))
		(line (pt 82 8)(pt 78 12))
		(line (pt 78 12)(pt 82 8))
	)
)
(pin
	(output)
	(rect 368 432 571 448)
	(text "OUTPUT" (rect 1 0 50 11)(font "Arial" (font_size 6)))
	(text "TR_shiftleft8" (rect 90 0 197 14)(font "Arial" ))
	(pt 0 8)
	(drawing
		(line (pt 0 8)(pt 52 8))
		(line (pt 52 4)(pt 78 4))
		(line (pt 52 12)(pt 78 12))
		(line (pt 52 12)(pt 52 4))
		(line (pt 78 4)(pt 82 8))
		(line (pt 82 8)(pt 78 12))
		(line (pt 78 12)(pt 82 8))
	)
)
(pin
	(output)
	(rect 632 496 827 512)
	(text "OUTPUT" (rect 1 0 50 11)(font "Arial" (font_size 6)))
	(text "Counter_clrn" (rect 90 0 189 14)(font "Arial" ))
	(pt 0 8)
	(drawing
		(line (pt 0 8)(pt 52 8))
		(line (pt 52 4)(pt 78 4))
		(line (pt 52 12)(pt 78 12))
		(line (pt 52 12)(pt 52 4))
		(line (pt 78 4)(pt 82 8))
		(line (pt 82 8)(pt 78 12))
		(line (pt 78 12)(pt 82 8))
	)
)
(pin
	(output)
	(rect 632 512 818 528)
	(text "OUTPUT" (rect 1 0 50 11)(font "Arial" (font_size 6)))
	(text "Counter_inc" (rect 90 0 180 14)(font "Arial" ))
	(pt 0 8)
	(drawing
		(line (pt 0 8)(pt 52 8))
		(line (pt 52 4)(pt 78 4))
		(line (pt 52 12)(pt 78 12))
		(line (pt 52 12)(pt 52 4))
		(line (pt 78 4)(pt 82 8))
		(line (pt 82 8)(pt 78 12))
		(line (pt 78 12)(pt 82 8))
	)
)
(pin
	(output)
	(rect 640 408 816 424)
	(text "OUTPUT" (rect 1 0 50 11)(font "Arial" (font_size 6)))
	(text "SR" (rect 90 0 106 14)(font "Arial" ))
	(pt 0 8)
	(drawing
		(line (pt 0 8)(pt 52 8))
		(line (pt 52 4)(pt 78 4))
		(line (pt 52 12)(pt 78 12))
		(line (pt 52 12)(pt 52 4))
		(line (pt 78 4)(pt 82 8))
		(line (pt 82 8)(pt 78 12))
		(line (pt 78 12)(pt 82 8))
	)
)
(pin
	(output)
	(rect 640 424 816 440)
	(text "OUTPUT" (rect 1 0 50 11)(font "Arial" (font_size 6)))
	(text "rwnR" (rect 90 0 123 14)(font "Arial" ))
	(pt 0 8)
	(drawing
		(line (pt 0 8)(pt 52 8))
		(line (pt 52 4)(pt 78 4))
		(line (pt 52 12)(pt 78 12))
		(line (pt 52 12)(pt 52 4))
		(line (pt 78 4)(pt 82 8))
		(line (pt 82 8)(pt 78 12))
		(line (pt 78 12)(pt 82 8))
	)
)
(pin
	(output)
	(rect 280 552 541 568)
	(text "OUTPUT" (rect 1 0 50 11)(font "Arial" (font_size 6)))
	(text "Pointer_select[1..0]" (rect 90 0 255 14)(font "Arial" ))
	(pt 0 8)
	(drawing
		(line (pt 0 8)(pt 52 8))
		(line (pt 52 4)(pt 78 4))
		(line (pt 52 12)(pt 78 12))
		(line (pt 52 12)(pt 52 4))
		(line (pt 78 4)(pt 82 8))
		(line (pt 82 8)(pt 78 12))
		(line (pt 78 12)(pt 82 8))
	)
)
(pin
	(output)
	(rect 640 568 816 584)
	(text "OUTPUT" (rect 1 0 50 11)(font "Arial" (font_size 6)))
	(text "AR_clrn" (rect 90 0 147 14)(font "Arial" ))
	(pt 0 8)
	(drawing
		(line (pt 0 8)(pt 52 8))
		(line (pt 52 4)(pt 78 4))
		(line (pt 52 12)(pt 78 12))
		(line (pt 52 12)(pt 52 4))
		(line (pt 78 4)(pt 82 8))
		(line (pt 82 8)(pt 78 12))
		(line (pt 78 12)(pt 82 8))
	)
)
(pin
	(output)
	(rect 640 584 816 600)
	(text "OUTPUT" (rect 1 0 50 11)(font "Arial" (font_size 6)))
	(text "AR_load" (rect 90 0 147 14)(font "Arial" ))
	(pt 0 8)
	(drawing
		(line (pt 0 8)(pt 52 8))
		(line (pt 52 4)(pt 78 4))
		(line (pt 52 12)(pt 78 12))
		(line (pt 52 12)(pt 52 4))
		(line (pt 78 4)(pt 82 8))
		(line (pt 82 8)(pt 78 12))
		(line (pt 78 12)(pt 82 8))
	)
)
(pin
	(output)
	(rect 392 616 568 632)
	(text "OUTPUT" (rect 1 0 50 11)(font "Arial" (font_size 6)))
	(text "SP_load" (rect 90 0 147 14)(font "Arial" ))
	(pt 0 8)
	(drawing
		(line (pt 0 8)(pt 52 8))
		(line (pt 52 4)(pt 78 4))
		(line (pt 52 12)(pt 78 12))
		(line (pt 52 12)(pt 52 4))
		(line (pt 78 4)(pt 82 8))
		(line (pt 82 8)(pt 78 12))
		(line (pt 78 12)(pt 82 8))
	)
)
(pin
	(output)
	(rect 392 632 568 648)
	(text "OUTPUT" (rect 1 0 50 11)(font "Arial" (font_size 6)))
	(text "PC_inc" (rect 90 0 139 14)(font "Arial" ))
	(pt 0 8)
	(drawing
		(line (pt 0 8)(pt 52 8))
		(line (pt 52 4)(pt 78 4))
		(line (pt 52 12)(pt 78 12))
		(line (pt 52 12)(pt 52 4))
		(line (pt 78 4)(pt 82 8))
		(line (pt 82 8)(pt 78 12))
		(line (pt 78 12)(pt 82 8))
	)
)
(pin
	(output)
	(rect 392 648 568 664)
	(text "OUTPUT" (rect 1 0 50 11)(font "Arial" (font_size 6)))
	(text "PC_load" (rect 90 0 147 14)(font "Arial" ))
	(pt 0 8)
	(drawing
		(line (pt 0 8)(pt 52 8))
		(line (pt 52 4)(pt 78 4))
		(line (pt 52 12)(pt 78 12))
		(line (pt 52 12)(pt 52 4))
		(line (pt 78 4)(pt 82 8))
		(line (pt 82 8)(pt 78 12))
		(line (pt 78 12)(pt 82 8))
	)
)
(pin
	(output)
	(rect 312 536 540 552)
	(text "OUTPUT" (rect 1 0 50 11)(font "Arial" (font_size 6)))
	(text "Bus_select[2..0]" (rect 90 0 222 14)(font "Arial" ))
	(pt 0 8)
	(drawing
		(line (pt 0 8)(pt 52 8))
		(line (pt 52 4)(pt 78 4))
		(line (pt 52 12)(pt 78 12))
		(line (pt 52 12)(pt 52 4))
		(line (pt 78 4)(pt 82 8))
		(line (pt 82 8)(pt 78 12))
		(line (pt 78 12)(pt 82 8))
	)
)
(pin
	(output)
	(rect 376 696 552 712)
	(text "OUTPUT" (rect 1 0 50 11)(font "Arial" (font_size 6)))
	(text "ER_clrn" (rect 90 0 147 14)(font "Arial" ))
	(pt 0 8)
	(drawing
		(line (pt 0 8)(pt 52 8))
		(line (pt 52 4)(pt 78 4))
		(line (pt 52 12)(pt 78 12))
		(line (pt 52 12)(pt 52 4))
		(line (pt 78 4)(pt 82 8))
		(line (pt 82 8)(pt 78 12))
		(line (pt 78 12)(pt 82 8))
	)
)
(pin
	(output)
	(rect 376 712 552 728)
	(text "OUTPUT" (rect 1 0 50 11)(font "Arial" (font_size 6)))
	(text "ER_load" (rect 90 0 147 14)(font "Arial" ))
	(pt 0 8)
	(drawing
		(line (pt 0 8)(pt 52 8))
		(line (pt 52 4)(pt 78 4))
		(line (pt 52 12)(pt 78 12))
		(line (pt 52 12)(pt 52 4))
		(line (pt 78 4)(pt 82 8))
		(line (pt 82 8)(pt 78 12))
		(line (pt 78 12)(pt 82 8))
	)
)
(pin
	(output)
	(rect 376 856 552 872)
	(text "OUTPUT" (rect 1 0 50 11)(font "Arial" (font_size 6)))
	(text "TT0" (rect 90 0 114 14)(font "Arial" ))
	(pt 0 8)
	(drawing
		(line (pt 0 8)(pt 52 8))
		(line (pt 52 4)(pt 78 4))
		(line (pt 52 12)(pt 78 12))
		(line (pt 52 12)(pt 52 4))
		(line (pt 78 4)(pt 82 8))
		(line (pt 82 8)(pt 78 12))
		(line (pt 78 12)(pt 82 8))
	)
)
(pin
	(output)
	(rect 376 872 552 888)
	(text "OUTPUT" (rect 1 0 50 11)(font "Arial" (font_size 6)))
	(text "TT1" (rect 90 0 114 14)(font "Arial" ))
	(pt 0 8)
	(drawing
		(line (pt 0 8)(pt 52 8))
		(line (pt 52 4)(pt 78 4))
		(line (pt 52 12)(pt 78 12))
		(line (pt 52 12)(pt 52 4))
		(line (pt 78 4)(pt 82 8))
		(line (pt 82 8)(pt 78 12))
		(line (pt 78 12)(pt 82 8))
	)
)
(pin
	(output)
	(rect 376 904 552 920)
	(text "OUTPUT" (rect 1 0 50 11)(font "Arial" (font_size 6)))
	(text "TT3[7..0]" (rect 90 0 164 14)(font "Arial" ))
	(pt 0 8)
	(drawing
		(line (pt 0 8)(pt 52 8))
		(line (pt 52 4)(pt 78 4))
		(line (pt 52 12)(pt 78 12))
		(line (pt 52 12)(pt 52 4))
		(line (pt 78 4)(pt 82 8))
		(line (pt 82 8)(pt 78 12))
		(line (pt 78 12)(pt 82 8))
	)
)
(pin
	(output)
	(rect 376 888 554 904)
	(text "OUTPUT" (rect 1 0 50 11)(font "Arial" (font_size 6)))
	(text "Cntr[4..0]" (rect 90 0 172 14)(font "Arial" ))
	(pt 0 8)
	(drawing
		(line (pt 0 8)(pt 52 8))
		(line (pt 52 4)(pt 78 4))
		(line (pt 52 12)(pt 78 12))
		(line (pt 52 12)(pt 52 4))
		(line (pt 78 4)(pt 82 8))
		(line (pt 82 8)(pt 78 12))
		(line (pt 78 12)(pt 82 8))
	)
)
(pin
	(output)
	(rect 368 976 554 992)
	(text "OUTPUT" (rect 1 0 50 11)(font "Arial" (font_size 6)))
	(text "DR_load8bit" (rect 90 0 180 14)(font "Arial" ))
	(pt 0 8)
	(drawing
		(line (pt 0 8)(pt 52 8))
		(line (pt 52 4)(pt 78 4))
		(line (pt 52 12)(pt 78 12))
		(line (pt 52 12)(pt 52 4))
		(line (pt 78 4)(pt 82 8))
		(line (pt 82 8)(pt 78 12))
		(line (pt 78 12)(pt 82 8))
	)
)
(symbol
	(rect 336 256 560 352)
	(text "Encoder10_4" (rect 5 0 108 16)(font "Arial" (font_size 8)))
	(text "inst2" (rect 8 78 49 92)(font "Arial" ))
	(port
		(pt 0 32)
		(input)
		(text "in[10..0]" (rect 0 0 84 16)(font "Arial" (font_size 8)))
		(text "in[10..0]" (rect 21 27 105 43)(font "Arial" (font_size 8)))
		(line (pt 0 32)(pt 16 32)(line_width 3))
	)
	(port
		(pt 224 32)
		(output)
		(text "out[3..0]" (rect 0 0 84 16)(font "Arial" (font_size 8)))
		(text "out[3..0]" (rect 119 27 203 43)(font "Arial" (font_size 8)))
		(line (pt 224 32)(pt 208 32)(line_width 3))
	)
	(port
		(pt 224 48)
		(output)
		(text "valid" (rect 0 0 47 16)(font "Arial" (font_size 8)))
		(text "valid" (rect 156 43 203 59)(font "Arial" (font_size 8)))
		(line (pt 224 48)(pt 208 48))
	)
	(drawing
		(rectangle (rect 16 16 208 80))
	)
)
(symbol
	(rect 24 256 264 352)
	(text "InstructionDetector" (rect 5 0 184 16)(font "Arial" (font_size 8)))
	(text "inst1" (rect 8 78 49 92)(font "Arial" ))
	(port
		(pt 0 32)
		(input)
		(text "ins[7..0]" (rect 0 0 84 16)(font "Arial" (font_size 8)))
		(text "ins[7..0]" (rect 21 27 105 43)(font "Arial" (font_size 8)))
		(line (pt 0 32)(pt 16 32)(line_width 3))
	)
	(port
		(pt 240 32)
		(output)
		(text "cmnd[10..0]" (rect 0 0 103 16)(font "Arial" (font_size 8)))
		(text "cmnd[10..0]" (rect 116 27 219 43)(font "Arial" (font_size 8)))
		(line (pt 240 32)(pt 224 32)(line_width 3))
	)
	(drawing
		(rectangle (rect 16 16 224 80))
	)
)
(symbol
	(rect 72 136 104 152)
	(text "VCC" (rect 7 0 31 11)(font "Arial" (font_size 6)))
	(text "inst3" (rect 3 5 44 19)(font "Arial" )(invisible))
	(port
		(pt 16 16)
		(output)
		(text "1" (rect 19 7 24 21)(font "Courier New" (bold))(invisible))
		(text "1" (rect 19 7 24 21)(font "Courier New" (bold))(invisible))
		(line (pt 16 16)(pt 16 8))
	)
	(drawing
		(line (pt 8 8)(pt 24 8))
	)
)
(symbol
	(rect 704 664 768 712)
	(text "AND2" (rect 1 0 34 11)(font "Arial" (font_size 6)))
	(text "inst5" (rect 3 37 44 51)(font "Arial" ))
	(port
		(pt 0 16)
		(input)
		(text "IN1" (rect 2 7 19 21)(font "Courier New" (bold))(invisible))
		(text "IN1" (rect 2 7 19 21)(font "Courier New" (bold))(invisible))
		(line (pt 0 16)(pt 14 16))
	)
	(port
		(pt 0 32)
		(input)
		(text "IN2" (rect 2 23 19 37)(font "Courier New" (bold))(invisible))
		(text "IN2" (rect 2 23 19 37)(font "Courier New" (bold))(invisible))
		(line (pt 0 32)(pt 14 32))
	)
	(port
		(pt 64 24)
		(output)
		(text "OUT" (rect 48 15 65 29)(font "Courier New" (bold))(invisible))
		(text "OUT" (rect 48 15 65 29)(font "Courier New" (bold))(invisible))
		(line (pt 42 24)(pt 64 24))
	)
	(drawing
		(line (pt 14 12)(pt 30 12))
		(line (pt 14 37)(pt 31 37))
		(line (pt 14 12)(pt 14 37))
		(arc (pt 31 37)(pt 30 12)(rect 18 12 43 37))
	)
)
(symbol
	(rect 704 768 768 816)
	(text "AND2" (rect 1 0 34 11)(font "Arial" (font_size 6)))
	(text "inst7" (rect 3 37 44 51)(font "Arial" ))
	(port
		(pt 0 16)
		(input)
		(text "IN1" (rect 2 7 19 21)(font "Courier New" (bold))(invisible))
		(text "IN1" (rect 2 7 19 21)(font "Courier New" (bold))(invisible))
		(line (pt 0 16)(pt 14 16))
	)
	(port
		(pt 0 32)
		(input)
		(text "IN2" (rect 2 23 19 37)(font "Courier New" (bold))(invisible))
		(text "IN2" (rect 2 23 19 37)(font "Courier New" (bold))(invisible))
		(line (pt 0 32)(pt 14 32))
	)
	(port
		(pt 64 24)
		(output)
		(text "OUT" (rect 48 15 65 29)(font "Courier New" (bold))(invisible))
		(text "OUT" (rect 48 15 65 29)(font "Courier New" (bold))(invisible))
		(line (pt 42 24)(pt 64 24))
	)
	(drawing
		(line (pt 14 12)(pt 30 12))
		(line (pt 14 37)(pt 31 37))
		(line (pt 14 12)(pt 14 37))
		(arc (pt 31 37)(pt 30 12)(rect 18 12 43 37))
	)
)
(symbol
	(rect 128 192 160 224)
	(text "GND" (rect 8 16 32 27)(font "Arial" (font_size 6)))
	(text "inst14" (rect 3 21 52 35)(font "Arial" )(invisible))
	(port
		(pt 16 0)
		(output)
		(text "1" (rect 18 0 23 14)(font "Courier New" (bold))(invisible))
		(text "1" (rect 18 0 23 14)(font "Courier New" (bold))(invisible))
		(line (pt 16 8)(pt 16 0))
	)
	(drawing
		(line (pt 8 8)(pt 16 16))
		(line (pt 16 16)(pt 24 8))
		(line (pt 8 8)(pt 24 8))
	)
)
(symbol
	(rect 704 712 768 760)
	(text "OR2" (rect 1 0 25 11)(font "Arial" (font_size 6)))
	(text "inst17" (rect 3 37 52 51)(font "Arial" ))
	(port
		(pt 0 32)
		(input)
		(text "IN2" (rect 2 23 19 37)(font "Courier New" (bold))(invisible))
		(text "IN2" (rect 2 23 19 37)(font "Courier New" (bold))(invisible))
		(line (pt 0 32)(pt 15 32))
	)
	(port
		(pt 0 16)
		(input)
		(text "IN1" (rect 2 7 19 21)(font "Courier New" (bold))(invisible))
		(text "IN1" (rect 2 7 19 21)(font "Courier New" (bold))(invisible))
		(line (pt 0 16)(pt 15 16))
	)
	(port
		(pt 64 24)
		(output)
		(text "OUT" (rect 48 15 65 29)(font "Courier New" (bold))(invisible))
		(text "OUT" (rect 48 15 65 29)(font "Courier New" (bold))(invisible))
		(line (pt 48 24)(pt 64 24))
	)
	(drawing
		(line (pt 14 36)(pt 25 36))
		(line (pt 14 13)(pt 25 13))
		(arc (pt 7 29)(pt 7 19)(rect -14 8 19 41))
		(arc (pt 49 24)(pt 25 13)(rect -6 13 57 76))
		(arc (pt 25 35)(pt 49 24)(rect -6 -27 57 36))
	)
)
(symbol
	(rect 704 824 768 872)
	(text "AND2" (rect 1 0 34 11)(font "Arial" (font_size 6)))
	(text "inst25" (rect 3 37 52 51)(font "Arial" ))
	(port
		(pt 0 16)
		(input)
		(text "IN1" (rect 2 7 19 21)(font "Courier New" (bold))(invisible))
		(text "IN1" (rect 2 7 19 21)(font "Courier New" (bold))(invisible))
		(line (pt 0 16)(pt 14 16))
	)
	(port
		(pt 0 32)
		(input)
		(text "IN2" (rect 2 23 19 37)(font "Courier New" (bold))(invisible))
		(text "IN2" (rect 2 23 19 37)(font "Courier New" (bold))(invisible))
		(line (pt 0 32)(pt 14 32))
	)
	(port
		(pt 64 24)
		(output)
		(text "OUT" (rect 48 15 65 29)(font "Courier New" (bold))(invisible))
		(text "OUT" (rect 48 15 65 29)(font "Courier New" (bold))(invisible))
		(line (pt 42 24)(pt 64 24))
	)
	(drawing
		(line (pt 14 12)(pt 30 12))
		(line (pt 14 37)(pt 31 37))
		(line (pt 14 12)(pt 14 37))
		(arc (pt 31 37)(pt 30 12)(rect 18 12 43 37))
	)
)
(symbol
	(rect 704 880 768 928)
	(text "AND2" (rect 1 0 34 11)(font "Arial" (font_size 6)))
	(text "inst26" (rect 3 37 52 51)(font "Arial" ))
	(port
		(pt 0 16)
		(input)
		(text "IN1" (rect 2 7 19 21)(font "Courier New" (bold))(invisible))
		(text "IN1" (rect 2 7 19 21)(font "Courier New" (bold))(invisible))
		(line (pt 0 16)(pt 14 16))
	)
	(port
		(pt 0 32)
		(input)
		(text "IN2" (rect 2 23 19 37)(font "Courier New" (bold))(invisible))
		(text "IN2" (rect 2 23 19 37)(font "Courier New" (bold))(invisible))
		(line (pt 0 32)(pt 14 32))
	)
	(port
		(pt 64 24)
		(output)
		(text "OUT" (rect 48 15 65 29)(font "Courier New" (bold))(invisible))
		(text "OUT" (rect 48 15 65 29)(font "Courier New" (bold))(invisible))
		(line (pt 42 24)(pt 64 24))
	)
	(drawing
		(line (pt 14 12)(pt 30 12))
		(line (pt 14 37)(pt 31 37))
		(line (pt 14 12)(pt 14 37))
		(arc (pt 31 37)(pt 30 12)(rect 18 12 43 37))
	)
)
(symbol
	(rect 584 -136 712 248)
	(text "Decoder5_1" (rect 20 0 149 18)(font "Arial" (font_size 10)))
	(text "inst" (rect 8 366 41 380)(font "Arial" ))
	(port
		(pt 0 192)
		(input)
		(text "data[4..0]" (rect 0 0 94 16)(font "Arial" (font_size 8)))
		(text "data[4..0]" (rect 20 184 114 200)(font "Arial" (font_size 8)))
		(line (pt 0 192)(pt 16 192)(line_width 3))
	)
	(port
		(pt 128 32)
		(output)
		(text "eq0" (rect 0 0 28 16)(font "Arial" (font_size 8)))
		(text "eq0" (rect 88 24 116 40)(font "Arial" (font_size 8)))
		(line (pt 128 32)(pt 112 32))
	)
	(port
		(pt 128 48)
		(output)
		(text "eq1" (rect 0 0 28 16)(font "Arial" (font_size 8)))
		(text "eq1" (rect 88 40 116 56)(font "Arial" (font_size 8)))
		(line (pt 128 48)(pt 112 48))
	)
	(port
		(pt 128 64)
		(output)
		(text "eq2" (rect 0 0 28 16)(font "Arial" (font_size 8)))
		(text "eq2" (rect 88 56 116 72)(font "Arial" (font_size 8)))
		(line (pt 128 64)(pt 112 64))
	)
	(port
		(pt 128 80)
		(output)
		(text "eq3" (rect 0 0 28 16)(font "Arial" (font_size 8)))
		(text "eq3" (rect 88 72 116 88)(font "Arial" (font_size 8)))
		(line (pt 128 80)(pt 112 80))
	)
	(port
		(pt 128 96)
		(output)
		(text "eq4" (rect 0 0 28 16)(font "Arial" (font_size 8)))
		(text "eq4" (rect 88 88 116 104)(font "Arial" (font_size 8)))
		(line (pt 128 96)(pt 112 96))
	)
	(port
		(pt 128 112)
		(output)
		(text "eq5" (rect 0 0 28 16)(font "Arial" (font_size 8)))
		(text "eq5" (rect 88 104 116 120)(font "Arial" (font_size 8)))
		(line (pt 128 112)(pt 112 112))
	)
	(port
		(pt 128 128)
		(output)
		(text "eq6" (rect 0 0 28 16)(font "Arial" (font_size 8)))
		(text "eq6" (rect 88 120 116 136)(font "Arial" (font_size 8)))
		(line (pt 128 128)(pt 112 128))
	)
	(port
		(pt 128 144)
		(output)
		(text "eq7" (rect 0 0 28 16)(font "Arial" (font_size 8)))
		(text "eq7" (rect 88 136 116 152)(font "Arial" (font_size 8)))
		(line (pt 128 144)(pt 112 144))
	)
	(port
		(pt 128 160)
		(output)
		(text "eq8" (rect 0 0 28 16)(font "Arial" (font_size 8)))
		(text "eq8" (rect 88 152 116 168)(font "Arial" (font_size 8)))
		(line (pt 128 160)(pt 112 160))
	)
	(port
		(pt 128 176)
		(output)
		(text "eq9" (rect 0 0 28 16)(font "Arial" (font_size 8)))
		(text "eq9" (rect 88 168 116 184)(font "Arial" (font_size 8)))
		(line (pt 128 176)(pt 112 176))
	)
	(port
		(pt 128 192)
		(output)
		(text "eq10" (rect 0 0 37 16)(font "Arial" (font_size 8)))
		(text "eq10" (rect 81 184 118 200)(font "Arial" (font_size 8)))
		(line (pt 128 192)(pt 112 192))
	)
	(port
		(pt 128 208)
		(output)
		(text "eq11" (rect 0 0 37 16)(font "Arial" (font_size 8)))
		(text "eq11" (rect 82 200 119 216)(font "Arial" (font_size 8)))
		(line (pt 128 208)(pt 112 208))
	)
	(port
		(pt 128 224)
		(output)
		(text "eq12" (rect 0 0 37 16)(font "Arial" (font_size 8)))
		(text "eq12" (rect 81 216 118 232)(font "Arial" (font_size 8)))
		(line (pt 128 224)(pt 112 224))
	)
	(port
		(pt 128 240)
		(output)
		(text "eq13" (rect 0 0 37 16)(font "Arial" (font_size 8)))
		(text "eq13" (rect 81 232 118 248)(font "Arial" (font_size 8)))
		(line (pt 128 240)(pt 112 240))
	)
	(port
		(pt 128 256)
		(output)
		(text "eq14" (rect 0 0 37 16)(font "Arial" (font_size 8)))
		(text "eq14" (rect 81 248 118 264)(font "Arial" (font_size 8)))
		(line (pt 128 256)(pt 112 256))
	)
	(port
		(pt 128 272)
		(output)
		(text "eq15" (rect 0 0 37 16)(font "Arial" (font_size 8)))
		(text "eq15" (rect 81 264 118 280)(font "Arial" (font_size 8)))
		(line (pt 128 272)(pt 112 272))
	)
	(port
		(pt 128 288)
		(output)
		(text "eq16" (rect 0 0 37 16)(font "Arial" (font_size 8)))
		(text "eq16" (rect 81 280 118 296)(font "Arial" (font_size 8)))
		(line (pt 128 288)(pt 112 288))
	)
	(port
		(pt 128 304)
		(output)
		(text "eq17" (rect 0 0 37 16)(font "Arial" (font_size 8)))
		(text "eq17" (rect 81 296 118 312)(font "Arial" (font_size 8)))
		(line (pt 128 304)(pt 112 304))
	)
	(port
		(pt 128 320)
		(output)
		(text "eq18" (rect 0 0 37 16)(font "Arial" (font_size 8)))
		(text "eq18" (rect 81 312 118 328)(font "Arial" (font_size 8)))
		(line (pt 128 320)(pt 112 320))
	)
	(port
		(pt 128 336)
		(output)
		(text "eq19" (rect 0 0 37 16)(font "Arial" (font_size 8)))
		(text "eq19" (rect 81 328 118 344)(font "Arial" (font_size 8)))
		(line (pt 128 336)(pt 112 336))
	)
	(port
		(pt 128 352)
		(output)
		(text "eq20" (rect 0 0 37 16)(font "Arial" (font_size 8)))
		(text "eq20" (rect 81 344 118 360)(font "Arial" (font_size 8)))
		(line (pt 128 352)(pt 112 352))
	)
	(drawing
		(line (pt 16 16)(pt 16 368))
		(line (pt 16 16)(pt 112 16))
		(line (pt 16 368)(pt 112 368))
		(line (pt 112 16)(pt 112 368))
		(line (pt 0 0)(pt 130 0))
		(line (pt 130 0)(pt 130 386))
		(line (pt 0 386)(pt 130 386))
		(line (pt 0 0)(pt 0 386))
		(line (pt 0 0)(pt 0 0))
		(line (pt 0 0)(pt 0 0))
		(line (pt 0 0)(pt 0 0))
		(line (pt 0 0)(pt 0 0))
	)
)
(symbol
	(rect 688 288 904 384)
	(text "digit_or32bit" (rect 5 0 127 16)(font "Arial" (font_size 8)))
	(text "inst13" (rect 8 78 57 92)(font "Arial" ))
	(port
		(pt 0 32)
		(input)
		(text "in[31..0]" (rect 0 0 84 16)(font "Arial" (font_size 8)))
		(text "in[31..0]" (rect 21 27 105 43)(font "Arial" (font_size 8)))
		(line (pt 0 32)(pt 16 32)(line_width 3))
	)
	(port
		(pt 216 32)
		(output)
		(text "digit_or" (rect 0 0 75 16)(font "Arial" (font_size 8)))
		(text "digit_or" (rect 120 27 195 43)(font "Arial" (font_size 8)))
		(line (pt 216 32)(pt 200 32))
	)
	(drawing
		(rectangle (rect 16 16 200 80))
	)
)
(symbol
	(rect 1072 736 1336 864)
	(text "IR_load" (rect 5 0 71 16)(font "Arial" (font_size 8)))
	(text "inst10" (rect 8 110 57 124)(font "Arial" ))
	(port
		(pt 0 32)
		(input)
		(text "ready" (rect 0 0 47 16)(font "Arial" (font_size 8)))
		(text "ready" (rect 21 27 68 43)(font "Arial" (font_size 8)))
		(line (pt 0 32)(pt 16 32))
	)
	(port
		(pt 0 48)
		(input)
		(text "start" (rect 0 0 47 16)(font "Arial" (font_size 8)))
		(text "start" (rect 21 43 68 59)(font "Arial" (font_size 8)))
		(line (pt 0 48)(pt 16 48))
	)
	(port
		(pt 0 64)
		(input)
		(text "cmnd[10..0]" (rect 0 0 103 16)(font "Arial" (font_size 8)))
		(text "cmnd[10..0]" (rect 21 59 124 75)(font "Arial" (font_size 8)))
		(line (pt 0 64)(pt 16 64)(line_width 3))
	)
	(port
		(pt 0 80)
		(input)
		(text "Counter[4..0]" (rect 0 0 122 16)(font "Arial" (font_size 8)))
		(text "Counter[4..0]" (rect 21 75 143 91)(font "Arial" (font_size 8)))
		(line (pt 0 80)(pt 16 80)(line_width 3))
	)
	(port
		(pt 264 32)
		(output)
		(text "Name_here" (rect 0 0 84 16)(font "Arial" (font_size 8)))
		(text "Name_here" (rect 159 27 243 43)(font "Arial" (font_size 8)))
		(line (pt 264 32)(pt 248 32))
	)
	(drawing
		(rectangle (rect 16 16 248 112))
	)
)
(symbol
	(rect 1504 328 1768 456)
	(text "Bus_select1" (rect 5 0 108 16)(font "Arial" (font_size 8)))
	(text "inst11" (rect 8 110 57 124)(font "Arial" ))
	(port
		(pt 0 32)
		(input)
		(text "ready" (rect 0 0 47 16)(font "Arial" (font_size 8)))
		(text "ready" (rect 21 27 68 43)(font "Arial" (font_size 8)))
		(line (pt 0 32)(pt 16 32))
	)
	(port
		(pt 0 48)
		(input)
		(text "start" (rect 0 0 47 16)(font "Arial" (font_size 8)))
		(text "start" (rect 21 43 68 59)(font "Arial" (font_size 8)))
		(line (pt 0 48)(pt 16 48))
	)
	(port
		(pt 0 64)
		(input)
		(text "cmnd[10..0]" (rect 0 0 103 16)(font "Arial" (font_size 8)))
		(text "cmnd[10..0]" (rect 21 59 124 75)(font "Arial" (font_size 8)))
		(line (pt 0 64)(pt 16 64)(line_width 3))
	)
	(port
		(pt 0 80)
		(input)
		(text "Counter[4..0]" (rect 0 0 122 16)(font "Arial" (font_size 8)))
		(text "Counter[4..0]" (rect 21 75 143 91)(font "Arial" (font_size 8)))
		(line (pt 0 80)(pt 16 80)(line_width 3))
	)
	(port
		(pt 264 32)
		(output)
		(text "Name_here" (rect 0 0 84 16)(font "Arial" (font_size 8)))
		(text "Name_here" (rect 159 27 243 43)(font "Arial" (font_size 8)))
		(line (pt 264 32)(pt 248 32))
	)
	(drawing
		(rectangle (rect 16 16 248 112))
	)
)
(symbol
	(rect 1504 192 1768 320)
	(text "Bus_select0" (rect 5 0 108 16)(font "Arial" (font_size 8)))
	(text "inst15" (rect 8 110 57 124)(font "Arial" ))
	(port
		(pt 0 32)
		(input)
		(text "ready" (rect 0 0 47 16)(font "Arial" (font_size 8)))
		(text "ready" (rect 21 27 68 43)(font "Arial" (font_size 8)))
		(line (pt 0 32)(pt 16 32))
	)
	(port
		(pt 0 48)
		(input)
		(text "start" (rect 0 0 47 16)(font "Arial" (font_size 8)))
		(text "start" (rect 21 43 68 59)(font "Arial" (font_size 8)))
		(line (pt 0 48)(pt 16 48))
	)
	(port
		(pt 0 64)
		(input)
		(text "cmnd[10..0]" (rect 0 0 103 16)(font "Arial" (font_size 8)))
		(text "cmnd[10..0]" (rect 21 59 124 75)(font "Arial" (font_size 8)))
		(line (pt 0 64)(pt 16 64)(line_width 3))
	)
	(port
		(pt 0 80)
		(input)
		(text "Counter[4..0]" (rect 0 0 122 16)(font "Arial" (font_size 8)))
		(text "Counter[4..0]" (rect 21 75 143 91)(font "Arial" (font_size 8)))
		(line (pt 0 80)(pt 16 80)(line_width 3))
	)
	(port
		(pt 264 32)
		(output)
		(text "Name_here" (rect 0 0 84 16)(font "Arial" (font_size 8)))
		(text "Name_here" (rect 159 27 243 43)(font "Arial" (font_size 8)))
		(line (pt 264 32)(pt 248 32))
	)
	(drawing
		(rectangle (rect 16 16 248 112))
	)
)
(symbol
	(rect 1504 464 1768 624)
	(text "Bus_select2" (rect 5 0 108 16)(font "Arial" (font_size 8)))
	(text "inst16" (rect 8 142 57 156)(font "Arial" ))
	(port
		(pt 0 32)
		(input)
		(text "ready" (rect 0 0 47 16)(font "Arial" (font_size 8)))
		(text "ready" (rect 21 27 68 43)(font "Arial" (font_size 8)))
		(line (pt 0 32)(pt 16 32))
	)
	(port
		(pt 0 48)
		(input)
		(text "start" (rect 0 0 47 16)(font "Arial" (font_size 8)))
		(text "start" (rect 21 43 68 59)(font "Arial" (font_size 8)))
		(line (pt 0 48)(pt 16 48))
	)
	(port
		(pt 0 64)
		(input)
		(text "cmnd[10..0]" (rect 0 0 103 16)(font "Arial" (font_size 8)))
		(text "cmnd[10..0]" (rect 21 59 124 75)(font "Arial" (font_size 8)))
		(line (pt 0 64)(pt 16 64)(line_width 3))
	)
	(port
		(pt 0 80)
		(input)
		(text "DR_sign" (rect 0 0 66 16)(font "Arial" (font_size 8)))
		(text "DR_sign" (rect 21 75 87 91)(font "Arial" (font_size 8)))
		(line (pt 0 80)(pt 16 80))
	)
	(port
		(pt 0 96)
		(input)
		(text "OR_DR" (rect 0 0 47 16)(font "Arial" (font_size 8)))
		(text "OR_DR" (rect 21 91 68 107)(font "Arial" (font_size 8)))
		(line (pt 0 96)(pt 16 96))
	)
	(port
		(pt 0 112)
		(input)
		(text "Counter[4..0]" (rect 0 0 122 16)(font "Arial" (font_size 8)))
		(text "Counter[4..0]" (rect 21 107 143 123)(font "Arial" (font_size 8)))
		(line (pt 0 112)(pt 16 112)(line_width 3))
	)
	(port
		(pt 264 32)
		(output)
		(text "Name_here" (rect 0 0 84 16)(font "Arial" (font_size 8)))
		(text "Name_here" (rect 159 27 243 43)(font "Arial" (font_size 8)))
		(line (pt 264 32)(pt 248 32))
	)
	(drawing
		(rectangle (rect 16 16 248 144))
	)
)
(symbol
	(rect 240 136 456 232)
	(text "digit_or32bit" (rect 5 0 127 16)(font "Arial" (font_size 8)))
	(text "inst18" (rect 8 78 57 92)(font "Arial" ))
	(port
		(pt 0 32)
		(input)
		(text "in[31..0]" (rect 0 0 84 16)(font "Arial" (font_size 8)))
		(text "in[31..0]" (rect 21 27 105 43)(font "Arial" (font_size 8)))
		(line (pt 0 32)(pt 16 32)(line_width 3))
	)
	(port
		(pt 216 32)
		(output)
		(text "digit_or" (rect 0 0 75 16)(font "Arial" (font_size 8)))
		(text "digit_or" (rect 120 27 195 43)(font "Arial" (font_size 8)))
		(line (pt 216 32)(pt 200 32))
	)
	(drawing
		(rectangle (rect 16 16 200 80))
	)
)
(symbol
	(rect 1496 640 1768 768)
	(text "Counter_inc" (rect 5 0 108 16)(font "Arial" (font_size 8)))
	(text "inst12" (rect 8 110 57 124)(font "Arial" ))
	(port
		(pt 0 32)
		(input)
		(text "ready" (rect 0 0 47 16)(font "Arial" (font_size 8)))
		(text "ready" (rect 21 27 68 43)(font "Arial" (font_size 8)))
		(line (pt 0 32)(pt 16 32))
	)
	(port
		(pt 0 48)
		(input)
		(text "start" (rect 0 0 47 16)(font "Arial" (font_size 8)))
		(text "start" (rect 21 43 68 59)(font "Arial" (font_size 8)))
		(line (pt 0 48)(pt 16 48))
	)
	(port
		(pt 0 64)
		(input)
		(text "cmnd[10..0]" (rect 0 0 103 16)(font "Arial" (font_size 8)))
		(text "cmnd[10..0]" (rect 21 59 124 75)(font "Arial" (font_size 8)))
		(line (pt 0 64)(pt 16 64)(line_width 3))
	)
	(port
		(pt 0 80)
		(input)
		(text "Counter[4..0]" (rect 0 0 122 16)(font "Arial" (font_size 8)))
		(text "Counter[4..0]" (rect 21 75 143 91)(font "Arial" (font_size 8)))
		(line (pt 0 80)(pt 16 80)(line_width 3))
	)
	(port
		(pt 272 32)
		(output)
		(text "Conter_inc" (rect 0 0 94 16)(font "Arial" (font_size 8)))
		(text "Conter_inc" (rect 157 27 251 43)(font "Arial" (font_size 8)))
		(line (pt 272 32)(pt 256 32))
	)
	(drawing
		(rectangle (rect 16 16 256 112))
	)
)
(symbol
	(rect 168 488 232 568)
	(text "DFF" (rect 1 0 25 11)(font "Arial" (font_size 6)))
	(text "inst19" (rect 3 68 52 82)(font "Arial" ))
	(port
		(pt 32 80)
		(input)
		(text "CLRN" (rect 21 59 44 73)(font "Courier New" (bold)))
		(text "CLRN" (rect 21 58 44 72)(font "Courier New" (bold)))
		(line (pt 32 80)(pt 32 76))
	)
	(port
		(pt 0 40)
		(input)
		(text "CLK" (rect 3 29 20 43)(font "Courier New" (bold))(invisible))
		(text "CLK" (rect 3 29 20 43)(font "Courier New" (bold))(invisible))
		(line (pt 0 40)(pt 12 40))
	)
	(port
		(pt 0 24)
		(input)
		(text "D" (rect 14 20 19 34)(font "Courier New" (bold)))
		(text "D" (rect 14 20 19 34)(font "Courier New" (bold)))
		(line (pt 0 24)(pt 12 24))
	)
	(port
		(pt 32 0)
		(input)
		(text "PRN" (rect 24 13 41 27)(font "Courier New" (bold)))
		(text "PRN" (rect 24 11 41 25)(font "Courier New" (bold)))
		(line (pt 32 4)(pt 32 0))
	)
	(port
		(pt 64 24)
		(output)
		(text "Q" (rect 45 20 50 34)(font "Courier New" (bold)))
		(text "Q" (rect 43 20 48 34)(font "Courier New" (bold)))
		(line (pt 52 24)(pt 64 24))
	)
	(drawing
		(line (pt 12 12)(pt 52 12))
		(line (pt 12 68)(pt 52 68))
		(line (pt 52 68)(pt 52 12))
		(line (pt 12 68)(pt 12 12))
		(line (pt 19 40)(pt 12 47))
		(line (pt 12 32)(pt 20 40))
		(circle (rect 28 4 36 12))
		(circle (rect 28 68 36 76))
	)
)
(symbol
	(rect 1072 328 1336 456)
	(text "PC_inc" (rect 5 0 61 16)(font "Arial" (font_size 8)))
	(text "inst6" (rect 8 110 49 124)(font "Arial" ))
	(port
		(pt 0 32)
		(input)
		(text "ready" (rect 0 0 47 16)(font "Arial" (font_size 8)))
		(text "ready" (rect 21 27 68 43)(font "Arial" (font_size 8)))
		(line (pt 0 32)(pt 16 32))
	)
	(port
		(pt 0 48)
		(input)
		(text "start" (rect 0 0 47 16)(font "Arial" (font_size 8)))
		(text "start" (rect 21 43 68 59)(font "Arial" (font_size 8)))
		(line (pt 0 48)(pt 16 48))
	)
	(port
		(pt 0 64)
		(input)
		(text "cmnd[10..0]" (rect 0 0 103 16)(font "Arial" (font_size 8)))
		(text "cmnd[10..0]" (rect 21 59 124 75)(font "Arial" (font_size 8)))
		(line (pt 0 64)(pt 16 64)(line_width 3))
	)
	(port
		(pt 0 80)
		(input)
		(text "arldd" (rect 0 0 47 16)(font "Arial" (font_size 8)))
		(text "arldd" (rect 21 75 68 91)(font "Arial" (font_size 8)))
		(line (pt 0 80)(pt 16 80))
	)
	(port
		(pt 0 96)
		(input)
		(text "Counter[4..0]" (rect 0 0 122 16)(font "Arial" (font_size 8)))
		(text "Counter[4..0]" (rect 21 91 143 107)(font "Arial" (font_size 8)))
		(line (pt 0 96)(pt 16 96)(line_width 3))
	)
	(port
		(pt 264 32)
		(output)
		(text "Name_here" (rect 0 0 84 16)(font "Arial" (font_size 8)))
		(text "Name_here" (rect 159 27 243 43)(font "Arial" (font_size 8)))
		(line (pt 264 32)(pt 248 32))
	)
	(drawing
		(rectangle (rect 16 16 248 112))
	)
)
(symbol
	(rect 1072 192 1336 320)
	(text "AR_load" (rect 5 0 71 16)(font "Arial" (font_size 8)))
	(text "inst4" (rect 8 110 49 124)(font "Arial" ))
	(port
		(pt 0 32)
		(input)
		(text "ready" (rect 0 0 47 16)(font "Arial" (font_size 8)))
		(text "ready" (rect 21 27 68 43)(font "Arial" (font_size 8)))
		(line (pt 0 32)(pt 16 32))
	)
	(port
		(pt 0 48)
		(input)
		(text "start" (rect 0 0 47 16)(font "Arial" (font_size 8)))
		(text "start" (rect 21 43 68 59)(font "Arial" (font_size 8)))
		(line (pt 0 48)(pt 16 48))
	)
	(port
		(pt 0 64)
		(input)
		(text "cmnd[10..0]" (rect 0 0 103 16)(font "Arial" (font_size 8)))
		(text "cmnd[10..0]" (rect 21 59 124 75)(font "Arial" (font_size 8)))
		(line (pt 0 64)(pt 16 64)(line_width 3))
	)
	(port
		(pt 0 80)
		(input)
		(text "arldd" (rect 0 0 47 16)(font "Arial" (font_size 8)))
		(text "arldd" (rect 21 75 68 91)(font "Arial" (font_size 8)))
		(line (pt 0 80)(pt 16 80))
	)
	(port
		(pt 0 96)
		(input)
		(text "Counter[4..0]" (rect 0 0 122 16)(font "Arial" (font_size 8)))
		(text "Counter[4..0]" (rect 21 91 143 107)(font "Arial" (font_size 8)))
		(line (pt 0 96)(pt 16 96)(line_width 3))
	)
	(port
		(pt 264 32)
		(output)
		(text "Name_here" (rect 0 0 84 16)(font "Arial" (font_size 8)))
		(text "Name_here" (rect 159 27 243 43)(font "Arial" (font_size 8)))
		(line (pt 264 32)(pt 248 32))
	)
	(drawing
		(rectangle (rect 16 16 248 112))
	)
)
(symbol
	(rect 1072 600 1336 728)
	(text "rwnR" (rect 5 0 42 16)(font "Arial" (font_size 8)))
	(text "inst9" (rect 8 110 49 124)(font "Arial" ))
	(port
		(pt 0 32)
		(input)
		(text "ready" (rect 0 0 47 16)(font "Arial" (font_size 8)))
		(text "ready" (rect 21 27 68 43)(font "Arial" (font_size 8)))
		(line (pt 0 32)(pt 16 32))
	)
	(port
		(pt 0 48)
		(input)
		(text "start" (rect 0 0 47 16)(font "Arial" (font_size 8)))
		(text "start" (rect 21 43 68 59)(font "Arial" (font_size 8)))
		(line (pt 0 48)(pt 16 48))
	)
	(port
		(pt 0 64)
		(input)
		(text "cmnd[10..0]" (rect 0 0 103 16)(font "Arial" (font_size 8)))
		(text "cmnd[10..0]" (rect 21 59 124 75)(font "Arial" (font_size 8)))
		(line (pt 0 64)(pt 16 64)(line_width 3))
	)
	(port
		(pt 0 80)
		(input)
		(text "arldd" (rect 0 0 47 16)(font "Arial" (font_size 8)))
		(text "arldd" (rect 21 75 68 91)(font "Arial" (font_size 8)))
		(line (pt 0 80)(pt 16 80))
	)
	(port
		(pt 0 96)
		(input)
		(text "Counter[4..0]" (rect 0 0 122 16)(font "Arial" (font_size 8)))
		(text "Counter[4..0]" (rect 21 91 143 107)(font "Arial" (font_size 8)))
		(line (pt 0 96)(pt 16 96)(line_width 3))
	)
	(port
		(pt 264 32)
		(output)
		(text "Name_here" (rect 0 0 84 16)(font "Arial" (font_size 8)))
		(text "Name_here" (rect 159 27 243 43)(font "Arial" (font_size 8)))
		(line (pt 264 32)(pt 248 32))
	)
	(drawing
		(rectangle (rect 16 16 248 112))
	)
)
(symbol
	(rect 1072 464 1336 592)
	(text "SR" (rect 5 0 23 16)(font "Arial" (font_size 8)))
	(text "inst8" (rect 8 110 49 124)(font "Arial" ))
	(port
		(pt 0 32)
		(input)
		(text "ready" (rect 0 0 47 16)(font "Arial" (font_size 8)))
		(text "ready" (rect 21 27 68 43)(font "Arial" (font_size 8)))
		(line (pt 0 32)(pt 16 32))
	)
	(port
		(pt 0 48)
		(input)
		(text "start" (rect 0 0 47 16)(font "Arial" (font_size 8)))
		(text "start" (rect 21 43 68 59)(font "Arial" (font_size 8)))
		(line (pt 0 48)(pt 16 48))
	)
	(port
		(pt 0 64)
		(input)
		(text "cmnd[10..0]" (rect 0 0 103 16)(font "Arial" (font_size 8)))
		(text "cmnd[10..0]" (rect 21 59 124 75)(font "Arial" (font_size 8)))
		(line (pt 0 64)(pt 16 64)(line_width 3))
	)
	(port
		(pt 0 80)
		(input)
		(text "arldd" (rect 0 0 47 16)(font "Arial" (font_size 8)))
		(text "arldd" (rect 21 75 68 91)(font "Arial" (font_size 8)))
		(line (pt 0 80)(pt 16 80))
	)
	(port
		(pt 0 96)
		(input)
		(text "Counter[4..0]" (rect 0 0 122 16)(font "Arial" (font_size 8)))
		(text "Counter[4..0]" (rect 21 91 143 107)(font "Arial" (font_size 8)))
		(line (pt 0 96)(pt 16 96)(line_width 3))
	)
	(port
		(pt 264 32)
		(output)
		(text "Name_here" (rect 0 0 84 16)(font "Arial" (font_size 8)))
		(text "Name_here" (rect 159 27 243 43)(font "Arial" (font_size 8)))
		(line (pt 264 32)(pt 248 32))
	)
	(drawing
		(rectangle (rect 16 16 248 112))
	)
)
(symbol
	(rect 1504 784 1768 912)
	(text "DR_load4" (rect 5 0 80 16)(font "Arial" (font_size 8)))
	(text "inst22" (rect 8 110 57 124)(font "Arial" ))
	(port
		(pt 0 32)
		(input)
		(text "ready" (rect 0 0 47 16)(font "Arial" (font_size 8)))
		(text "ready" (rect 21 27 68 43)(font "Arial" (font_size 8)))
		(line (pt 0 32)(pt 16 32))
	)
	(port
		(pt 0 48)
		(input)
		(text "start" (rect 0 0 47 16)(font "Arial" (font_size 8)))
		(text "start" (rect 21 43 68 59)(font "Arial" (font_size 8)))
		(line (pt 0 48)(pt 16 48))
	)
	(port
		(pt 0 64)
		(input)
		(text "cmnd[10..0]" (rect 0 0 103 16)(font "Arial" (font_size 8)))
		(text "cmnd[10..0]" (rect 21 59 124 75)(font "Arial" (font_size 8)))
		(line (pt 0 64)(pt 16 64)(line_width 3))
	)
	(port
		(pt 0 80)
		(input)
		(text "Counter[4..0]" (rect 0 0 122 16)(font "Arial" (font_size 8)))
		(text "Counter[4..0]" (rect 21 75 143 91)(font "Arial" (font_size 8)))
		(line (pt 0 80)(pt 16 80)(line_width 3))
	)
	(port
		(pt 264 32)
		(output)
		(text "Name_here" (rect 0 0 84 16)(font "Arial" (font_size 8)))
		(text "Name_here" (rect 159 27 243 43)(font "Arial" (font_size 8)))
		(line (pt 264 32)(pt 248 32))
	)
	(drawing
		(rectangle (rect 16 16 248 112))
	)
)
(symbol
	(rect 1504 928 1768 1056)
	(text "TR_clrn" (rect 5 0 71 16)(font "Arial" (font_size 8)))
	(text "inst23" (rect 8 110 57 124)(font "Arial" ))
	(port
		(pt 0 32)
		(input)
		(text "ready" (rect 0 0 47 16)(font "Arial" (font_size 8)))
		(text "ready" (rect 21 27 68 43)(font "Arial" (font_size 8)))
		(line (pt 0 32)(pt 16 32))
	)
	(port
		(pt 0 48)
		(input)
		(text "start" (rect 0 0 47 16)(font "Arial" (font_size 8)))
		(text "start" (rect 21 43 68 59)(font "Arial" (font_size 8)))
		(line (pt 0 48)(pt 16 48))
	)
	(port
		(pt 0 64)
		(input)
		(text "cmnd[10..0]" (rect 0 0 103 16)(font "Arial" (font_size 8)))
		(text "cmnd[10..0]" (rect 21 59 124 75)(font "Arial" (font_size 8)))
		(line (pt 0 64)(pt 16 64)(line_width 3))
	)
	(port
		(pt 0 80)
		(input)
		(text "Counter[4..0]" (rect 0 0 122 16)(font "Arial" (font_size 8)))
		(text "Counter[4..0]" (rect 21 75 143 91)(font "Arial" (font_size 8)))
		(line (pt 0 80)(pt 16 80)(line_width 3))
	)
	(port
		(pt 264 32)
		(output)
		(text "Name_here" (rect 0 0 84 16)(font "Arial" (font_size 8)))
		(text "Name_here" (rect 159 27 243 43)(font "Arial" (font_size 8)))
		(line (pt 264 32)(pt 248 32))
	)
	(drawing
		(rectangle (rect 16 16 248 112))
	)
)
(symbol
	(rect 1504 1072 1768 1200)
	(text "ALU_sub" (rect 5 0 71 16)(font "Arial" (font_size 8)))
	(text "inst24" (rect 8 110 57 124)(font "Arial" ))
	(port
		(pt 0 32)
		(input)
		(text "ready" (rect 0 0 47 16)(font "Arial" (font_size 8)))
		(text "ready" (rect 21 27 68 43)(font "Arial" (font_size 8)))
		(line (pt 0 32)(pt 16 32))
	)
	(port
		(pt 0 48)
		(input)
		(text "start" (rect 0 0 47 16)(font "Arial" (font_size 8)))
		(text "start" (rect 21 43 68 59)(font "Arial" (font_size 8)))
		(line (pt 0 48)(pt 16 48))
	)
	(port
		(pt 0 64)
		(input)
		(text "cmnd[10..0]" (rect 0 0 103 16)(font "Arial" (font_size 8)))
		(text "cmnd[10..0]" (rect 21 59 124 75)(font "Arial" (font_size 8)))
		(line (pt 0 64)(pt 16 64)(line_width 3))
	)
	(port
		(pt 0 80)
		(input)
		(text "Counter[4..0]" (rect 0 0 122 16)(font "Arial" (font_size 8)))
		(text "Counter[4..0]" (rect 21 75 143 91)(font "Arial" (font_size 8)))
		(line (pt 0 80)(pt 16 80)(line_width 3))
	)
	(port
		(pt 264 32)
		(output)
		(text "Name_here" (rect 0 0 84 16)(font "Arial" (font_size 8)))
		(text "Name_here" (rect 159 27 243 43)(font "Arial" (font_size 8)))
		(line (pt 264 32)(pt 248 32))
	)
	(drawing
		(rectangle (rect 16 16 248 112))
	)
)
(symbol
	(rect 1072 1024 1336 1152)
	(text "SP_load" (rect 5 0 71 16)(font "Arial" (font_size 8)))
	(text "inst28" (rect 8 110 57 124)(font "Arial" ))
	(port
		(pt 0 32)
		(input)
		(text "ready" (rect 0 0 47 16)(font "Arial" (font_size 8)))
		(text "ready" (rect 21 27 68 43)(font "Arial" (font_size 8)))
		(line (pt 0 32)(pt 16 32))
	)
	(port
		(pt 0 48)
		(input)
		(text "start" (rect 0 0 47 16)(font "Arial" (font_size 8)))
		(text "start" (rect 21 43 68 59)(font "Arial" (font_size 8)))
		(line (pt 0 48)(pt 16 48))
	)
	(port
		(pt 0 64)
		(input)
		(text "cmnd[10..0]" (rect 0 0 103 16)(font "Arial" (font_size 8)))
		(text "cmnd[10..0]" (rect 21 59 124 75)(font "Arial" (font_size 8)))
		(line (pt 0 64)(pt 16 64)(line_width 3))
	)
	(port
		(pt 0 80)
		(input)
		(text "Counter[4..0]" (rect 0 0 122 16)(font "Arial" (font_size 8)))
		(text "Counter[4..0]" (rect 21 75 143 91)(font "Arial" (font_size 8)))
		(line (pt 0 80)(pt 16 80)(line_width 3))
	)
	(port
		(pt 264 32)
		(output)
		(text "Name_here" (rect 0 0 84 16)(font "Arial" (font_size 8)))
		(text "Name_here" (rect 159 27 243 43)(font "Arial" (font_size 8)))
		(line (pt 264 32)(pt 248 32))
	)
	(drawing
		(rectangle (rect 16 16 248 112))
	)
)
(symbol
	(rect 1504 48 1768 176)
	(text "TR_load" (rect 5 0 71 16)(font "Arial" (font_size 8)))
	(text "inst30" (rect 8 110 57 124)(font "Arial" ))
	(port
		(pt 0 32)
		(input)
		(text "ready" (rect 0 0 47 16)(font "Arial" (font_size 8)))
		(text "ready" (rect 21 27 68 43)(font "Arial" (font_size 8)))
		(line (pt 0 32)(pt 16 32))
	)
	(port
		(pt 0 48)
		(input)
		(text "start" (rect 0 0 47 16)(font "Arial" (font_size 8)))
		(text "start" (rect 21 43 68 59)(font "Arial" (font_size 8)))
		(line (pt 0 48)(pt 16 48))
	)
	(port
		(pt 0 64)
		(input)
		(text "cmnd[10..0]" (rect 0 0 103 16)(font "Arial" (font_size 8)))
		(text "cmnd[10..0]" (rect 21 59 124 75)(font "Arial" (font_size 8)))
		(line (pt 0 64)(pt 16 64)(line_width 3))
	)
	(port
		(pt 0 80)
		(input)
		(text "Counter[4..0]" (rect 0 0 122 16)(font "Arial" (font_size 8)))
		(text "Counter[4..0]" (rect 21 75 143 91)(font "Arial" (font_size 8)))
		(line (pt 0 80)(pt 16 80)(line_width 3))
	)
	(port
		(pt 264 32)
		(output)
		(text "Name_here" (rect 0 0 84 16)(font "Arial" (font_size 8)))
		(text "Name_here" (rect 159 27 243 43)(font "Arial" (font_size 8)))
		(line (pt 264 32)(pt 248 32))
	)
	(drawing
		(rectangle (rect 16 16 248 112))
	)
)
(symbol
	(rect 1072 880 1336 1008)
	(text "AC_load" (rect 5 0 71 16)(font "Arial" (font_size 8)))
	(text "inst27" (rect 8 110 57 124)(font "Arial" ))
	(port
		(pt 0 32)
		(input)
		(text "ready" (rect 0 0 47 16)(font "Arial" (font_size 8)))
		(text "ready" (rect 21 27 68 43)(font "Arial" (font_size 8)))
		(line (pt 0 32)(pt 16 32))
	)
	(port
		(pt 0 48)
		(input)
		(text "start" (rect 0 0 47 16)(font "Arial" (font_size 8)))
		(text "start" (rect 21 43 68 59)(font "Arial" (font_size 8)))
		(line (pt 0 48)(pt 16 48))
	)
	(port
		(pt 0 64)
		(input)
		(text "cmnd[10..0]" (rect 0 0 103 16)(font "Arial" (font_size 8)))
		(text "cmnd[10..0]" (rect 21 59 124 75)(font "Arial" (font_size 8)))
		(line (pt 0 64)(pt 16 64)(line_width 3))
	)
	(port
		(pt 0 80)
		(input)
		(text "Counter[4..0]" (rect 0 0 122 16)(font "Arial" (font_size 8)))
		(text "Counter[4..0]" (rect 21 75 143 91)(font "Arial" (font_size 8)))
		(line (pt 0 80)(pt 16 80)(line_width 3))
	)
	(port
		(pt 264 32)
		(output)
		(text "Name_here" (rect 0 0 84 16)(font "Arial" (font_size 8)))
		(text "Name_here" (rect 159 27 243 43)(font "Arial" (font_size 8)))
		(line (pt 264 32)(pt 248 32))
	)
	(drawing
		(rectangle (rect 16 16 248 112))
	)
)
(symbol
	(rect 1512 -120 1776 8)
	(text "Pointer_select0" (rect 5 0 146 16)(font "Arial" (font_size 8)))
	(text "inst31" (rect 8 110 57 124)(font "Arial" ))
	(port
		(pt 0 32)
		(input)
		(text "ready" (rect 0 0 47 16)(font "Arial" (font_size 8)))
		(text "ready" (rect 21 27 68 43)(font "Arial" (font_size 8)))
		(line (pt 0 32)(pt 16 32))
	)
	(port
		(pt 0 48)
		(input)
		(text "start" (rect 0 0 47 16)(font "Arial" (font_size 8)))
		(text "start" (rect 21 43 68 59)(font "Arial" (font_size 8)))
		(line (pt 0 48)(pt 16 48))
	)
	(port
		(pt 0 64)
		(input)
		(text "cmnd[10..0]" (rect 0 0 103 16)(font "Arial" (font_size 8)))
		(text "cmnd[10..0]" (rect 21 59 124 75)(font "Arial" (font_size 8)))
		(line (pt 0 64)(pt 16 64)(line_width 3))
	)
	(port
		(pt 0 80)
		(input)
		(text "Counter[4..0]" (rect 0 0 122 16)(font "Arial" (font_size 8)))
		(text "Counter[4..0]" (rect 21 75 143 91)(font "Arial" (font_size 8)))
		(line (pt 0 80)(pt 16 80)(line_width 3))
	)
	(port
		(pt 264 32)
		(output)
		(text "Name_here" (rect 0 0 84 16)(font "Arial" (font_size 8)))
		(text "Name_here" (rect 159 27 243 43)(font "Arial" (font_size 8)))
		(line (pt 264 32)(pt 248 32))
	)
	(drawing
		(rectangle (rect 16 16 248 112))
	)
)
(symbol
	(rect 1896 -104 2160 24)
	(text "Pointer_select1" (rect 5 0 146 16)(font "Arial" (font_size 8)))
	(text "inst32" (rect 8 110 57 124)(font "Arial" ))
	(port
		(pt 0 32)
		(input)
		(text "ready" (rect 0 0 47 16)(font "Arial" (font_size 8)))
		(text "ready" (rect 21 27 68 43)(font "Arial" (font_size 8)))
		(line (pt 0 32)(pt 16 32))
	)
	(port
		(pt 0 48)
		(input)
		(text "start" (rect 0 0 47 16)(font "Arial" (font_size 8)))
		(text "start" (rect 21 43 68 59)(font "Arial" (font_size 8)))
		(line (pt 0 48)(pt 16 48))
	)
	(port
		(pt 0 64)
		(input)
		(text "cmnd[10..0]" (rect 0 0 103 16)(font "Arial" (font_size 8)))
		(text "cmnd[10..0]" (rect 21 59 124 75)(font "Arial" (font_size 8)))
		(line (pt 0 64)(pt 16 64)(line_width 3))
	)
	(port
		(pt 0 80)
		(input)
		(text "Counter[4..0]" (rect 0 0 122 16)(font "Arial" (font_size 8)))
		(text "Counter[4..0]" (rect 21 75 143 91)(font "Arial" (font_size 8)))
		(line (pt 0 80)(pt 16 80)(line_width 3))
	)
	(port
		(pt 264 32)
		(output)
		(text "Name_here" (rect 0 0 84 16)(font "Arial" (font_size 8)))
		(text "Name_here" (rect 159 27 243 43)(font "Arial" (font_size 8)))
		(line (pt 264 32)(pt 248 32))
	)
	(drawing
		(rectangle (rect 16 16 248 112))
	)
)
(symbol
	(rect 1952 64 2216 192)
	(text "B_select" (rect 5 0 80 16)(font "Arial" (font_size 8)))
	(text "inst33" (rect 8 110 57 124)(font "Arial" ))
	(port
		(pt 0 32)
		(input)
		(text "ready" (rect 0 0 47 16)(font "Arial" (font_size 8)))
		(text "ready" (rect 21 27 68 43)(font "Arial" (font_size 8)))
		(line (pt 0 32)(pt 16 32))
	)
	(port
		(pt 0 48)
		(input)
		(text "start" (rect 0 0 47 16)(font "Arial" (font_size 8)))
		(text "start" (rect 21 43 68 59)(font "Arial" (font_size 8)))
		(line (pt 0 48)(pt 16 48))
	)
	(port
		(pt 0 64)
		(input)
		(text "cmnd[10..0]" (rect 0 0 103 16)(font "Arial" (font_size 8)))
		(text "cmnd[10..0]" (rect 21 59 124 75)(font "Arial" (font_size 8)))
		(line (pt 0 64)(pt 16 64)(line_width 3))
	)
	(port
		(pt 0 80)
		(input)
		(text "Counter[4..0]" (rect 0 0 122 16)(font "Arial" (font_size 8)))
		(text "Counter[4..0]" (rect 21 75 143 91)(font "Arial" (font_size 8)))
		(line (pt 0 80)(pt 16 80)(line_width 3))
	)
	(port
		(pt 264 32)
		(output)
		(text "Name_here" (rect 0 0 84 16)(font "Arial" (font_size 8)))
		(text "Name_here" (rect 159 27 243 43)(font "Arial" (font_size 8)))
		(line (pt 264 32)(pt 248 32))
	)
	(drawing
		(rectangle (rect 16 16 248 112))
	)
)
(symbol
	(rect 1520 1464 1744 1592)
	(text "ALU_A" (rect 5 0 52 16)(font "Arial" (font_size 8)))
	(text "inst34" (rect 8 110 57 124)(font "Arial" ))
	(port
		(pt 0 32)
		(input)
		(text "ready" (rect 0 0 47 16)(font "Arial" (font_size 8)))
		(text "ready" (rect 21 27 68 43)(font "Arial" (font_size 8)))
		(line (pt 0 32)(pt 16 32))
	)
	(port
		(pt 0 48)
		(input)
		(text "start" (rect 0 0 47 16)(font "Arial" (font_size 8)))
		(text "start" (rect 21 43 68 59)(font "Arial" (font_size 8)))
		(line (pt 0 48)(pt 16 48))
	)
	(port
		(pt 0 64)
		(input)
		(text "cmnd[10..0]" (rect 0 0 103 16)(font "Arial" (font_size 8)))
		(text "cmnd[10..0]" (rect 21 59 124 75)(font "Arial" (font_size 8)))
		(line (pt 0 64)(pt 16 64)(line_width 3))
	)
	(port
		(pt 0 80)
		(input)
		(text "Counter[4..0]" (rect 0 0 122 16)(font "Arial" (font_size 8)))
		(text "Counter[4..0]" (rect 21 75 143 91)(font "Arial" (font_size 8)))
		(line (pt 0 80)(pt 16 80)(line_width 3))
	)
	(port
		(pt 224 32)
		(output)
		(text "ALU_A" (rect 0 0 47 16)(font "Arial" (font_size 8)))
		(text "ALU_A" (rect 156 27 203 43)(font "Arial" (font_size 8)))
		(line (pt 224 32)(pt 208 32))
	)
	(drawing
		(rectangle (rect 16 16 208 112))
	)
)
(symbol
	(rect 1504 1328 1768 1456)
	(text "ALU_B" (rect 5 0 52 16)(font "Arial" (font_size 8)))
	(text "inst35" (rect 8 110 57 124)(font "Arial" ))
	(port
		(pt 0 32)
		(input)
		(text "ready" (rect 0 0 47 16)(font "Arial" (font_size 8)))
		(text "ready" (rect 21 27 68 43)(font "Arial" (font_size 8)))
		(line (pt 0 32)(pt 16 32))
	)
	(port
		(pt 0 48)
		(input)
		(text "start" (rect 0 0 47 16)(font "Arial" (font_size 8)))
		(text "start" (rect 21 43 68 59)(font "Arial" (font_size 8)))
		(line (pt 0 48)(pt 16 48))
	)
	(port
		(pt 0 64)
		(input)
		(text "cmnd[10..0]" (rect 0 0 103 16)(font "Arial" (font_size 8)))
		(text "cmnd[10..0]" (rect 21 59 124 75)(font "Arial" (font_size 8)))
		(line (pt 0 64)(pt 16 64)(line_width 3))
	)
	(port
		(pt 0 80)
		(input)
		(text "Counter[4..0]" (rect 0 0 122 16)(font "Arial" (font_size 8)))
		(text "Counter[4..0]" (rect 21 75 143 91)(font "Arial" (font_size 8)))
		(line (pt 0 80)(pt 16 80)(line_width 3))
	)
	(port
		(pt 264 32)
		(output)
		(text "Name_here" (rect 0 0 84 16)(font "Arial" (font_size 8)))
		(text "Name_here" (rect 159 27 243 43)(font "Arial" (font_size 8)))
		(line (pt 264 32)(pt 248 32))
	)
	(drawing
		(rectangle (rect 16 16 248 112))
	)
)
(symbol
	(rect 1504 1200 1768 1328)
	(text "ALU_add" (rect 5 0 71 16)(font "Arial" (font_size 8)))
	(text "inst36" (rect 8 110 57 124)(font "Arial" ))
	(port
		(pt 0 32)
		(input)
		(text "ready" (rect 0 0 47 16)(font "Arial" (font_size 8)))
		(text "ready" (rect 21 27 68 43)(font "Arial" (font_size 8)))
		(line (pt 0 32)(pt 16 32))
	)
	(port
		(pt 0 48)
		(input)
		(text "start" (rect 0 0 47 16)(font "Arial" (font_size 8)))
		(text "start" (rect 21 43 68 59)(font "Arial" (font_size 8)))
		(line (pt 0 48)(pt 16 48))
	)
	(port
		(pt 0 64)
		(input)
		(text "cmnd[10..0]" (rect 0 0 103 16)(font "Arial" (font_size 8)))
		(text "cmnd[10..0]" (rect 21 59 124 75)(font "Arial" (font_size 8)))
		(line (pt 0 64)(pt 16 64)(line_width 3))
	)
	(port
		(pt 0 80)
		(input)
		(text "Counter[4..0]" (rect 0 0 122 16)(font "Arial" (font_size 8)))
		(text "Counter[4..0]" (rect 21 75 143 91)(font "Arial" (font_size 8)))
		(line (pt 0 80)(pt 16 80)(line_width 3))
	)
	(port
		(pt 264 32)
		(output)
		(text "Name_here" (rect 0 0 84 16)(font "Arial" (font_size 8)))
		(text "Name_here" (rect 159 27 243 43)(font "Arial" (font_size 8)))
		(line (pt 264 32)(pt 248 32))
	)
	(drawing
		(rectangle (rect 16 16 248 112))
	)
)
(symbol
	(rect 1984 1328 2192 1456)
	(text "ALU_converter" (rect 5 0 127 16)(font "Arial" (font_size 8)))
	(text "inst37" (rect 8 110 57 124)(font "Arial" ))
	(port
		(pt 0 32)
		(input)
		(text "ALU_add" (rect 0 0 66 16)(font "Arial" (font_size 8)))
		(text "ALU_add" (rect 21 27 87 43)(font "Arial" (font_size 8)))
		(line (pt 0 32)(pt 16 32))
	)
	(port
		(pt 0 48)
		(input)
		(text "ALU_sub" (rect 0 0 66 16)(font "Arial" (font_size 8)))
		(text "ALU_sub" (rect 21 43 87 59)(font "Arial" (font_size 8)))
		(line (pt 0 48)(pt 16 48))
	)
	(port
		(pt 0 64)
		(input)
		(text "ALU_A" (rect 0 0 47 16)(font "Arial" (font_size 8)))
		(text "ALU_A" (rect 21 59 68 75)(font "Arial" (font_size 8)))
		(line (pt 0 64)(pt 16 64))
	)
	(port
		(pt 0 80)
		(input)
		(text "ALU_B" (rect 0 0 47 16)(font "Arial" (font_size 8)))
		(text "ALU_B" (rect 21 75 68 91)(font "Arial" (font_size 8)))
		(line (pt 0 80)(pt 16 80))
	)
	(port
		(pt 208 32)
		(output)
		(text "out[5..0]" (rect 0 0 84 16)(font "Arial" (font_size 8)))
		(text "out[5..0]" (rect 103 27 187 43)(font "Arial" (font_size 8)))
		(line (pt 208 32)(pt 192 32)(line_width 3))
	)
	(drawing
		(rectangle (rect 16 16 192 112))
	)
)
(symbol
	(rect 1952 376 2248 504)
	(text "DR_shiftleft2" (rect 5 0 127 16)(font "Arial" (font_size 8)))
	(text "inst40" (rect 8 110 57 124)(font "Arial" ))
	(port
		(pt 0 32)
		(input)
		(text "ready" (rect 0 0 47 16)(font "Arial" (font_size 8)))
		(text "ready" (rect 21 27 68 43)(font "Arial" (font_size 8)))
		(line (pt 0 32)(pt 16 32))
	)
	(port
		(pt 0 48)
		(input)
		(text "start" (rect 0 0 47 16)(font "Arial" (font_size 8)))
		(text "start" (rect 21 43 68 59)(font "Arial" (font_size 8)))
		(line (pt 0 48)(pt 16 48))
	)
	(port
		(pt 0 64)
		(input)
		(text "cmnd[10..0]" (rect 0 0 103 16)(font "Arial" (font_size 8)))
		(text "cmnd[10..0]" (rect 21 59 124 75)(font "Arial" (font_size 8)))
		(line (pt 0 64)(pt 16 64)(line_width 3))
	)
	(port
		(pt 0 80)
		(input)
		(text "Counter[4..0]" (rect 0 0 122 16)(font "Arial" (font_size 8)))
		(text "Counter[4..0]" (rect 21 75 143 91)(font "Arial" (font_size 8)))
		(line (pt 0 80)(pt 16 80)(line_width 3))
	)
	(port
		(pt 296 32)
		(output)
		(text "DR_shiftleft2" (rect 0 0 122 16)(font "Arial" (font_size 8)))
		(text "DR_shiftleft2" (rect 153 27 275 43)(font "Arial" (font_size 8)))
		(line (pt 296 32)(pt 280 32))
	)
	(drawing
		(rectangle (rect 16 16 280 112))
	)
)
(symbol
	(rect 1976 520 2216 680)
	(text "PC_load" (rect 5 0 71 16)(font "Arial" (font_size 8)))
	(text "inst41" (rect 8 142 57 156)(font "Arial" ))
	(port
		(pt 0 32)
		(input)
		(text "ready" (rect 0 0 47 16)(font "Arial" (font_size 8)))
		(text "ready" (rect 21 27 68 43)(font "Arial" (font_size 8)))
		(line (pt 0 32)(pt 16 32))
	)
	(port
		(pt 0 48)
		(input)
		(text "start" (rect 0 0 47 16)(font "Arial" (font_size 8)))
		(text "start" (rect 21 43 68 59)(font "Arial" (font_size 8)))
		(line (pt 0 48)(pt 16 48))
	)
	(port
		(pt 0 64)
		(input)
		(text "cmnd[10..0]" (rect 0 0 103 16)(font "Arial" (font_size 8)))
		(text "cmnd[10..0]" (rect 21 59 124 75)(font "Arial" (font_size 8)))
		(line (pt 0 64)(pt 16 64)(line_width 3))
	)
	(port
		(pt 0 80)
		(input)
		(text "OR_DR" (rect 0 0 47 16)(font "Arial" (font_size 8)))
		(text "OR_DR" (rect 21 75 68 91)(font "Arial" (font_size 8)))
		(line (pt 0 80)(pt 16 80))
	)
	(port
		(pt 0 96)
		(input)
		(text "DR_sign" (rect 0 0 66 16)(font "Arial" (font_size 8)))
		(text "DR_sign" (rect 21 91 87 107)(font "Arial" (font_size 8)))
		(line (pt 0 96)(pt 16 96))
	)
	(port
		(pt 0 112)
		(input)
		(text "Counter[4..0]" (rect 0 0 122 16)(font "Arial" (font_size 8)))
		(text "Counter[4..0]" (rect 21 107 143 123)(font "Arial" (font_size 8)))
		(line (pt 0 112)(pt 16 112)(line_width 3))
	)
	(port
		(pt 240 32)
		(output)
		(text "PC_load" (rect 0 0 66 16)(font "Arial" (font_size 8)))
		(text "PC_load" (rect 153 27 219 43)(font "Arial" (font_size 8)))
		(line (pt 240 32)(pt 224 32))
	)
	(drawing
		(rectangle (rect 16 16 224 144))
	)
)
(symbol
	(rect 1976 712 2240 840)
	(text "ER_load" (rect 5 0 71 16)(font "Arial" (font_size 8)))
	(text "inst42" (rect 8 110 57 124)(font "Arial" ))
	(port
		(pt 0 32)
		(input)
		(text "ready" (rect 0 0 47 16)(font "Arial" (font_size 8)))
		(text "ready" (rect 21 27 68 43)(font "Arial" (font_size 8)))
		(line (pt 0 32)(pt 16 32))
	)
	(port
		(pt 0 48)
		(input)
		(text "start" (rect 0 0 47 16)(font "Arial" (font_size 8)))
		(text "start" (rect 21 43 68 59)(font "Arial" (font_size 8)))
		(line (pt 0 48)(pt 16 48))
	)
	(port
		(pt 0 64)
		(input)
		(text "cmnd[10..0]" (rect 0 0 103 16)(font "Arial" (font_size 8)))
		(text "cmnd[10..0]" (rect 21 59 124 75)(font "Arial" (font_size 8)))
		(line (pt 0 64)(pt 16 64)(line_width 3))
	)
	(port
		(pt 0 80)
		(input)
		(text "Counter[4..0]" (rect 0 0 122 16)(font "Arial" (font_size 8)))
		(text "Counter[4..0]" (rect 21 75 143 91)(font "Arial" (font_size 8)))
		(line (pt 0 80)(pt 16 80)(line_width 3))
	)
	(port
		(pt 264 32)
		(output)
		(text "Name_here" (rect 0 0 84 16)(font "Arial" (font_size 8)))
		(text "Name_here" (rect 159 27 243 43)(font "Arial" (font_size 8)))
		(line (pt 264 32)(pt 248 32))
	)
	(drawing
		(rectangle (rect 16 16 248 112))
	)
)
(symbol
	(rect 1968 864 2264 992)
	(text "TR_shiftleft8" (rect 5 0 127 16)(font "Arial" (font_size 8)))
	(text "inst43" (rect 8 110 57 124)(font "Arial" ))
	(port
		(pt 0 32)
		(input)
		(text "ready" (rect 0 0 47 16)(font "Arial" (font_size 8)))
		(text "ready" (rect 21 27 68 43)(font "Arial" (font_size 8)))
		(line (pt 0 32)(pt 16 32))
	)
	(port
		(pt 0 48)
		(input)
		(text "start" (rect 0 0 47 16)(font "Arial" (font_size 8)))
		(text "start" (rect 21 43 68 59)(font "Arial" (font_size 8)))
		(line (pt 0 48)(pt 16 48))
	)
	(port
		(pt 0 64)
		(input)
		(text "cmnd[10..0]" (rect 0 0 103 16)(font "Arial" (font_size 8)))
		(text "cmnd[10..0]" (rect 21 59 124 75)(font "Arial" (font_size 8)))
		(line (pt 0 64)(pt 16 64)(line_width 3))
	)
	(port
		(pt 0 80)
		(input)
		(text "Counter[4..0]" (rect 0 0 122 16)(font "Arial" (font_size 8)))
		(text "Counter[4..0]" (rect 21 75 143 91)(font "Arial" (font_size 8)))
		(line (pt 0 80)(pt 16 80)(line_width 3))
	)
	(port
		(pt 296 32)
		(output)
		(text "TR_shiftleft8" (rect 0 0 122 16)(font "Arial" (font_size 8)))
		(text "TR_shiftleft8" (rect 153 27 275 43)(font "Arial" (font_size 8)))
		(line (pt 296 32)(pt 280 32))
	)
	(drawing
		(rectangle (rect 16 16 280 112))
	)
)
(symbol
	(rect 2024 1024 2288 1152)
	(text "Reset_counter" (rect 5 0 127 16)(font "Arial" (font_size 8)))
	(text "inst20" (rect 8 110 57 124)(font "Arial" ))
	(port
		(pt 0 32)
		(input)
		(text "ready" (rect 0 0 47 16)(font "Arial" (font_size 8)))
		(text "ready" (rect 21 27 68 43)(font "Arial" (font_size 8)))
		(line (pt 0 32)(pt 16 32))
	)
	(port
		(pt 0 48)
		(input)
		(text "start" (rect 0 0 47 16)(font "Arial" (font_size 8)))
		(text "start" (rect 21 43 68 59)(font "Arial" (font_size 8)))
		(line (pt 0 48)(pt 16 48))
	)
	(port
		(pt 0 64)
		(input)
		(text "cmnd[10..0]" (rect 0 0 103 16)(font "Arial" (font_size 8)))
		(text "cmnd[10..0]" (rect 21 59 124 75)(font "Arial" (font_size 8)))
		(line (pt 0 64)(pt 16 64)(line_width 3))
	)
	(port
		(pt 0 80)
		(input)
		(text "Counter[4..0]" (rect 0 0 122 16)(font "Arial" (font_size 8)))
		(text "Counter[4..0]" (rect 21 75 143 91)(font "Arial" (font_size 8)))
		(line (pt 0 80)(pt 16 80)(line_width 3))
	)
	(port
		(pt 264 32)
		(output)
		(text "Name_here" (rect 0 0 84 16)(font "Arial" (font_size 8)))
		(text "Name_here" (rect 159 27 243 43)(font "Arial" (font_size 8)))
		(line (pt 264 32)(pt 248 32))
	)
	(drawing
		(rectangle (rect 16 16 248 112))
	)
)
(symbol
	(rect 448 464 496 496)
	(text "NOT" (rect 1 0 25 11)(font "Arial" (font_size 6)))
	(text "inst29" (rect 3 21 52 35)(font "Arial" ))
	(port
		(pt 0 16)
		(input)
		(text "IN" (rect 2 7 13 21)(font "Courier New" (bold))(invisible))
		(text "IN" (rect 2 7 13 21)(font "Courier New" (bold))(invisible))
		(line (pt 0 16)(pt 13 16))
	)
	(port
		(pt 48 16)
		(output)
		(text "OUT" (rect 32 7 49 21)(font "Courier New" (bold))(invisible))
		(text "OUT" (rect 32 7 49 21)(font "Courier New" (bold))(invisible))
		(line (pt 39 16)(pt 48 16))
	)
	(drawing
		(line (pt 13 25)(pt 13 7))
		(line (pt 13 7)(pt 31 16))
		(line (pt 13 25)(pt 31 16))
		(circle (rect 31 12 39 20))
	)
)
(symbol
	(rect 560 464 624 512)
	(text "AND2" (rect 1 0 34 11)(font "Arial" (font_size 6)))
	(text "inst21" (rect 3 37 52 51)(font "Arial" ))
	(port
		(pt 0 16)
		(input)
		(text "IN1" (rect 2 7 19 21)(font "Courier New" (bold))(invisible))
		(text "IN1" (rect 2 7 19 21)(font "Courier New" (bold))(invisible))
		(line (pt 0 16)(pt 14 16))
	)
	(port
		(pt 0 32)
		(input)
		(text "IN2" (rect 2 23 19 37)(font "Courier New" (bold))(invisible))
		(text "IN2" (rect 2 23 19 37)(font "Courier New" (bold))(invisible))
		(line (pt 0 32)(pt 14 32))
	)
	(port
		(pt 64 24)
		(output)
		(text "OUT" (rect 48 15 65 29)(font "Courier New" (bold))(invisible))
		(text "OUT" (rect 48 15 65 29)(font "Courier New" (bold))(invisible))
		(line (pt 42 24)(pt 64 24))
	)
	(drawing
		(line (pt 14 12)(pt 30 12))
		(line (pt 14 37)(pt 31 37))
		(line (pt 14 12)(pt 14 37))
		(arc (pt 31 37)(pt 30 12)(rect 18 12 43 37))
	)
)
(symbol
	(rect 704 936 768 984)
	(text "AND2" (rect 1 0 34 11)(font "Arial" (font_size 6)))
	(text "inst38" (rect 3 37 52 51)(font "Arial" ))
	(port
		(pt 0 16)
		(input)
		(text "IN1" (rect 2 7 19 21)(font "Courier New" (bold))(invisible))
		(text "IN1" (rect 2 7 19 21)(font "Courier New" (bold))(invisible))
		(line (pt 0 16)(pt 14 16))
	)
	(port
		(pt 0 32)
		(input)
		(text "IN2" (rect 2 23 19 37)(font "Courier New" (bold))(invisible))
		(text "IN2" (rect 2 23 19 37)(font "Courier New" (bold))(invisible))
		(line (pt 0 32)(pt 14 32))
	)
	(port
		(pt 64 24)
		(output)
		(text "OUT" (rect 48 15 65 29)(font "Courier New" (bold))(invisible))
		(text "OUT" (rect 48 15 65 29)(font "Courier New" (bold))(invisible))
		(line (pt 42 24)(pt 64 24))
	)
	(drawing
		(line (pt 14 12)(pt 30 12))
		(line (pt 14 37)(pt 31 37))
		(line (pt 14 12)(pt 14 37))
		(arc (pt 31 37)(pt 30 12)(rect 18 12 43 37))
	)
)
(symbol
	(rect 1056 1200 1320 1328)
	(text "DR_load8bit" (rect 5 0 108 16)(font "Arial" (font_size 8)))
	(text "inst44" (rect 8 110 57 124)(font "Arial" ))
	(port
		(pt 0 32)
		(input)
		(text "ready" (rect 0 0 47 16)(font "Arial" (font_size 8)))
		(text "ready" (rect 21 27 68 43)(font "Arial" (font_size 8)))
		(line (pt 0 32)(pt 16 32))
	)
	(port
		(pt 0 48)
		(input)
		(text "start" (rect 0 0 47 16)(font "Arial" (font_size 8)))
		(text "start" (rect 21 43 68 59)(font "Arial" (font_size 8)))
		(line (pt 0 48)(pt 16 48))
	)
	(port
		(pt 0 64)
		(input)
		(text "cmnd[10..0]" (rect 0 0 103 16)(font "Arial" (font_size 8)))
		(text "cmnd[10..0]" (rect 21 59 124 75)(font "Arial" (font_size 8)))
		(line (pt 0 64)(pt 16 64)(line_width 3))
	)
	(port
		(pt 0 80)
		(input)
		(text "Counter[4..0]" (rect 0 0 122 16)(font "Arial" (font_size 8)))
		(text "Counter[4..0]" (rect 21 75 143 91)(font "Arial" (font_size 8)))
		(line (pt 0 80)(pt 16 80)(line_width 3))
	)
	(port
		(pt 264 32)
		(output)
		(text "Name_here" (rect 0 0 84 16)(font "Arial" (font_size 8)))
		(text "Name_here" (rect 159 27 243 43)(font "Arial" (font_size 8)))
		(line (pt 264 32)(pt 248 32))
	)
	(drawing
		(rectangle (rect 16 16 248 112))
	)
)
(symbol
	(rect 1968 232 2232 360)
	(text "DR_load" (rect 5 0 71 16)(font "Arial" (font_size 8)))
	(text "inst39" (rect 8 110 57 124)(font "Arial" ))
	(port
		(pt 0 32)
		(input)
		(text "ready" (rect 0 0 47 16)(font "Arial" (font_size 8)))
		(text "ready" (rect 21 27 68 43)(font "Arial" (font_size 8)))
		(line (pt 0 32)(pt 16 32))
	)
	(port
		(pt 0 48)
		(input)
		(text "start" (rect 0 0 47 16)(font "Arial" (font_size 8)))
		(text "start" (rect 21 43 68 59)(font "Arial" (font_size 8)))
		(line (pt 0 48)(pt 16 48))
	)
	(port
		(pt 0 64)
		(input)
		(text "cmnd[10..0]" (rect 0 0 103 16)(font "Arial" (font_size 8)))
		(text "cmnd[10..0]" (rect 21 59 124 75)(font "Arial" (font_size 8)))
		(line (pt 0 64)(pt 16 64)(line_width 3))
	)
	(port
		(pt 0 80)
		(input)
		(text "Counter[4..0]" (rect 0 0 122 16)(font "Arial" (font_size 8)))
		(text "Counter[4..0]" (rect 21 75 143 91)(font "Arial" (font_size 8)))
		(line (pt 0 80)(pt 16 80)(line_width 3))
	)
	(port
		(pt 264 32)
		(output)
		(text "Name_here" (rect 0 0 84 16)(font "Arial" (font_size 8)))
		(text "Name_here" (rect 159 27 243 43)(font "Arial" (font_size 8)))
		(line (pt 264 32)(pt 248 32))
	)
	(drawing
		(rectangle (rect 16 16 248 112))
	)
)
(symbol
	(rect 40 488 104 536)
	(text "AND2" (rect 1 0 34 11)(font "Arial" (font_size 6)))
	(text "inst45" (rect 3 37 52 51)(font "Arial" ))
	(port
		(pt 0 16)
		(input)
		(text "IN1" (rect 2 7 19 21)(font "Courier New" (bold))(invisible))
		(text "IN1" (rect 2 7 19 21)(font "Courier New" (bold))(invisible))
		(line (pt 0 16)(pt 14 16))
	)
	(port
		(pt 0 32)
		(input)
		(text "IN2" (rect 2 23 19 37)(font "Courier New" (bold))(invisible))
		(text "IN2" (rect 2 23 19 37)(font "Courier New" (bold))(invisible))
		(line (pt 0 32)(pt 14 32))
	)
	(port
		(pt 64 24)
		(output)
		(text "OUT" (rect 48 15 65 29)(font "Courier New" (bold))(invisible))
		(text "OUT" (rect 48 15 65 29)(font "Courier New" (bold))(invisible))
		(line (pt 42 24)(pt 64 24))
	)
	(drawing
		(line (pt 14 12)(pt 30 12))
		(line (pt 14 37)(pt 31 37))
		(line (pt 14 12)(pt 14 37))
		(arc (pt 31 37)(pt 30 12)(rect 18 12 43 37))
	)
)
(connector
	(text "VCC" (rect 72 163 86 187)(font "Arial" )(vertical))
	(pt 88 152)
	(pt 88 200)
)
(connector
	(text "GND" (rect 128 155 142 179)(font "Arial" )(vertical))
	(pt 144 192)
	(pt 144 144)
)
(connector
	(text "IR_clrn" (rect 776 720 833 734)(font "Arial" ))
	(pt 768 736)
	(pt 832 736)
)
(connector
	(text "PC_clrn" (rect 776 776 833 790)(font "Arial" ))
	(pt 768 792)
	(pt 832 792)
)
(connector
	(text "reset" (rect 632 768 673 782)(font "Arial" ))
	(pt 704 784)
	(pt 624 784)
)
(connector
	(text "reset" (rect 639 784 680 798)(font "Arial" ))
	(pt 632 800)
	(pt 704 800)
)
(connector
	(text "reset" (rect 632 712 673 726)(font "Arial" ))
	(pt 624 728)
	(pt 704 728)
)
(connector
	(text "reset" (rect 631 728 672 742)(font "Arial" ))
	(pt 624 744)
	(pt 704 744)
)
(connector
	(text "ins[7..0]" (rect 296 896 370 910)(font "Arial" ))
	(pt 376 912)
	(pt 288 912)
	(bus)
)
(connector
	(text "strt" (rect 537 752 570 766)(font "Arial" ))
	(pt 536 768)
	(pt 576 768)
)
(connector
	(text "reset" (rect 632 664 673 678)(font "Arial" ))
	(pt 704 680)
	(pt 624 680)
)
(connector
	(text "reset" (rect 639 680 680 694)(font "Arial" ))
	(pt 704 696)
	(pt 632 696)
)
(connector
	(text "AR_clrn" (rect 776 672 833 686)(font "Arial" ))
	(pt 768 688)
	(pt 832 688)
)
(connector
	(text "reset" (rect 632 824 673 838)(font "Arial" ))
	(pt 704 840)
	(pt 624 840)
)
(connector
	(text "reset" (rect 639 840 680 854)(font "Arial" ))
	(pt 632 856)
	(pt 704 856)
)
(connector
	(text "DR_clrn" (rect 776 832 833 846)(font "Arial" ))
	(pt 768 848)
	(pt 832 848)
)
(connector
	(text "reset" (rect 632 880 673 894)(font "Arial" ))
	(pt 704 896)
	(pt 624 896)
)
(connector
	(text "reset" (rect 639 896 680 910)(font "Arial" ))
	(pt 632 912)
	(pt 704 912)
)
(connector
	(text "AC_clrn" (rect 776 888 833 902)(font "Arial" ))
	(pt 768 904)
	(pt 832 904)
)
(connector
	(text "reset" (rect 409 8 450 22)(font "Arial" ))
	(pt 368 24)
	(pt 456 24)
)
(connector
	(text "CLK" (rect 416 24 440 38)(font "Arial" ))
	(pt 368 40)
	(pt 456 40)
)
(connector
	(text "ready" (rect 416 56 457 70)(font "Arial" ))
	(pt 368 72)
	(pt 456 72)
)
(connector
	(pt 24 288)
	(pt -8 288)
	(bus)
)
(connector
	(text "control[3..0]" (rect 568 272 675 286)(font "Arial" ))
	(pt 560 288)
	(pt 608 288)
	(bus)
)
(connector
	(text "vld" (rect 568 288 592 302)(font "Arial" ))
	(pt 560 304)
	(pt 608 304)
)
(connector
	(text "cmnd[10..0]" (rect 269 272 359 286)(font "Arial" ))
	(pt 264 288)
	(pt 336 288)
	(bus)
)
(connector
	(text "Cntr[4..0]" (rect 406 40 488 54)(font "Arial" ))
	(pt 368 56)
	(pt 584 56)
	(bus)
)
(connector
	(text "T0" (rect 720 -120 736 -106)(font "Arial" ))
	(pt 712 -104)
	(pt 760 -104)
)
(connector
	(text "T1" (rect 720 -104 736 -90)(font "Arial" ))
	(pt 712 -88)
	(pt 760 -88)
)
(connector
	(text "T2" (rect 720 -88 736 -74)(font "Arial" ))
	(pt 712 -72)
	(pt 760 -72)
)
(connector
	(text "T3" (rect 721 -72 737 -58)(font "Arial" ))
	(pt 712 -56)
	(pt 760 -56)
)
(connector
	(text "T4" (rect 720 -56 736 -42)(font "Arial" ))
	(pt 712 -40)
	(pt 760 -40)
)
(connector
	(text "T5" (rect 720 -40 736 -26)(font "Arial" ))
	(pt 712 -24)
	(pt 760 -24)
)
(connector
	(text "T6" (rect 720 -24 736 -10)(font "Arial" ))
	(pt 712 -8)
	(pt 760 -8)
)
(connector
	(text "T7" (rect 721 -8 737 6)(font "Arial" ))
	(pt 712 8)
	(pt 760 8)
)
(connector
	(text "T8" (rect 720 8 736 22)(font "Arial" ))
	(pt 712 24)
	(pt 760 24)
)
(connector
	(text "T9" (rect 720 24 736 38)(font "Arial" ))
	(pt 712 40)
	(pt 760 40)
)
(connector
	(text "T10" (rect 720 40 744 54)(font "Arial" ))
	(pt 712 56)
	(pt 760 56)
)
(connector
	(text "T11" (rect 721 56 745 70)(font "Arial" ))
	(pt 712 72)
	(pt 760 72)
)
(connector
	(text "T12" (rect 720 72 744 86)(font "Arial" ))
	(pt 712 88)
	(pt 760 88)
)
(connector
	(text "T13" (rect 720 88 744 102)(font "Arial" ))
	(pt 712 104)
	(pt 760 104)
)
(connector
	(text "T14" (rect 720 104 744 118)(font "Arial" ))
	(pt 712 120)
	(pt 760 120)
)
(connector
	(text "T15" (rect 721 120 745 134)(font "Arial" ))
	(pt 712 136)
	(pt 760 136)
)
(connector
	(text "T16" (rect 721 136 745 150)(font "Arial" ))
	(pt 712 152)
	(pt 760 152)
)
(connector
	(text "T17" (rect 720 152 744 166)(font "Arial" ))
	(pt 712 168)
	(pt 760 168)
)
(connector
	(text "T18" (rect 720 168 744 182)(font "Arial" ))
	(pt 712 184)
	(pt 760 184)
)
(connector
	(text "T19" (rect 720 184 744 198)(font "Arial" ))
	(pt 712 200)
	(pt 760 200)
)
(connector
	(text "T20" (rect 721 200 745 214)(font "Arial" ))
	(pt 712 216)
	(pt 760 216)
)
(connector
	(text "DR[31..0]" (rect 480 936 554 950)(font "Arial" ))
	(pt 472 952)
	(pt 544 952)
	(bus)
)
(connector
	(text "DR[31..0]" (rect 631 304 705 318)(font "Arial" ))
	(pt 616 320)
	(pt 688 320)
	(bus)
)
(connector
	(text "OR_DR" (rect 905 296 946 310)(font "Arial" ))
	(pt 904 320)
	(pt 944 320)
)
(connector
	(text "ready" (rect 1016 208 1057 222)(font "Arial" ))
	(pt 1072 224)
	(pt 1008 224)
)
(connector
	(text "strt" (rect 1016 224 1049 238)(font "Arial" ))
	(pt 1072 240)
	(pt 1008 240)
)
(connector
	(text "cmnd[10..0]" (rect 1000 240 1090 254)(font "Arial" ))
	(pt 1072 256)
	(pt 992 256)
	(bus)
)
(connector
	(text "ready" (rect 1016 344 1057 358)(font "Arial" ))
	(pt 1072 360)
	(pt 1008 360)
)
(connector
	(text "strt" (rect 1016 360 1049 374)(font "Arial" ))
	(pt 1072 376)
	(pt 1008 376)
)
(connector
	(text "cmnd[10..0]" (rect 1000 376 1090 390)(font "Arial" ))
	(pt 1072 392)
	(pt 992 392)
	(bus)
)
(connector
	(text "ready" (rect 1016 480 1057 494)(font "Arial" ))
	(pt 1072 496)
	(pt 1008 496)
)
(connector
	(text "strt" (rect 1016 496 1049 510)(font "Arial" ))
	(pt 1072 512)
	(pt 1008 512)
)
(connector
	(text "cmnd[10..0]" (rect 1000 512 1090 526)(font "Arial" ))
	(pt 1072 528)
	(pt 992 528)
	(bus)
)
(connector
	(text "ready" (rect 1016 616 1057 630)(font "Arial" ))
	(pt 1072 632)
	(pt 1008 632)
)
(connector
	(text "strt" (rect 1016 632 1049 646)(font "Arial" ))
	(pt 1072 648)
	(pt 1008 648)
)
(connector
	(text "cmnd[10..0]" (rect 1000 648 1090 662)(font "Arial" ))
	(pt 1072 664)
	(pt 992 664)
	(bus)
)
(connector
	(text "ready" (rect 1016 752 1057 766)(font "Arial" ))
	(pt 1072 768)
	(pt 1008 768)
)
(connector
	(text "strt" (rect 1016 768 1049 782)(font "Arial" ))
	(pt 1072 784)
	(pt 1008 784)
)
(connector
	(text "cmnd[10..0]" (rect 1000 784 1090 798)(font "Arial" ))
	(pt 1072 800)
	(pt 992 800)
	(bus)
)
(connector
	(text "Cntr[4..0]" (rect 1000 800 1082 814)(font "Arial" ))
	(pt 1072 816)
	(pt 992 816)
	(bus)
)
(connector
	(text "ready" (rect 1448 208 1489 222)(font "Arial" ))
	(pt 1504 224)
	(pt 1440 224)
)
(connector
	(text "strt" (rect 1448 224 1481 238)(font "Arial" ))
	(pt 1504 240)
	(pt 1440 240)
)
(connector
	(text "cmnd[10..0]" (rect 1432 240 1522 254)(font "Arial" ))
	(pt 1504 256)
	(pt 1424 256)
	(bus)
)
(connector
	(text "Cntr[4..0]" (rect 1432 256 1514 270)(font "Arial" ))
	(pt 1504 272)
	(pt 1424 272)
	(bus)
)
(connector
	(text "ready" (rect 1448 344 1489 358)(font "Arial" ))
	(pt 1504 360)
	(pt 1440 360)
)
(connector
	(text "strt" (rect 1448 360 1481 374)(font "Arial" ))
	(pt 1504 376)
	(pt 1440 376)
)
(connector
	(text "cmnd[10..0]" (rect 1432 376 1522 390)(font "Arial" ))
	(pt 1504 392)
	(pt 1424 392)
	(bus)
)
(connector
	(text "Cntr[4..0]" (rect 1432 392 1514 406)(font "Arial" ))
	(pt 1504 408)
	(pt 1424 408)
	(bus)
)
(connector
	(text "ready" (rect 1448 480 1489 494)(font "Arial" ))
	(pt 1504 496)
	(pt 1440 496)
)
(connector
	(text "strt" (rect 1448 496 1481 510)(font "Arial" ))
	(pt 1504 512)
	(pt 1440 512)
)
(connector
	(text "cmnd[10..0]" (rect 1432 512 1522 526)(font "Arial" ))
	(pt 1504 528)
	(pt 1424 528)
	(bus)
)
(connector
	(text "Cntr[4..0]" (rect 1432 560 1514 574)(font "Arial" ))
	(pt 1504 576)
	(pt 1424 576)
	(bus)
)
(connector
	(text "digit_or_DR" (rect 464 152 554 166)(font "Arial" ))
	(pt 456 168)
	(pt 512 168)
)
(connector
	(text "DR[31..0]" (rect 176 152 250 166)(font "Arial" ))
	(pt 240 168)
	(pt 168 168)
	(bus)
)
(connector
	(text "DR[31]" (rect 1432 528 1481 542)(font "Arial" ))
	(pt 1504 544)
	(pt 1424 544)
)
(connector
	(text "digit_or_dr" (rect 1392 544 1482 558)(font "Arial" ))
	(pt 1504 560)
	(pt 1384 560)
)
(connector
	(text "AR_load" (rect 1350 208 1407 222)(font "Arial" ))
	(pt 1336 224)
	(pt 1392 224)
)
(connector
	(text "PC_inc" (rect 1350 344 1399 358)(font "Arial" ))
	(pt 1336 360)
	(pt 1392 360)
)
(connector
	(text "SR" (rect 1350 480 1366 494)(font "Arial" ))
	(pt 1336 496)
	(pt 1392 496)
)
(connector
	(text "rwnR" (rect 1350 616 1383 630)(font "Arial" ))
	(pt 1336 632)
	(pt 1392 632)
)
(connector
	(text "Bus_select[0]" (rect 1782 208 1889 222)(font "Arial" ))
	(pt 1768 224)
	(pt 1824 224)
)
(connector
	(text "Bus_select[1]" (rect 1782 344 1889 358)(font "Arial" ))
	(pt 1768 360)
	(pt 1824 360)
)
(connector
	(text "Bus_select[2]" (rect 1782 480 1889 494)(font "Arial" ))
	(pt 1768 496)
	(pt 1824 496)
)
(connector
	(text "IR_load" (rect 1350 752 1407 766)(font "Arial" ))
	(pt 1336 768)
	(pt 1392 768)
)
(connector
	(text "AR_load" (rect 328 848 385 862)(font "Arial" ))
	(pt 376 864)
	(pt 320 864)
)
(connector
	(text "ready" (rect 1440 656 1481 670)(font "Arial" ))
	(pt 1496 672)
	(pt 1432 672)
)
(connector
	(text "strt" (rect 1440 672 1473 686)(font "Arial" ))
	(pt 1496 688)
	(pt 1432 688)
)
(connector
	(text "cmnd[10..0]" (rect 1424 688 1514 702)(font "Arial" ))
	(pt 1496 704)
	(pt 1416 704)
	(bus)
)
(connector
	(text "Cntr[4..0]" (rect 1424 704 1506 718)(font "Arial" ))
	(pt 1496 720)
	(pt 1416 720)
	(bus)
)
(connector
	(text "Counter_inc" (rect 1776 656 1866 670)(font "Arial" ))
	(pt 1768 672)
	(pt 1856 672)
)
(connector
	(text "CLK" (rect 136 512 160 526)(font "Arial" ))
	(pt 168 528)
	(pt 128 528)
)
(connector
	(text "arldd" (rect 248 496 289 510)(font "Arial" ))
	(pt 264 512)
	(pt 232 512)
)
(connector
	(text "Cntr[4..0]" (rect 1000 544 1082 558)(font "Arial" ))
	(pt 1072 560)
	(pt 992 560)
	(bus)
)
(connector
	(text "Cntr[4..0]" (rect 1000 680 1082 694)(font "Arial" ))
	(pt 1072 696)
	(pt 992 696)
	(bus)
)
(connector
	(text "arldd" (rect 992 664 1033 678)(font "Arial" ))
	(pt 1072 680)
	(pt 984 680)
)
(connector
	(text "arldd" (rect 1000 528 1041 542)(font "Arial" ))
	(pt 1072 544)
	(pt 992 544)
)
(connector
	(text "Cntr[4..0]" (rect 1000 272 1082 286)(font "Arial" ))
	(pt 1072 288)
	(pt 992 288)
	(bus)
)
(connector
	(text "Cntr[4..0]" (rect 1000 408 1082 422)(font "Arial" ))
	(pt 1072 424)
	(pt 992 424)
	(bus)
)
(connector
	(text "arldd" (rect 1000 256 1041 270)(font "Arial" ))
	(pt 1072 272)
	(pt 992 272)
)
(connector
	(text "arldd" (rect 1000 392 1041 406)(font "Arial" ))
	(pt 1072 408)
	(pt 992 408)
)
(connector
	(text "ready" (rect 1016 896 1057 910)(font "Arial" ))
	(pt 1072 912)
	(pt 1008 912)
)
(connector
	(text "strt" (rect 1016 912 1049 926)(font "Arial" ))
	(pt 1072 928)
	(pt 1008 928)
)
(connector
	(text "cmnd[10..0]" (rect 1000 928 1090 942)(font "Arial" ))
	(pt 1072 944)
	(pt 992 944)
	(bus)
)
(connector
	(text "Cntr[4..0]" (rect 1000 944 1082 958)(font "Arial" ))
	(pt 1072 960)
	(pt 992 960)
	(bus)
)
(connector
	(text "ready" (rect 1016 1040 1057 1054)(font "Arial" ))
	(pt 1072 1056)
	(pt 1008 1056)
)
(connector
	(text "strt" (rect 1016 1056 1049 1070)(font "Arial" ))
	(pt 1072 1072)
	(pt 1008 1072)
)
(connector
	(text "cmnd[10..0]" (rect 1000 1072 1090 1086)(font "Arial" ))
	(pt 1072 1088)
	(pt 992 1088)
	(bus)
)
(connector
	(text "Cntr[4..0]" (rect 1000 1088 1082 1102)(font "Arial" ))
	(pt 1072 1104)
	(pt 992 1104)
	(bus)
)
(connector
	(text "ready" (rect 1448 800 1489 814)(font "Arial" ))
	(pt 1504 816)
	(pt 1440 816)
)
(connector
	(text "strt" (rect 1448 816 1481 830)(font "Arial" ))
	(pt 1504 832)
	(pt 1440 832)
)
(connector
	(text "cmnd[10..0]" (rect 1432 832 1522 846)(font "Arial" ))
	(pt 1504 848)
	(pt 1424 848)
	(bus)
)
(connector
	(text "Cntr[4..0]" (rect 1432 848 1514 862)(font "Arial" ))
	(pt 1504 864)
	(pt 1424 864)
	(bus)
)
(connector
	(text "ready" (rect 1448 944 1489 958)(font "Arial" ))
	(pt 1504 960)
	(pt 1440 960)
)
(connector
	(text "strt" (rect 1448 960 1481 974)(font "Arial" ))
	(pt 1504 976)
	(pt 1440 976)
)
(connector
	(text "cmnd[10..0]" (rect 1432 976 1522 990)(font "Arial" ))
	(pt 1504 992)
	(pt 1424 992)
	(bus)
)
(connector
	(text "Cntr[4..0]" (rect 1432 992 1514 1006)(font "Arial" ))
	(pt 1504 1008)
	(pt 1424 1008)
	(bus)
)
(connector
	(text "ready" (rect 1448 1088 1489 1102)(font "Arial" ))
	(pt 1504 1104)
	(pt 1440 1104)
)
(connector
	(text "strt" (rect 1448 1104 1481 1118)(font "Arial" ))
	(pt 1504 1120)
	(pt 1440 1120)
)
(connector
	(text "cmnd[10..0]" (rect 1432 1120 1522 1134)(font "Arial" ))
	(pt 1504 1136)
	(pt 1424 1136)
	(bus)
)
(connector
	(text "Cntr[4..0]" (rect 1432 1136 1514 1150)(font "Arial" ))
	(pt 1504 1152)
	(pt 1424 1152)
	(bus)
)
(connector
	(text "AC_load" (rect 1337 896 1394 910)(font "Arial" ))
	(pt 1336 912)
	(pt 1408 912)
)
(connector
	(text "SP_load" (rect 1344 1040 1401 1054)(font "Arial" ))
	(pt 1336 1056)
	(pt 1392 1056)
)
(connector
	(text "DR_load4" (rect 1769 800 1835 814)(font "Arial" ))
	(pt 1768 816)
	(pt 1856 816)
)
(connector
	(text "TR_clrn" (rect 1769 944 1826 958)(font "Arial" ))
	(pt 1768 960)
	(pt 1856 960)
)
(connector
	(text "ready" (rect 1448 64 1489 78)(font "Arial" ))
	(pt 1504 80)
	(pt 1440 80)
)
(connector
	(text "strt" (rect 1448 80 1481 94)(font "Arial" ))
	(pt 1504 96)
	(pt 1440 96)
)
(connector
	(text "cmnd[10..0]" (rect 1432 96 1522 110)(font "Arial" ))
	(pt 1504 112)
	(pt 1424 112)
	(bus)
)
(connector
	(text "Cntr[4..0]" (rect 1432 112 1514 126)(font "Arial" ))
	(pt 1504 128)
	(pt 1424 128)
	(bus)
)
(connector
	(text "TR_load" (rect 1776 64 1833 78)(font "Arial" ))
	(pt 1768 80)
	(pt 1848 80)
)
(connector
	(text "ready" (rect 1456 -104 1497 -90)(font "Arial" ))
	(pt 1512 -88)
	(pt 1448 -88)
)
(connector
	(text "strt" (rect 1456 -88 1489 -74)(font "Arial" ))
	(pt 1512 -72)
	(pt 1448 -72)
)
(connector
	(text "cmnd[10..0]" (rect 1440 -72 1530 -58)(font "Arial" ))
	(pt 1512 -56)
	(pt 1432 -56)
	(bus)
)
(connector
	(text "Cntr[4..0]" (rect 1440 -56 1522 -42)(font "Arial" ))
	(pt 1512 -40)
	(pt 1432 -40)
	(bus)
)
(connector
	(text "ready" (rect 1840 -88 1881 -74)(font "Arial" ))
	(pt 1896 -72)
	(pt 1832 -72)
)
(connector
	(text "strt" (rect 1840 -72 1873 -58)(font "Arial" ))
	(pt 1896 -56)
	(pt 1832 -56)
)
(connector
	(text "cmnd[10..0]" (rect 1824 -56 1914 -42)(font "Arial" ))
	(pt 1896 -40)
	(pt 1816 -40)
	(bus)
)
(connector
	(text "Cntr[4..0]" (rect 1824 -40 1906 -26)(font "Arial" ))
	(pt 1896 -24)
	(pt 1816 -24)
	(bus)
)
(connector
	(text "Pointer_select[0]" (rect 1776 -112 1916 -98)(font "Arial" ))
	(pt 1776 -88)
	(pt 1816 -88)
)
(connector
	(text "ready" (rect 1896 80 1937 94)(font "Arial" ))
	(pt 1952 96)
	(pt 1888 96)
)
(connector
	(text "strt" (rect 1896 96 1929 110)(font "Arial" ))
	(pt 1952 112)
	(pt 1888 112)
)
(connector
	(text "cmnd[10..0]" (rect 1880 112 1970 126)(font "Arial" ))
	(pt 1952 128)
	(pt 1872 128)
	(bus)
)
(connector
	(text "Cntr[4..0]" (rect 1880 128 1962 142)(font "Arial" ))
	(pt 1952 144)
	(pt 1872 144)
	(bus)
)
(connector
	(text "B_select" (rect 2224 80 2290 94)(font "Arial" ))
	(pt 2216 96)
	(pt 2288 96)
)
(connector
	(text "ready" (rect 1448 1216 1489 1230)(font "Arial" ))
	(pt 1504 1232)
	(pt 1440 1232)
)
(connector
	(text "strt" (rect 1448 1232 1481 1246)(font "Arial" ))
	(pt 1504 1248)
	(pt 1440 1248)
)
(connector
	(text "cmnd[10..0]" (rect 1432 1248 1522 1262)(font "Arial" ))
	(pt 1504 1264)
	(pt 1424 1264)
	(bus)
)
(connector
	(text "Cntr[4..0]" (rect 1432 1264 1514 1278)(font "Arial" ))
	(pt 1504 1280)
	(pt 1424 1280)
	(bus)
)
(connector
	(text "ready" (rect 1448 1344 1489 1358)(font "Arial" ))
	(pt 1504 1360)
	(pt 1440 1360)
)
(connector
	(text "strt" (rect 1448 1360 1481 1374)(font "Arial" ))
	(pt 1504 1376)
	(pt 1440 1376)
)
(connector
	(text "cmnd[10..0]" (rect 1432 1376 1522 1390)(font "Arial" ))
	(pt 1504 1392)
	(pt 1424 1392)
	(bus)
)
(connector
	(text "Cntr[4..0]" (rect 1432 1392 1514 1406)(font "Arial" ))
	(pt 1504 1408)
	(pt 1424 1408)
	(bus)
)
(connector
	(text "ALU_B" (rect 1776 1344 1817 1358)(font "Arial" ))
	(pt 1864 1360)
	(pt 1768 1360)
)
(connector
	(pt 1864 1360)
	(pt 1864 1408)
)
(connector
	(pt 1864 1408)
	(pt 1984 1408)
)
(connector
	(pt 1832 1392)
	(pt 1984 1392)
)
(connector
	(text "ALU_add" (rect 1776 1216 1833 1230)(font "Arial" ))
	(pt 1888 1232)
	(pt 1768 1232)
)
(connector
	(pt 1888 1232)
	(pt 1888 1360)
)
(connector
	(pt 1888 1360)
	(pt 1984 1360)
)
(connector
	(text "ALU_sub" (rect 1776 1088 1833 1102)(font "Arial" ))
	(pt 1912 1104)
	(pt 1768 1104)
)
(connector
	(pt 1912 1104)
	(pt 1912 1376)
)
(connector
	(pt 1912 1376)
	(pt 1984 1376)
)
(connector
	(text "ready" (rect 1464 1480 1505 1494)(font "Arial" ))
	(pt 1520 1496)
	(pt 1456 1496)
)
(connector
	(text "strt" (rect 1464 1496 1497 1510)(font "Arial" ))
	(pt 1520 1512)
	(pt 1456 1512)
)
(connector
	(text "cmnd[10..0]" (rect 1448 1512 1538 1526)(font "Arial" ))
	(pt 1520 1528)
	(pt 1440 1528)
	(bus)
)
(connector
	(text "Cntr[4..0]" (rect 1448 1528 1530 1542)(font "Arial" ))
	(pt 1520 1544)
	(pt 1440 1544)
	(bus)
)
(connector
	(text "ALU_A" (rect 1809 1480 1850 1494)(font "Arial" ))
	(pt 1832 1496)
	(pt 1744 1496)
)
(connector
	(pt 1832 1392)
	(pt 1832 1496)
)
(connector
	(text "ready" (rect 1912 248 1953 262)(font "Arial" ))
	(pt 1968 264)
	(pt 1904 264)
)
(connector
	(text "strt" (rect 1912 264 1945 278)(font "Arial" ))
	(pt 1968 280)
	(pt 1904 280)
)
(connector
	(text "cmnd[10..0]" (rect 1896 280 1986 294)(font "Arial" ))
	(pt 1968 296)
	(pt 1888 296)
	(bus)
)
(connector
	(text "Cntr[4..0]" (rect 1896 296 1978 310)(font "Arial" ))
	(pt 1968 312)
	(pt 1888 312)
	(bus)
)
(connector
	(text "ready" (rect 1896 392 1937 406)(font "Arial" ))
	(pt 1952 408)
	(pt 1888 408)
)
(connector
	(text "strt" (rect 1896 408 1929 422)(font "Arial" ))
	(pt 1952 424)
	(pt 1888 424)
)
(connector
	(text "cmnd[10..0]" (rect 1880 424 1970 438)(font "Arial" ))
	(pt 1952 440)
	(pt 1872 440)
	(bus)
)
(connector
	(text "Cntr[4..0]" (rect 1880 440 1962 454)(font "Arial" ))
	(pt 1952 456)
	(pt 1872 456)
	(bus)
)
(connector
	(text "ready" (rect 1920 728 1961 742)(font "Arial" ))
	(pt 1976 744)
	(pt 1912 744)
)
(connector
	(text "strt" (rect 1920 744 1953 758)(font "Arial" ))
	(pt 1976 760)
	(pt 1912 760)
)
(connector
	(text "cmnd[10..0]" (rect 1904 760 1994 774)(font "Arial" ))
	(pt 1976 776)
	(pt 1896 776)
	(bus)
)
(connector
	(text "Cntr[4..0]" (rect 1904 776 1986 790)(font "Arial" ))
	(pt 1976 792)
	(pt 1896 792)
	(bus)
)
(connector
	(text "ready" (rect 1920 536 1961 550)(font "Arial" ))
	(pt 1976 552)
	(pt 1912 552)
)
(connector
	(text "strt" (rect 1920 552 1953 566)(font "Arial" ))
	(pt 1976 568)
	(pt 1912 568)
)
(connector
	(text "cmnd[10..0]" (rect 1904 568 1994 582)(font "Arial" ))
	(pt 1976 584)
	(pt 1896 584)
	(bus)
)
(connector
	(text "Cntr[4..0]" (rect 1904 616 1986 630)(font "Arial" ))
	(pt 1976 632)
	(pt 1896 632)
	(bus)
)
(connector
	(text "digit_or_dr" (rect 1856 584 1946 598)(font "Arial" ))
	(pt 1976 600)
	(pt 1848 600)
)
(connector
	(text "DR[31]" (rect 1864 600 1913 614)(font "Arial" ))
	(pt 1976 616)
	(pt 1856 616)
)
(connector
	(text "DR_load" (rect 2240 248 2297 262)(font "Arial" ))
	(pt 2232 264)
	(pt 2304 264)
)
(connector
	(text "DR_shiftleft2" (rect 2256 392 2363 406)(font "Arial" ))
	(pt 2248 408)
	(pt 2320 408)
)
(connector
	(text "PC_load" (rect 2247 536 2304 550)(font "Arial" ))
	(pt 2216 552)
	(pt 2312 552)
)
(connector
	(text "ER_load" (rect 2265 720 2322 734)(font "Arial" ))
	(pt 2240 744)
	(pt 2328 744)
)
(connector
	(text "Pointer_select[1]" (rect 2177 -88 2317 -74)(font "Arial" ))
	(pt 2280 -72)
	(pt 2160 -72)
)
(connector
	(text "ALU_control[5..0]" (rect 2200 1344 2340 1358)(font "Arial" ))
	(pt 2296 1360)
	(pt 2192 1360)
	(bus)
)
(connector
	(text "ready" (rect 1912 880 1953 894)(font "Arial" ))
	(pt 1968 896)
	(pt 1904 896)
)
(connector
	(text "strt" (rect 1912 896 1945 910)(font "Arial" ))
	(pt 1968 912)
	(pt 1904 912)
)
(connector
	(text "cmnd[10..0]" (rect 1896 912 1986 926)(font "Arial" ))
	(pt 1968 928)
	(pt 1888 928)
	(bus)
)
(connector
	(text "Cntr[4..0]" (rect 1896 928 1978 942)(font "Arial" ))
	(pt 1968 944)
	(pt 1888 944)
	(bus)
)
(connector
	(text "TR_shiftleft8" (rect 2265 880 2372 894)(font "Arial" ))
	(pt 2264 896)
	(pt 2360 896)
)
(connector
	(text "ready" (rect 1968 1040 2009 1054)(font "Arial" ))
	(pt 2024 1056)
	(pt 1960 1056)
)
(connector
	(text "strt" (rect 1968 1056 2001 1070)(font "Arial" ))
	(pt 2024 1072)
	(pt 1960 1072)
)
(connector
	(text "cmnd[10..0]" (rect 1952 1072 2042 1086)(font "Arial" ))
	(pt 2024 1088)
	(pt 1944 1088)
	(bus)
)
(connector
	(text "Cntr[4..0]" (rect 1952 1088 2034 1102)(font "Arial" ))
	(pt 2024 1104)
	(pt 1944 1104)
	(bus)
)
(connector
	(text "Reset_counter" (rect 368 464 475 478)(font "Arial" ))
	(pt 448 480)
	(pt 360 480)
)
(connector
	(pt 496 480)
	(pt 560 480)
)
(connector
	(text "reset" (rect 512 480 553 494)(font "Arial" ))
	(pt 560 496)
	(pt 504 496)
)
(connector
	(pt 624 488)
	(pt 632 488)
)
(connector
	(pt 632 488)
	(pt 632 504)
)
(connector
	(text "Reset_counter" (rect 2314 1040 2421 1054)(font "Arial" ))
	(pt 2288 1056)
	(pt 2368 1056)
)
(connector
	(text "reset" (rect 632 936 673 950)(font "Arial" ))
	(pt 704 952)
	(pt 624 952)
)
(connector
	(text "reset" (rect 639 952 680 966)(font "Arial" ))
	(pt 632 968)
	(pt 704 968)
)
(connector
	(text "ER_clrn" (rect 776 944 833 958)(font "Arial" ))
	(pt 768 960)
	(pt 832 960)
)
(connector
	(text "ready" (rect 1000 1216 1041 1230)(font "Arial" ))
	(pt 1056 1232)
	(pt 992 1232)
)
(connector
	(text "strt" (rect 1000 1232 1033 1246)(font "Arial" ))
	(pt 1056 1248)
	(pt 992 1248)
)
(connector
	(text "cmnd[10..0]" (rect 984 1248 1074 1262)(font "Arial" ))
	(pt 1056 1264)
	(pt 976 1264)
	(bus)
)
(connector
	(text "Cntr[4..0]" (rect 984 1264 1066 1278)(font "Arial" ))
	(pt 1056 1280)
	(pt 976 1280)
	(bus)
)
(connector
	(text "DR_load8bit" (rect 1328 1216 1418 1230)(font "Arial" ))
	(pt 1320 1232)
	(pt 1392 1232)
)
(connector
	(text "Cntr[4..0]" (rect 312 880 394 894)(font "Arial" ))
	(pt 304 896)
	(pt 376 896)
	(bus)
)
(connector
	(text "arldd" (rect 328 864 369 878)(font "Arial" ))
	(pt 376 880)
	(pt 320 880)
)
(connector
	(pt 168 512)
	(pt 104 512)
)
(connector
	(text "reset" (rect 0 504 41 518)(font "Arial" ))
	(pt 40 520)
	(pt -8 520)
)
(connector
	(text "AR_load" (rect 0 488 57 502)(font "Arial" ))
	(pt 40 504)
	(pt -8 504)
)
