/*
WARNING: Do NOT edit the input and output ports in this file in a text
editor if you plan to continue editing the block that represents it in
the Block Editor! File corruption is VERY likely to occur.
*/
/*
Copyright (C) 1991-2015 Altera Corporation. All rights reserved.
Your use of Altera Corporation's design tools, logic functions 
and other software and tools, and its AMPP partner logic 
functions, and any output files from any of the foregoing 
(including device programming or simulation files), and any 
associated documentation or information are expressly subject 
to the terms and conditions of the Altera Program License 
Subscription Agreement, the Altera Quartus Prime License Agreement,
the Altera MegaCore Function License Agreement, or other 
applicable license agreement, including, without limitation, 
that your use is for the sole purpose of programming logic 
devices manufactured by Altera and sold by Altera or its 
authorized distributors.  Please refer to the applicable 
agreement for further details.
*/
(header "graphic" (version "1.4"))
(pin
	(input)
	(rect 232 240 400 256)
	(text "INPUT" (rect 125 0 166 11)(font "Arial" (font_size 6)))
	(text "CLRN" (rect 5 0 38 14)(font "Arial" ))
	(pt 168 8)
	(drawing
		(line (pt 84 12)(pt 109 12))
		(line (pt 84 4)(pt 109 4))
		(line (pt 113 8)(pt 168 8))
		(line (pt 84 12)(pt 84 4))
		(line (pt 109 4)(pt 113 8))
		(line (pt 109 12)(pt 113 8))
	)
	(text "VCC" (rect 128 7 152 18)(font "Arial" (font_size 6)))
)
(pin
	(input)
	(rect 232 272 400 288)
	(text "INPUT" (rect 125 0 166 11)(font "Arial" (font_size 6)))
	(text "LOAD" (rect 5 0 38 14)(font "Arial" ))
	(pt 168 8)
	(drawing
		(line (pt 84 12)(pt 109 12))
		(line (pt 84 4)(pt 109 4))
		(line (pt 113 8)(pt 168 8))
		(line (pt 84 12)(pt 84 4))
		(line (pt 109 4)(pt 113 8))
		(line (pt 109 12)(pt 113 8))
	)
	(text "VCC" (rect 128 7 152 18)(font "Arial" (font_size 6)))
)
(pin
	(input)
	(rect 232 176 400 192)
	(text "INPUT" (rect 125 0 166 11)(font "Arial" (font_size 6)))
	(text "CLK" (rect 5 0 29 14)(font "Arial" ))
	(pt 168 8)
	(drawing
		(line (pt 84 12)(pt 109 12))
		(line (pt 84 4)(pt 109 4))
		(line (pt 113 8)(pt 168 8))
		(line (pt 84 12)(pt 84 4))
		(line (pt 109 4)(pt 113 8))
		(line (pt 109 12)(pt 113 8))
	)
	(text "VCC" (rect 128 7 152 18)(font "Arial" (font_size 6)))
)
(pin
	(input)
	(rect 232 208 400 224)
	(text "INPUT" (rect 125 0 166 11)(font "Arial" (font_size 6)))
	(text "INC" (rect 5 0 30 14)(font "Arial" ))
	(pt 168 8)
	(drawing
		(line (pt 84 12)(pt 109 12))
		(line (pt 84 4)(pt 109 4))
		(line (pt 113 8)(pt 168 8))
		(line (pt 84 12)(pt 84 4))
		(line (pt 109 4)(pt 113 8))
		(line (pt 109 12)(pt 113 8))
	)
	(text "VCC" (rect 128 7 152 18)(font "Arial" (font_size 6)))
)
(pin
	(output)
	(rect 232 304 408 320)
	(text "OUTPUT" (rect 1 0 50 11)(font "Arial" (font_size 6)))
	(text "out[4..0]" (rect 90 0 164 14)(font "Arial" ))
	(pt 0 8)
	(drawing
		(line (pt 0 8)(pt 52 8))
		(line (pt 52 4)(pt 78 4))
		(line (pt 52 12)(pt 78 12))
		(line (pt 52 12)(pt 52 4))
		(line (pt 78 4)(pt 82 8))
		(line (pt 82 8)(pt 78 12))
		(line (pt 78 12)(pt 82 8))
	)
)
(symbol
	(rect 672 112 888 272)
	(text "Register4bit" (rect 5 0 118 16)(font "Arial" (font_size 8)))
	(text "inst" (rect 8 142 41 156)(font "Arial" ))
	(port
		(pt 0 32)
		(input)
		(text "LOAD" (rect 0 0 37 16)(font "Arial" (font_size 8)))
		(text "LOAD" (rect 21 27 58 43)(font "Arial" (font_size 8)))
		(line (pt 0 32)(pt 16 32))
	)
	(port
		(pt 0 48)
		(input)
		(text "inx" (rect 0 0 28 16)(font "Arial" (font_size 8)))
		(text "inx" (rect 21 43 49 59)(font "Arial" (font_size 8)))
		(line (pt 0 48)(pt 16 48))
	)
	(port
		(pt 0 64)
		(input)
		(text "INC" (rect 0 0 28 16)(font "Arial" (font_size 8)))
		(text "INC" (rect 21 59 49 75)(font "Arial" (font_size 8)))
		(line (pt 0 64)(pt 16 64))
	)
	(port
		(pt 0 80)
		(input)
		(text "CLRN" (rect 0 0 37 16)(font "Arial" (font_size 8)))
		(text "CLRN" (rect 21 75 58 91)(font "Arial" (font_size 8)))
		(line (pt 0 80)(pt 16 80))
	)
	(port
		(pt 0 96)
		(input)
		(text "CLK" (rect 0 0 28 16)(font "Arial" (font_size 8)))
		(text "CLK" (rect 21 91 49 107)(font "Arial" (font_size 8)))
		(line (pt 0 96)(pt 16 96))
	)
	(port
		(pt 0 112)
		(input)
		(text "in[3..0]" (rect 0 0 75 16)(font "Arial" (font_size 8)))
		(text "in[3..0]" (rect 21 107 96 123)(font "Arial" (font_size 8)))
		(line (pt 0 112)(pt 16 112)(line_width 3))
	)
	(port
		(pt 216 32)
		(output)
		(text "outx" (rect 0 0 37 16)(font "Arial" (font_size 8)))
		(text "outx" (rect 158 27 195 43)(font "Arial" (font_size 8)))
		(line (pt 216 32)(pt 200 32))
	)
	(port
		(pt 216 48)
		(output)
		(text "out[3..0]" (rect 0 0 84 16)(font "Arial" (font_size 8)))
		(text "out[3..0]" (rect 111 43 195 59)(font "Arial" (font_size 8)))
		(line (pt 216 48)(pt 200 48)(line_width 3))
	)
	(drawing
		(rectangle (rect 16 16 200 144))
	)
)
(symbol
	(rect 672 296 888 456)
	(text "Register4bit" (rect 5 0 118 16)(font "Arial" (font_size 8)))
	(text "inst1" (rect 8 142 49 156)(font "Arial" ))
	(port
		(pt 0 32)
		(input)
		(text "LOAD" (rect 0 0 37 16)(font "Arial" (font_size 8)))
		(text "LOAD" (rect 21 27 58 43)(font "Arial" (font_size 8)))
		(line (pt 0 32)(pt 16 32))
	)
	(port
		(pt 0 48)
		(input)
		(text "inx" (rect 0 0 28 16)(font "Arial" (font_size 8)))
		(text "inx" (rect 21 43 49 59)(font "Arial" (font_size 8)))
		(line (pt 0 48)(pt 16 48))
	)
	(port
		(pt 0 64)
		(input)
		(text "INC" (rect 0 0 28 16)(font "Arial" (font_size 8)))
		(text "INC" (rect 21 59 49 75)(font "Arial" (font_size 8)))
		(line (pt 0 64)(pt 16 64))
	)
	(port
		(pt 0 80)
		(input)
		(text "CLRN" (rect 0 0 37 16)(font "Arial" (font_size 8)))
		(text "CLRN" (rect 21 75 58 91)(font "Arial" (font_size 8)))
		(line (pt 0 80)(pt 16 80))
	)
	(port
		(pt 0 96)
		(input)
		(text "CLK" (rect 0 0 28 16)(font "Arial" (font_size 8)))
		(text "CLK" (rect 21 91 49 107)(font "Arial" (font_size 8)))
		(line (pt 0 96)(pt 16 96))
	)
	(port
		(pt 0 112)
		(input)
		(text "in[3..0]" (rect 0 0 75 16)(font "Arial" (font_size 8)))
		(text "in[3..0]" (rect 21 107 96 123)(font "Arial" (font_size 8)))
		(line (pt 0 112)(pt 16 112)(line_width 3))
	)
	(port
		(pt 216 32)
		(output)
		(text "outx" (rect 0 0 37 16)(font "Arial" (font_size 8)))
		(text "outx" (rect 158 27 195 43)(font "Arial" (font_size 8)))
		(line (pt 216 32)(pt 200 32))
	)
	(port
		(pt 216 48)
		(output)
		(text "out[3..0]" (rect 0 0 84 16)(font "Arial" (font_size 8)))
		(text "out[3..0]" (rect 111 43 195 59)(font "Arial" (font_size 8)))
		(line (pt 216 48)(pt 200 48)(line_width 3))
	)
	(drawing
		(rectangle (rect 16 16 200 144))
	)
)
(symbol
	(rect 632 96 664 112)
	(text "VCC" (rect 7 0 31 11)(font "Arial" (font_size 6)))
	(text "inst10" (rect 3 5 52 19)(font "Arial" )(invisible))
	(port
		(pt 16 16)
		(output)
		(text "1" (rect 19 7 24 21)(font "Courier New" (bold))(invisible))
		(text "1" (rect 19 7 24 21)(font "Courier New" (bold))(invisible))
		(line (pt 16 16)(pt 16 8))
	)
	(drawing
		(line (pt 8 8)(pt 24 8))
	)
)
(symbol
	(rect 616 232 648 264)
	(text "GND" (rect 8 16 32 27)(font "Arial" (font_size 6)))
	(text "inst12" (rect 3 21 52 35)(font "Arial" )(invisible))
	(port
		(pt 16 0)
		(output)
		(text "1" (rect 18 0 23 14)(font "Courier New" (bold))(invisible))
		(text "1" (rect 18 0 23 14)(font "Courier New" (bold))(invisible))
		(line (pt 16 8)(pt 16 0))
	)
	(drawing
		(line (pt 8 8)(pt 16 16))
		(line (pt 16 16)(pt 24 8))
		(line (pt 8 8)(pt 24 8))
	)
)
(symbol
	(rect 592 432 624 464)
	(text "GND" (rect 8 16 32 27)(font "Arial" (font_size 6)))
	(text "inst13" (rect 3 21 52 35)(font "Arial" )(invisible))
	(port
		(pt 16 0)
		(output)
		(text "1" (rect 18 0 23 14)(font "Courier New" (bold))(invisible))
		(text "1" (rect 18 0 23 14)(font "Courier New" (bold))(invisible))
		(line (pt 16 8)(pt 16 0))
	)
	(drawing
		(line (pt 8 8)(pt 16 16))
		(line (pt 16 16)(pt 24 8))
		(line (pt 8 8)(pt 24 8))
	)
)
(connector
	(pt 672 160)
	(pt 648 160)
)
(connector
	(pt 648 160)
	(pt 648 112)
)
(connector
	(pt 888 144)
	(pt 904 144)
)
(connector
	(pt 904 144)
	(pt 904 280)
)
(connector
	(pt 904 280)
	(pt 656 280)
)
(connector
	(pt 656 280)
	(pt 656 344)
)
(connector
	(pt 656 344)
	(pt 672 344)
)
(connector
	(text "CLRN" (rect 584 360 617 374)(font "Arial" ))
	(pt 672 376)
	(pt 576 376)
)
(connector
	(text "CLRN" (rect 584 176 617 190)(font "Arial" ))
	(pt 672 192)
	(pt 576 192)
)
(connector
	(text "INC" (rect 640 160 664 174)(font "Arial" ))
	(pt 672 176)
	(pt 632 176)
)
(connector
	(text "INC" (rect 640 344 664 358)(font "Arial" ))
	(pt 672 360)
	(pt 632 360)
)
(connector
	(text "CLK" (rect 616 192 640 206)(font "Arial" ))
	(pt 672 208)
	(pt 608 208)
)
(connector
	(text "CLK" (rect 616 376 640 390)(font "Arial" ))
	(pt 672 392)
	(pt 608 392)
)
(connector
	(pt 920 160)
	(pt 920 128)
	(bus)
)
(connector
	(pt 920 344)
	(pt 920 312)
	(bus)
)
(connector
	(text "out[3..0]" (rect 896 144 970 158)(font "Arial" ))
	(pt 888 160)
	(pt 920 160)
	(bus)
)
(connector
	(text "out[7..4]" (rect 896 328 970 342)(font "Arial" ))
	(pt 888 344)
	(pt 920 344)
	(bus)
)
(connector
	(text "LOAD" (rect 581 312 614 326)(font "Arial" ))
	(pt 672 328)
	(pt 576 328)
)
(connector
	(text "LOAD" (rect 584 128 617 142)(font "Arial" ))
	(pt 672 144)
	(pt 576 144)
)
(connector
	(pt 616 408)
	(pt 616 432)
	(bus)
)
(connector
	(pt 672 408)
	(pt 616 408)
	(bus)
)
(connector
	(text "in[7..4]" (rect 625 408 691 422)(font "Arial" ))
	(pt 616 432)
	(pt 608 432)
	(bus)
)
(connector
	(pt 640 224)
	(pt 640 232)
	(bus)
)
(connector
	(pt 672 224)
	(pt 640 224)
	(bus)
)
(connector
	(text "in[3..0]" (rect 600 216 666 230)(font "Arial" ))
	(pt 640 232)
	(pt 632 232)
	(bus)
)
