/*
WARNING: Do NOT edit the input and output ports in this file in a text
editor if you plan to continue editing the block that represents it in
the Block Editor! File corruption is VERY likely to occur.
*/
/*
Copyright (C) 1991-2015 Altera Corporation. All rights reserved.
Your use of Altera Corporation's design tools, logic functions 
and other software and tools, and its AMPP partner logic 
functions, and any output files from any of the foregoing 
(including device programming or simulation files), and any 
associated documentation or information are expressly subject 
to the terms and conditions of the Altera Program License 
Subscription Agreement, the Altera Quartus Prime License Agreement,
the Altera MegaCore Function License Agreement, or other 
applicable license agreement, including, without limitation, 
that your use is for the sole purpose of programming logic 
devices manufactured by Altera and sold by Altera or its 
authorized distributors.  Please refer to the applicable 
agreement for further details.
*/
(header "graphic" (version "1.4"))
(pin
	(input)
	(rect 104 152 272 168)
	(text "INPUT" (rect 125 0 166 11)(font "Arial" (font_size 6)))
	(text "ready" (rect 5 0 46 14)(font "Arial" ))
	(pt 168 8)
	(drawing
		(line (pt 84 12)(pt 109 12))
		(line (pt 84 4)(pt 109 4))
		(line (pt 113 8)(pt 168 8))
		(line (pt 84 12)(pt 84 4))
		(line (pt 109 4)(pt 113 8))
		(line (pt 109 12)(pt 113 8))
	)
	(text "VCC" (rect 128 7 152 18)(font "Arial" (font_size 6)))
)
(pin
	(input)
	(rect 104 176 272 192)
	(text "INPUT" (rect 125 0 166 11)(font "Arial" (font_size 6)))
	(text "start" (rect 5 0 46 14)(font "Arial" ))
	(pt 168 8)
	(drawing
		(line (pt 84 12)(pt 109 12))
		(line (pt 84 4)(pt 109 4))
		(line (pt 113 8)(pt 168 8))
		(line (pt 84 12)(pt 84 4))
		(line (pt 109 4)(pt 113 8))
		(line (pt 109 12)(pt 113 8))
	)
	(text "VCC" (rect 128 7 152 18)(font "Arial" (font_size 6)))
)
(pin
	(input)
	(rect 80 200 272 216)
	(text "INPUT" (rect 149 0 190 11)(font "Arial" (font_size 6)))
	(text "cmnd[10..0]" (rect 5 0 95 14)(font "Arial" ))
	(pt 192 8)
	(drawing
		(line (pt 108 12)(pt 133 12))
		(line (pt 108 4)(pt 133 4))
		(line (pt 137 8)(pt 192 8))
		(line (pt 108 12)(pt 108 4))
		(line (pt 133 4)(pt 137 8))
		(line (pt 133 12)(pt 137 8))
	)
	(text "VCC" (rect 152 7 176 18)(font "Arial" (font_size 6)))
)
(pin
	(input)
	(rect 24 304 232 320)
	(text "INPUT" (rect 165 0 206 11)(font "Arial" (font_size 6)))
	(text "Counter[4..0]" (rect 5 0 112 14)(font "Arial" ))
	(pt 208 8)
	(drawing
		(line (pt 124 12)(pt 149 12))
		(line (pt 124 4)(pt 149 4))
		(line (pt 153 8)(pt 208 8))
		(line (pt 124 12)(pt 124 4))
		(line (pt 149 4)(pt 153 8))
		(line (pt 149 12)(pt 153 8))
	)
	(text "VCC" (rect 168 7 192 18)(font "Arial" (font_size 6)))
)
(pin
	(output)
	(rect 1288 232 1464 248)
	(text "OUTPUT" (rect 1 0 50 11)(font "Arial" (font_size 6)))
	(text "Name_here" (rect 90 0 164 14)(font "Arial" ))
	(pt 0 8)
	(drawing
		(line (pt 0 8)(pt 52 8))
		(line (pt 52 4)(pt 78 4))
		(line (pt 52 12)(pt 78 12))
		(line (pt 52 12)(pt 52 4))
		(line (pt 78 4)(pt 82 8))
		(line (pt 82 8)(pt 78 12))
		(line (pt 78 12)(pt 82 8))
	)
)
(symbol
	(rect 256 432 288 448)
	(text "VCC" (rect 7 0 31 11)(font "Arial" (font_size 6)))
	(text "inst3" (rect 3 5 44 19)(font "Arial" )(invisible))
	(port
		(pt 16 16)
		(output)
		(text "1" (rect 19 7 24 21)(font "Courier New" (bold))(invisible))
		(text "1" (rect 19 7 24 21)(font "Courier New" (bold))(invisible))
		(line (pt 16 16)(pt 16 8))
	)
	(drawing
		(line (pt 8 8)(pt 24 8))
	)
)
(symbol
	(rect 312 488 344 520)
	(text "GND" (rect 8 16 32 27)(font "Arial" (font_size 6)))
	(text "inst14" (rect 3 21 52 35)(font "Arial" )(invisible))
	(port
		(pt 16 0)
		(output)
		(text "1" (rect 18 0 23 14)(font "Courier New" (bold))(invisible))
		(text "1" (rect 18 0 23 14)(font "Courier New" (bold))(invisible))
		(line (pt 16 8)(pt 16 0))
	)
	(drawing
		(line (pt 8 8)(pt 16 16))
		(line (pt 16 16)(pt 24 8))
		(line (pt 8 8)(pt 24 8))
	)
)
(symbol
	(rect 952 128 1016 176)
	(text "AND2" (rect 1 0 34 11)(font "Arial" (font_size 6)))
	(text "inst1" (rect 3 37 44 51)(font "Arial" ))
	(port
		(pt 0 16)
		(input)
		(text "IN1" (rect 2 7 19 21)(font "Courier New" (bold))(invisible))
		(text "IN1" (rect 2 7 19 21)(font "Courier New" (bold))(invisible))
		(line (pt 0 16)(pt 14 16))
	)
	(port
		(pt 0 32)
		(input)
		(text "IN2" (rect 2 23 19 37)(font "Courier New" (bold))(invisible))
		(text "IN2" (rect 2 23 19 37)(font "Courier New" (bold))(invisible))
		(line (pt 0 32)(pt 14 32))
	)
	(port
		(pt 64 24)
		(output)
		(text "OUT" (rect 48 15 65 29)(font "Courier New" (bold))(invisible))
		(text "OUT" (rect 48 15 65 29)(font "Courier New" (bold))(invisible))
		(line (pt 42 24)(pt 64 24))
	)
	(drawing
		(line (pt 14 12)(pt 30 12))
		(line (pt 14 37)(pt 31 37))
		(line (pt 14 12)(pt 14 37))
		(arc (pt 31 37)(pt 30 12)(rect 18 12 43 37))
	)
)
(symbol
	(rect 952 224 1016 272)
	(text "AND2" (rect 1 0 34 11)(font "Arial" (font_size 6)))
	(text "inst2" (rect 3 37 44 51)(font "Arial" ))
	(port
		(pt 0 16)
		(input)
		(text "IN1" (rect 2 7 19 21)(font "Courier New" (bold))(invisible))
		(text "IN1" (rect 2 7 19 21)(font "Courier New" (bold))(invisible))
		(line (pt 0 16)(pt 14 16))
	)
	(port
		(pt 0 32)
		(input)
		(text "IN2" (rect 2 23 19 37)(font "Courier New" (bold))(invisible))
		(text "IN2" (rect 2 23 19 37)(font "Courier New" (bold))(invisible))
		(line (pt 0 32)(pt 14 32))
	)
	(port
		(pt 64 24)
		(output)
		(text "OUT" (rect 48 15 65 29)(font "Courier New" (bold))(invisible))
		(text "OUT" (rect 48 15 65 29)(font "Courier New" (bold))(invisible))
		(line (pt 42 24)(pt 64 24))
	)
	(drawing
		(line (pt 14 12)(pt 30 12))
		(line (pt 14 37)(pt 31 37))
		(line (pt 14 12)(pt 14 37))
		(arc (pt 31 37)(pt 30 12)(rect 18 12 43 37))
	)
)
(symbol
	(rect 952 320 1016 368)
	(text "AND2" (rect 1 0 34 11)(font "Arial" (font_size 6)))
	(text "inst4" (rect 3 37 44 51)(font "Arial" ))
	(port
		(pt 0 16)
		(input)
		(text "IN1" (rect 2 7 19 21)(font "Courier New" (bold))(invisible))
		(text "IN1" (rect 2 7 19 21)(font "Courier New" (bold))(invisible))
		(line (pt 0 16)(pt 14 16))
	)
	(port
		(pt 0 32)
		(input)
		(text "IN2" (rect 2 23 19 37)(font "Courier New" (bold))(invisible))
		(text "IN2" (rect 2 23 19 37)(font "Courier New" (bold))(invisible))
		(line (pt 0 32)(pt 14 32))
	)
	(port
		(pt 64 24)
		(output)
		(text "OUT" (rect 48 15 65 29)(font "Courier New" (bold))(invisible))
		(text "OUT" (rect 48 15 65 29)(font "Courier New" (bold))(invisible))
		(line (pt 42 24)(pt 64 24))
	)
	(drawing
		(line (pt 14 12)(pt 30 12))
		(line (pt 14 37)(pt 31 37))
		(line (pt 14 12)(pt 14 37))
		(arc (pt 31 37)(pt 30 12)(rect 18 12 43 37))
	)
)
(symbol
	(rect 952 408 1016 456)
	(text "AND2" (rect 1 0 34 11)(font "Arial" (font_size 6)))
	(text "inst5" (rect 3 37 44 51)(font "Arial" ))
	(port
		(pt 0 16)
		(input)
		(text "IN1" (rect 2 7 19 21)(font "Courier New" (bold))(invisible))
		(text "IN1" (rect 2 7 19 21)(font "Courier New" (bold))(invisible))
		(line (pt 0 16)(pt 14 16))
	)
	(port
		(pt 0 32)
		(input)
		(text "IN2" (rect 2 23 19 37)(font "Courier New" (bold))(invisible))
		(text "IN2" (rect 2 23 19 37)(font "Courier New" (bold))(invisible))
		(line (pt 0 32)(pt 14 32))
	)
	(port
		(pt 64 24)
		(output)
		(text "OUT" (rect 48 15 65 29)(font "Courier New" (bold))(invisible))
		(text "OUT" (rect 48 15 65 29)(font "Courier New" (bold))(invisible))
		(line (pt 42 24)(pt 64 24))
	)
	(drawing
		(line (pt 14 12)(pt 30 12))
		(line (pt 14 37)(pt 31 37))
		(line (pt 14 12)(pt 14 37))
		(arc (pt 31 37)(pt 30 12)(rect 18 12 43 37))
	)
)
(symbol
	(rect 952 496 1016 544)
	(text "AND2" (rect 1 0 34 11)(font "Arial" (font_size 6)))
	(text "inst6" (rect 3 37 44 51)(font "Arial" ))
	(port
		(pt 0 16)
		(input)
		(text "IN1" (rect 2 7 19 21)(font "Courier New" (bold))(invisible))
		(text "IN1" (rect 2 7 19 21)(font "Courier New" (bold))(invisible))
		(line (pt 0 16)(pt 14 16))
	)
	(port
		(pt 0 32)
		(input)
		(text "IN2" (rect 2 23 19 37)(font "Courier New" (bold))(invisible))
		(text "IN2" (rect 2 23 19 37)(font "Courier New" (bold))(invisible))
		(line (pt 0 32)(pt 14 32))
	)
	(port
		(pt 64 24)
		(output)
		(text "OUT" (rect 48 15 65 29)(font "Courier New" (bold))(invisible))
		(text "OUT" (rect 48 15 65 29)(font "Courier New" (bold))(invisible))
		(line (pt 42 24)(pt 64 24))
	)
	(drawing
		(line (pt 14 12)(pt 30 12))
		(line (pt 14 37)(pt 31 37))
		(line (pt 14 12)(pt 14 37))
		(arc (pt 31 37)(pt 30 12)(rect 18 12 43 37))
	)
)
(symbol
	(rect 952 600 1016 648)
	(text "AND2" (rect 1 0 34 11)(font "Arial" (font_size 6)))
	(text "inst7" (rect 3 37 44 51)(font "Arial" ))
	(port
		(pt 0 16)
		(input)
		(text "IN1" (rect 2 7 19 21)(font "Courier New" (bold))(invisible))
		(text "IN1" (rect 2 7 19 21)(font "Courier New" (bold))(invisible))
		(line (pt 0 16)(pt 14 16))
	)
	(port
		(pt 0 32)
		(input)
		(text "IN2" (rect 2 23 19 37)(font "Courier New" (bold))(invisible))
		(text "IN2" (rect 2 23 19 37)(font "Courier New" (bold))(invisible))
		(line (pt 0 32)(pt 14 32))
	)
	(port
		(pt 64 24)
		(output)
		(text "OUT" (rect 48 15 65 29)(font "Courier New" (bold))(invisible))
		(text "OUT" (rect 48 15 65 29)(font "Courier New" (bold))(invisible))
		(line (pt 42 24)(pt 64 24))
	)
	(drawing
		(line (pt 14 12)(pt 30 12))
		(line (pt 14 37)(pt 31 37))
		(line (pt 14 12)(pt 14 37))
		(arc (pt 31 37)(pt 30 12)(rect 18 12 43 37))
	)
)
(symbol
	(rect 952 688 1016 736)
	(text "AND2" (rect 1 0 34 11)(font "Arial" (font_size 6)))
	(text "inst8" (rect 3 37 44 51)(font "Arial" ))
	(port
		(pt 0 16)
		(input)
		(text "IN1" (rect 2 7 19 21)(font "Courier New" (bold))(invisible))
		(text "IN1" (rect 2 7 19 21)(font "Courier New" (bold))(invisible))
		(line (pt 0 16)(pt 14 16))
	)
	(port
		(pt 0 32)
		(input)
		(text "IN2" (rect 2 23 19 37)(font "Courier New" (bold))(invisible))
		(text "IN2" (rect 2 23 19 37)(font "Courier New" (bold))(invisible))
		(line (pt 0 32)(pt 14 32))
	)
	(port
		(pt 64 24)
		(output)
		(text "OUT" (rect 48 15 65 29)(font "Courier New" (bold))(invisible))
		(text "OUT" (rect 48 15 65 29)(font "Courier New" (bold))(invisible))
		(line (pt 42 24)(pt 64 24))
	)
	(drawing
		(line (pt 14 12)(pt 30 12))
		(line (pt 14 37)(pt 31 37))
		(line (pt 14 12)(pt 14 37))
		(arc (pt 31 37)(pt 30 12)(rect 18 12 43 37))
	)
)
(symbol
	(rect 952 768 1016 816)
	(text "AND2" (rect 1 0 34 11)(font "Arial" (font_size 6)))
	(text "inst9" (rect 3 37 44 51)(font "Arial" ))
	(port
		(pt 0 16)
		(input)
		(text "IN1" (rect 2 7 19 21)(font "Courier New" (bold))(invisible))
		(text "IN1" (rect 2 7 19 21)(font "Courier New" (bold))(invisible))
		(line (pt 0 16)(pt 14 16))
	)
	(port
		(pt 0 32)
		(input)
		(text "IN2" (rect 2 23 19 37)(font "Courier New" (bold))(invisible))
		(text "IN2" (rect 2 23 19 37)(font "Courier New" (bold))(invisible))
		(line (pt 0 32)(pt 14 32))
	)
	(port
		(pt 64 24)
		(output)
		(text "OUT" (rect 48 15 65 29)(font "Courier New" (bold))(invisible))
		(text "OUT" (rect 48 15 65 29)(font "Courier New" (bold))(invisible))
		(line (pt 42 24)(pt 64 24))
	)
	(drawing
		(line (pt 14 12)(pt 30 12))
		(line (pt 14 37)(pt 31 37))
		(line (pt 14 12)(pt 14 37))
		(arc (pt 31 37)(pt 30 12)(rect 18 12 43 37))
	)
)
(symbol
	(rect 952 848 1016 896)
	(text "AND2" (rect 1 0 34 11)(font "Arial" (font_size 6)))
	(text "inst10" (rect 3 37 52 51)(font "Arial" ))
	(port
		(pt 0 16)
		(input)
		(text "IN1" (rect 2 7 19 21)(font "Courier New" (bold))(invisible))
		(text "IN1" (rect 2 7 19 21)(font "Courier New" (bold))(invisible))
		(line (pt 0 16)(pt 14 16))
	)
	(port
		(pt 0 32)
		(input)
		(text "IN2" (rect 2 23 19 37)(font "Courier New" (bold))(invisible))
		(text "IN2" (rect 2 23 19 37)(font "Courier New" (bold))(invisible))
		(line (pt 0 32)(pt 14 32))
	)
	(port
		(pt 64 24)
		(output)
		(text "OUT" (rect 48 15 65 29)(font "Courier New" (bold))(invisible))
		(text "OUT" (rect 48 15 65 29)(font "Courier New" (bold))(invisible))
		(line (pt 42 24)(pt 64 24))
	)
	(drawing
		(line (pt 14 12)(pt 30 12))
		(line (pt 14 37)(pt 31 37))
		(line (pt 14 12)(pt 14 37))
		(arc (pt 31 37)(pt 30 12)(rect 18 12 43 37))
	)
)
(symbol
	(rect 952 936 1016 984)
	(text "AND2" (rect 1 0 34 11)(font "Arial" (font_size 6)))
	(text "inst11" (rect 3 37 52 51)(font "Arial" ))
	(port
		(pt 0 16)
		(input)
		(text "IN1" (rect 2 7 19 21)(font "Courier New" (bold))(invisible))
		(text "IN1" (rect 2 7 19 21)(font "Courier New" (bold))(invisible))
		(line (pt 0 16)(pt 14 16))
	)
	(port
		(pt 0 32)
		(input)
		(text "IN2" (rect 2 23 19 37)(font "Courier New" (bold))(invisible))
		(text "IN2" (rect 2 23 19 37)(font "Courier New" (bold))(invisible))
		(line (pt 0 32)(pt 14 32))
	)
	(port
		(pt 64 24)
		(output)
		(text "OUT" (rect 48 15 65 29)(font "Courier New" (bold))(invisible))
		(text "OUT" (rect 48 15 65 29)(font "Courier New" (bold))(invisible))
		(line (pt 42 24)(pt 64 24))
	)
	(drawing
		(line (pt 14 12)(pt 30 12))
		(line (pt 14 37)(pt 31 37))
		(line (pt 14 12)(pt 14 37))
		(arc (pt 31 37)(pt 30 12)(rect 18 12 43 37))
	)
)
(symbol
	(rect 952 1024 1016 1072)
	(text "AND2" (rect 1 0 34 11)(font "Arial" (font_size 6)))
	(text "inst12" (rect 3 37 52 51)(font "Arial" ))
	(port
		(pt 0 16)
		(input)
		(text "IN1" (rect 2 7 19 21)(font "Courier New" (bold))(invisible))
		(text "IN1" (rect 2 7 19 21)(font "Courier New" (bold))(invisible))
		(line (pt 0 16)(pt 14 16))
	)
	(port
		(pt 0 32)
		(input)
		(text "IN2" (rect 2 23 19 37)(font "Courier New" (bold))(invisible))
		(text "IN2" (rect 2 23 19 37)(font "Courier New" (bold))(invisible))
		(line (pt 0 32)(pt 14 32))
	)
	(port
		(pt 64 24)
		(output)
		(text "OUT" (rect 48 15 65 29)(font "Courier New" (bold))(invisible))
		(text "OUT" (rect 48 15 65 29)(font "Courier New" (bold))(invisible))
		(line (pt 42 24)(pt 64 24))
	)
	(drawing
		(line (pt 14 12)(pt 30 12))
		(line (pt 14 37)(pt 31 37))
		(line (pt 14 12)(pt 14 37))
		(arc (pt 31 37)(pt 30 12)(rect 18 12 43 37))
	)
)
(symbol
	(rect 1136 136 1200 344)
	(text "OR12" (rect 1 0 34 11)(font "Arial" (font_size 6)))
	(text "inst15" (rect 3 197 52 211)(font "Arial" ))
	(port
		(pt 0 48)
		(input)
		(text "IN3" (rect 2 39 19 53)(font "Courier New" (bold))(invisible))
		(text "IN3" (rect 2 39 19 53)(font "Courier New" (bold))(invisible))
		(line (pt 0 48)(pt 13 48))
	)
	(port
		(pt 0 32)
		(input)
		(text "IN2" (rect 2 23 19 37)(font "Courier New" (bold))(invisible))
		(text "IN2" (rect 2 23 19 37)(font "Courier New" (bold))(invisible))
		(line (pt 0 32)(pt 13 32))
	)
	(port
		(pt 0 16)
		(input)
		(text "IN1" (rect 2 7 19 21)(font "Courier New" (bold))(invisible))
		(text "IN1" (rect 2 7 19 21)(font "Courier New" (bold))(invisible))
		(line (pt 0 16)(pt 13 16))
	)
	(port
		(pt 0 96)
		(input)
		(text "IN6" (rect 2 87 19 101)(font "Courier New" (bold))(invisible))
		(text "IN6" (rect 2 87 19 101)(font "Courier New" (bold))(invisible))
		(line (pt 0 96)(pt 15 96))
	)
	(port
		(pt 0 80)
		(input)
		(text "IN5" (rect 2 71 19 85)(font "Courier New" (bold))(invisible))
		(text "IN5" (rect 2 71 19 85)(font "Courier New" (bold))(invisible))
		(line (pt 0 80)(pt 13 80))
	)
	(port
		(pt 0 64)
		(input)
		(text "IN4" (rect 2 55 19 69)(font "Courier New" (bold))(invisible))
		(text "IN4" (rect 2 55 19 69)(font "Courier New" (bold))(invisible))
		(line (pt 0 64)(pt 13 64))
	)
	(port
		(pt 0 128)
		(input)
		(text "IN8" (rect 2 119 19 133)(font "Courier New" (bold))(invisible))
		(text "IN8" (rect 2 119 19 133)(font "Courier New" (bold))(invisible))
		(line (pt 0 128)(pt 13 128))
	)
	(port
		(pt 0 112)
		(input)
		(text "IN7" (rect 2 103 19 117)(font "Courier New" (bold))(invisible))
		(text "IN7" (rect 2 103 19 117)(font "Courier New" (bold))(invisible))
		(line (pt 0 112)(pt 15 112))
	)
	(port
		(pt 0 144)
		(input)
		(text "IN9" (rect 2 135 19 149)(font "Courier New" (bold))(invisible))
		(text "IN9" (rect 2 135 19 149)(font "Courier New" (bold))(invisible))
		(line (pt 0 144)(pt 13 144))
	)
	(port
		(pt 0 176)
		(input)
		(text "IN11" (rect 2 167 25 181)(font "Courier New" (bold))(invisible))
		(text "IN11" (rect 2 167 25 181)(font "Courier New" (bold))(invisible))
		(line (pt 0 176)(pt 13 176))
	)
	(port
		(pt 0 160)
		(input)
		(text "IN10" (rect 2 151 25 165)(font "Courier New" (bold))(invisible))
		(text "IN10" (rect 2 151 25 165)(font "Courier New" (bold))(invisible))
		(line (pt 0 160)(pt 13 160))
	)
	(port
		(pt 0 192)
		(input)
		(text "IN12" (rect 2 183 25 197)(font "Courier New" (bold))(invisible))
		(text "IN12" (rect 2 183 25 197)(font "Courier New" (bold))(invisible))
		(line (pt 0 192)(pt 13 192))
	)
	(port
		(pt 64 104)
		(output)
		(text "OUT" (rect 48 95 65 109)(font "Courier New" (bold))(invisible))
		(text "OUT" (rect 48 95 65 109)(font "Courier New" (bold))(invisible))
		(line (pt 48 104)(pt 64 104))
	)
	(drawing
		(line (pt 14 93)(pt 25 93))
		(line (pt 14 116)(pt 25 116))
		(line (pt 13 93)(pt 13 13))
		(line (pt 13 195)(pt 13 115))
		(arc (pt 7 109)(pt 7 99)(rect -14 88 19 121))
		(arc (pt 49 104)(pt 25 93)(rect -6 93 57 156))
		(arc (pt 25 115)(pt 49 104)(rect -6 53 57 116))
	)
)
(symbol
	(rect 448 120 576 504)
	(text "Decoder5_1" (rect 20 0 149 18)(font "Arial" (font_size 10)))
	(text "inst" (rect 8 366 41 380)(font "Arial" ))
	(port
		(pt 0 192)
		(input)
		(text "data[4..0]" (rect 0 0 94 16)(font "Arial" (font_size 8)))
		(text "data[4..0]" (rect 20 184 114 200)(font "Arial" (font_size 8)))
		(line (pt 0 192)(pt 16 192)(line_width 3))
	)
	(port
		(pt 128 32)
		(output)
		(text "eq0" (rect 0 0 28 16)(font "Arial" (font_size 8)))
		(text "eq0" (rect 88 24 116 40)(font "Arial" (font_size 8)))
		(line (pt 128 32)(pt 112 32))
	)
	(port
		(pt 128 48)
		(output)
		(text "eq1" (rect 0 0 28 16)(font "Arial" (font_size 8)))
		(text "eq1" (rect 88 40 116 56)(font "Arial" (font_size 8)))
		(line (pt 128 48)(pt 112 48))
	)
	(port
		(pt 128 64)
		(output)
		(text "eq2" (rect 0 0 28 16)(font "Arial" (font_size 8)))
		(text "eq2" (rect 88 56 116 72)(font "Arial" (font_size 8)))
		(line (pt 128 64)(pt 112 64))
	)
	(port
		(pt 128 80)
		(output)
		(text "eq3" (rect 0 0 28 16)(font "Arial" (font_size 8)))
		(text "eq3" (rect 88 72 116 88)(font "Arial" (font_size 8)))
		(line (pt 128 80)(pt 112 80))
	)
	(port
		(pt 128 96)
		(output)
		(text "eq4" (rect 0 0 28 16)(font "Arial" (font_size 8)))
		(text "eq4" (rect 88 88 116 104)(font "Arial" (font_size 8)))
		(line (pt 128 96)(pt 112 96))
	)
	(port
		(pt 128 112)
		(output)
		(text "eq5" (rect 0 0 28 16)(font "Arial" (font_size 8)))
		(text "eq5" (rect 88 104 116 120)(font "Arial" (font_size 8)))
		(line (pt 128 112)(pt 112 112))
	)
	(port
		(pt 128 128)
		(output)
		(text "eq6" (rect 0 0 28 16)(font "Arial" (font_size 8)))
		(text "eq6" (rect 88 120 116 136)(font "Arial" (font_size 8)))
		(line (pt 128 128)(pt 112 128))
	)
	(port
		(pt 128 144)
		(output)
		(text "eq7" (rect 0 0 28 16)(font "Arial" (font_size 8)))
		(text "eq7" (rect 88 136 116 152)(font "Arial" (font_size 8)))
		(line (pt 128 144)(pt 112 144))
	)
	(port
		(pt 128 160)
		(output)
		(text "eq8" (rect 0 0 28 16)(font "Arial" (font_size 8)))
		(text "eq8" (rect 88 152 116 168)(font "Arial" (font_size 8)))
		(line (pt 128 160)(pt 112 160))
	)
	(port
		(pt 128 176)
		(output)
		(text "eq9" (rect 0 0 28 16)(font "Arial" (font_size 8)))
		(text "eq9" (rect 88 168 116 184)(font "Arial" (font_size 8)))
		(line (pt 128 176)(pt 112 176))
	)
	(port
		(pt 128 192)
		(output)
		(text "eq10" (rect 0 0 37 16)(font "Arial" (font_size 8)))
		(text "eq10" (rect 81 184 118 200)(font "Arial" (font_size 8)))
		(line (pt 128 192)(pt 112 192))
	)
	(port
		(pt 128 208)
		(output)
		(text "eq11" (rect 0 0 37 16)(font "Arial" (font_size 8)))
		(text "eq11" (rect 82 200 119 216)(font "Arial" (font_size 8)))
		(line (pt 128 208)(pt 112 208))
	)
	(port
		(pt 128 224)
		(output)
		(text "eq12" (rect 0 0 37 16)(font "Arial" (font_size 8)))
		(text "eq12" (rect 81 216 118 232)(font "Arial" (font_size 8)))
		(line (pt 128 224)(pt 112 224))
	)
	(port
		(pt 128 240)
		(output)
		(text "eq13" (rect 0 0 37 16)(font "Arial" (font_size 8)))
		(text "eq13" (rect 81 232 118 248)(font "Arial" (font_size 8)))
		(line (pt 128 240)(pt 112 240))
	)
	(port
		(pt 128 256)
		(output)
		(text "eq14" (rect 0 0 37 16)(font "Arial" (font_size 8)))
		(text "eq14" (rect 81 248 118 264)(font "Arial" (font_size 8)))
		(line (pt 128 256)(pt 112 256))
	)
	(port
		(pt 128 272)
		(output)
		(text "eq15" (rect 0 0 37 16)(font "Arial" (font_size 8)))
		(text "eq15" (rect 81 264 118 280)(font "Arial" (font_size 8)))
		(line (pt 128 272)(pt 112 272))
	)
	(port
		(pt 128 288)
		(output)
		(text "eq16" (rect 0 0 37 16)(font "Arial" (font_size 8)))
		(text "eq16" (rect 81 280 118 296)(font "Arial" (font_size 8)))
		(line (pt 128 288)(pt 112 288))
	)
	(port
		(pt 128 304)
		(output)
		(text "eq17" (rect 0 0 37 16)(font "Arial" (font_size 8)))
		(text "eq17" (rect 81 296 118 312)(font "Arial" (font_size 8)))
		(line (pt 128 304)(pt 112 304))
	)
	(port
		(pt 128 320)
		(output)
		(text "eq18" (rect 0 0 37 16)(font "Arial" (font_size 8)))
		(text "eq18" (rect 81 312 118 328)(font "Arial" (font_size 8)))
		(line (pt 128 320)(pt 112 320))
	)
	(port
		(pt 128 336)
		(output)
		(text "eq19" (rect 0 0 37 16)(font "Arial" (font_size 8)))
		(text "eq19" (rect 81 328 118 344)(font "Arial" (font_size 8)))
		(line (pt 128 336)(pt 112 336))
	)
	(port
		(pt 128 352)
		(output)
		(text "eq20" (rect 0 0 37 16)(font "Arial" (font_size 8)))
		(text "eq20" (rect 81 344 118 360)(font "Arial" (font_size 8)))
		(line (pt 128 352)(pt 112 352))
	)
	(drawing
		(line (pt 16 16)(pt 16 368))
		(line (pt 16 16)(pt 112 16))
		(line (pt 16 368)(pt 112 368))
		(line (pt 112 16)(pt 112 368))
		(line (pt 0 0)(pt 130 0))
		(line (pt 130 0)(pt 130 386))
		(line (pt 0 386)(pt 130 386))
		(line (pt 0 0)(pt 0 386))
		(line (pt 0 0)(pt 0 0))
		(line (pt 0 0)(pt 0 0))
		(line (pt 0 0)(pt 0 0))
		(line (pt 0 0)(pt 0 0))
	)
)
(connector
	(text "VCC" (rect 256 459 270 483)(font "Arial" )(vertical))
	(pt 272 448)
	(pt 272 496)
)
(connector
	(text "GND" (rect 312 451 326 475)(font "Arial" )(vertical))
	(pt 328 488)
	(pt 328 440)
)
(connector
	(text "ready" (rect 280 144 321 158)(font "Arial" ))
	(pt 272 160)
	(pt 320 160)
)
(connector
	(text "strt" (rect 289 168 322 182)(font "Arial" ))
	(pt 272 184)
	(pt 312 184)
)
(connector
	(pt 1128 328)
	(pt 1136 328)
)
(connector
	(pt 1016 152)
	(pt 1136 152)
)
(connector
	(pt 1032 168)
	(pt 1136 168)
)
(connector
	(pt 1056 216)
	(pt 1136 216)
)
(connector
	(pt 1048 200)
	(pt 1136 200)
)
(connector
	(pt 1040 184)
	(pt 1136 184)
)
(connector
	(pt 1072 248)
	(pt 1136 248)
)
(connector
	(pt 1064 232)
	(pt 1136 232)
)
(connector
	(pt 1080 264)
	(pt 1136 264)
)
(connector
	(pt 1096 296)
	(pt 1136 296)
)
(connector
	(pt 1088 280)
	(pt 1136 280)
)
(connector
	(pt 1104 312)
	(pt 1136 312)
)
(connector
	(pt 1032 168)
	(pt 1032 248)
)
(connector
	(pt 1016 248)
	(pt 1032 248)
)
(connector
	(pt 1040 184)
	(pt 1040 344)
)
(connector
	(pt 1040 344)
	(pt 1016 344)
)
(connector
	(pt 1048 200)
	(pt 1048 432)
)
(connector
	(pt 1016 432)
	(pt 1048 432)
)
(connector
	(pt 1056 520)
	(pt 1016 520)
)
(connector
	(pt 1056 216)
	(pt 1056 520)
)
(connector
	(pt 1064 232)
	(pt 1064 624)
)
(connector
	(pt 1016 624)
	(pt 1064 624)
)
(connector
	(pt 1072 248)
	(pt 1072 712)
)
(connector
	(pt 1088 280)
	(pt 1088 872)
)
(connector
	(pt 1096 296)
	(pt 1096 960)
)
(connector
	(pt 1104 312)
	(pt 1104 1048)
)
(connector
	(pt 1016 712)
	(pt 1072 712)
)
(connector
	(pt 1016 792)
	(pt 1080 792)
)
(connector
	(pt 1016 872)
	(pt 1088 872)
)
(connector
	(pt 1016 960)
	(pt 1096 960)
)
(connector
	(pt 1016 1048)
	(pt 1104 1048)
)
(connector
	(pt 952 160)
	(pt 944 160)
)
(connector
	(pt 944 192)
	(pt 944 160)
)
(connector
	(text "cmnd[0]" (rect 964 176 1021 190)(font "Arial" ))
	(pt 944 192)
	(pt 1008 192)
)
(connector
	(pt 952 256)
	(pt 944 256)
)
(connector
	(pt 944 288)
	(pt 944 256)
)
(connector
	(pt 952 352)
	(pt 944 352)
)
(connector
	(pt 944 384)
	(pt 944 352)
)
(connector
	(pt 952 440)
	(pt 944 440)
)
(connector
	(pt 944 472)
	(pt 944 440)
)
(connector
	(pt 952 528)
	(pt 944 528)
)
(connector
	(pt 944 560)
	(pt 944 528)
)
(connector
	(pt 952 632)
	(pt 944 632)
)
(connector
	(pt 944 664)
	(pt 944 632)
)
(connector
	(pt 952 720)
	(pt 944 720)
)
(connector
	(pt 944 752)
	(pt 944 720)
)
(connector
	(pt 952 800)
	(pt 944 800)
)
(connector
	(pt 944 832)
	(pt 944 800)
)
(connector
	(pt 952 968)
	(pt 944 968)
)
(connector
	(pt 944 1000)
	(pt 944 968)
)
(connector
	(pt 952 1056)
	(pt 944 1056)
)
(connector
	(pt 944 1088)
	(pt 944 1056)
)
(connector
	(text "cmnd[1]" (rect 964 272 1021 286)(font "Arial" ))
	(pt 944 288)
	(pt 1008 288)
)
(connector
	(text "cmnd[2]" (rect 964 368 1021 382)(font "Arial" ))
	(pt 944 384)
	(pt 1008 384)
)
(connector
	(text "cmnd[4]" (rect 964 544 1021 558)(font "Arial" ))
	(pt 944 560)
	(pt 1008 560)
)
(connector
	(text "cmnd[5]" (rect 964 648 1021 662)(font "Arial" ))
	(pt 944 664)
	(pt 1008 664)
)
(connector
	(text "cmnd[7]" (rect 964 816 1021 830)(font "Arial" ))
	(pt 944 832)
	(pt 1008 832)
)
(connector
	(pt 952 880)
	(pt 944 880)
)
(connector
	(pt 944 912)
	(pt 944 880)
)
(connector
	(text "cmnd[8]" (rect 964 896 1021 910)(font "Arial" ))
	(pt 944 912)
	(pt 1008 912)
)
(connector
	(text "cmnd[9]" (rect 964 984 1021 998)(font "Arial" ))
	(pt 944 1000)
	(pt 1008 1000)
)
(connector
	(text "cmnd[10]" (rect 964 1072 1030 1086)(font "Arial" ))
	(pt 944 1088)
	(pt 1008 1088)
)
(connector
	(pt 1360 352)
	(pt 1360 464)
)
(connector
	(text "GND" (rect 904 936 928 950)(font "Arial" ))
	(pt 952 952)
	(pt 896 952)
)
(connector
	(text "GND" (rect 904 1024 928 1038)(font "Arial" ))
	(pt 952 1040)
	(pt 896 1040)
)
(connector
	(text "cmnd[10..0]" (rect 284 192 374 206)(font "Arial" ))
	(pt 272 208)
	(pt 312 208)
	(bus)
)
(connector
	(pt 1128 328)
	(pt 1128 352)
)
(connector
	(text "Cntr[4..0]" (rect 270 296 352 310)(font "Arial" ))
	(pt 232 312)
	(pt 448 312)
	(bus)
)
(connector
	(text "T0" (rect 584 136 600 150)(font "Arial" ))
	(pt 576 152)
	(pt 624 152)
)
(connector
	(text "T1" (rect 584 152 600 166)(font "Arial" ))
	(pt 576 168)
	(pt 624 168)
)
(connector
	(text "T2" (rect 584 168 600 182)(font "Arial" ))
	(pt 576 184)
	(pt 624 184)
)
(connector
	(text "T3" (rect 585 184 601 198)(font "Arial" ))
	(pt 576 200)
	(pt 624 200)
)
(connector
	(text "T4" (rect 584 200 600 214)(font "Arial" ))
	(pt 576 216)
	(pt 624 216)
)
(connector
	(text "T5" (rect 584 216 600 230)(font "Arial" ))
	(pt 576 232)
	(pt 624 232)
)
(connector
	(text "T6" (rect 584 232 600 246)(font "Arial" ))
	(pt 576 248)
	(pt 624 248)
)
(connector
	(text "T7" (rect 585 248 601 262)(font "Arial" ))
	(pt 576 264)
	(pt 624 264)
)
(connector
	(text "T8" (rect 584 264 600 278)(font "Arial" ))
	(pt 576 280)
	(pt 624 280)
)
(connector
	(text "T9" (rect 584 280 600 294)(font "Arial" ))
	(pt 576 296)
	(pt 624 296)
)
(connector
	(text "T10" (rect 584 296 608 310)(font "Arial" ))
	(pt 576 312)
	(pt 624 312)
)
(connector
	(text "T11" (rect 585 312 609 326)(font "Arial" ))
	(pt 576 328)
	(pt 624 328)
)
(connector
	(text "T12" (rect 584 328 608 342)(font "Arial" ))
	(pt 576 344)
	(pt 624 344)
)
(connector
	(text "T13" (rect 584 344 608 358)(font "Arial" ))
	(pt 576 360)
	(pt 624 360)
)
(connector
	(text "T14" (rect 584 360 608 374)(font "Arial" ))
	(pt 576 376)
	(pt 624 376)
)
(connector
	(text "T15" (rect 585 376 609 390)(font "Arial" ))
	(pt 576 392)
	(pt 624 392)
)
(connector
	(text "T16" (rect 585 392 609 406)(font "Arial" ))
	(pt 576 408)
	(pt 624 408)
)
(connector
	(text "T17" (rect 584 408 608 422)(font "Arial" ))
	(pt 576 424)
	(pt 624 424)
)
(connector
	(text "T18" (rect 584 424 608 438)(font "Arial" ))
	(pt 576 440)
	(pt 624 440)
)
(connector
	(text "T19" (rect 584 440 608 454)(font "Arial" ))
	(pt 576 456)
	(pt 624 456)
)
(connector
	(text "T20" (rect 585 456 609 470)(font "Arial" ))
	(pt 576 472)
	(pt 624 472)
)
(connector
	(text "GND" (rect 904 768 928 782)(font "Arial" ))
	(pt 952 784)
	(pt 896 784)
)
(connector
	(text "GND" (rect 904 320 928 334)(font "Arial" ))
	(pt 952 336)
	(pt 896 336)
)
(connector
	(text "GND" (rect 904 224 928 238)(font "Arial" ))
	(pt 952 240)
	(pt 896 240)
)
(connector
	(text "GND" (rect 904 128 928 142)(font "Arial" ))
	(pt 952 144)
	(pt 896 144)
)
(connector
	(pt 1080 264)
	(pt 1080 792)
)
(connector
	(pt 1128 352)
	(pt 1360 352)
)
(connector
	(pt 1288 240)
	(pt 1200 240)
)
(connector
	(text "GND" (rect 1310 448 1334 462)(font "Arial" ))
	(pt 1304 464)
	(pt 1360 464)
)
(connector
	(text "T11" (rect 904 408 928 422)(font "Arial" ))
	(pt 952 424)
	(pt 896 424)
)
(connector
	(text "T11" (rect 904 496 928 510)(font "Arial" ))
	(pt 952 512)
	(pt 896 512)
)
(connector
	(text "cmnd[3]" (rect 966 456 1023 470)(font "Arial" ))
	(pt 944 472)
	(pt 1008 472)
)
(connector
	(text "T11" (rect 912 600 936 614)(font "Arial" ))
	(pt 952 616)
	(pt 896 616)
)
(connector
	(text "T7" (rect 904 688 920 702)(font "Arial" ))
	(pt 952 704)
	(pt 896 704)
)
(connector
	(text "cmnd[6]" (rect 964 736 1021 750)(font "Arial" ))
	(pt 944 752)
	(pt 1008 752)
)
(connector
	(text "T4" (rect 904 848 920 862)(font "Arial" ))
	(pt 952 864)
	(pt 896 864)
)
