/*
WARNING: Do NOT edit the input and output ports in this file in a text
editor if you plan to continue editing the block that represents it in
the Block Editor! File corruption is VERY likely to occur.
*/
/*
Copyright (C) 1991-2015 Altera Corporation. All rights reserved.
Your use of Altera Corporation's design tools, logic functions 
and other software and tools, and its AMPP partner logic 
functions, and any output files from any of the foregoing 
(including device programming or simulation files), and any 
associated documentation or information are expressly subject 
to the terms and conditions of the Altera Program License 
Subscription Agreement, the Altera Quartus Prime License Agreement,
the Altera MegaCore Function License Agreement, or other 
applicable license agreement, including, without limitation, 
that your use is for the sole purpose of programming logic 
devices manufactured by Altera and sold by Altera or its 
authorized distributors.  Please refer to the applicable 
agreement for further details.
*/
(header "graphic" (version "1.4"))
(pin
	(input)
	(rect 176 64 344 80)
	(text "INPUT" (rect 125 0 166 11)(font "Arial" (font_size 6)))
	(text "ready" (rect 5 0 46 14)(font "Arial" ))
	(pt 168 8)
	(drawing
		(line (pt 84 12)(pt 109 12))
		(line (pt 84 4)(pt 109 4))
		(line (pt 113 8)(pt 168 8))
		(line (pt 84 12)(pt 84 4))
		(line (pt 109 4)(pt 113 8))
		(line (pt 109 12)(pt 113 8))
	)
	(text "VCC" (rect 128 7 152 18)(font "Arial" (font_size 6)))
)
(pin
	(input)
	(rect 176 88 344 104)
	(text "INPUT" (rect 125 0 166 11)(font "Arial" (font_size 6)))
	(text "start" (rect 5 0 46 14)(font "Arial" ))
	(pt 168 8)
	(drawing
		(line (pt 84 12)(pt 109 12))
		(line (pt 84 4)(pt 109 4))
		(line (pt 113 8)(pt 168 8))
		(line (pt 84 12)(pt 84 4))
		(line (pt 109 4)(pt 113 8))
		(line (pt 109 12)(pt 113 8))
	)
	(text "VCC" (rect 128 7 152 18)(font "Arial" (font_size 6)))
)
(pin
	(input)
	(rect 152 112 344 128)
	(text "INPUT" (rect 149 0 190 11)(font "Arial" (font_size 6)))
	(text "cmnd[10..0]" (rect 5 0 95 14)(font "Arial" ))
	(pt 192 8)
	(drawing
		(line (pt 108 12)(pt 133 12))
		(line (pt 108 4)(pt 133 4))
		(line (pt 137 8)(pt 192 8))
		(line (pt 108 12)(pt 108 4))
		(line (pt 133 4)(pt 137 8))
		(line (pt 133 12)(pt 137 8))
	)
	(text "VCC" (rect 152 7 176 18)(font "Arial" (font_size 6)))
)
(pin
	(input)
	(rect 96 216 304 232)
	(text "INPUT" (rect 165 0 206 11)(font "Arial" (font_size 6)))
	(text "Counter[4..0]" (rect 5 0 112 14)(font "Arial" ))
	(pt 208 8)
	(drawing
		(line (pt 124 12)(pt 149 12))
		(line (pt 124 4)(pt 149 4))
		(line (pt 153 8)(pt 208 8))
		(line (pt 124 12)(pt 124 4))
		(line (pt 149 4)(pt 153 8))
		(line (pt 149 12)(pt 153 8))
	)
	(text "VCC" (rect 168 7 192 18)(font "Arial" (font_size 6)))
)
(pin
	(output)
	(rect 1360 144 1536 160)
	(text "OUTPUT" (rect 1 0 50 11)(font "Arial" (font_size 6)))
	(text "Name_here" (rect 90 0 164 14)(font "Arial" ))
	(pt 0 8)
	(drawing
		(line (pt 0 8)(pt 52 8))
		(line (pt 52 4)(pt 78 4))
		(line (pt 52 12)(pt 78 12))
		(line (pt 52 12)(pt 52 4))
		(line (pt 78 4)(pt 82 8))
		(line (pt 82 8)(pt 78 12))
		(line (pt 78 12)(pt 82 8))
	)
)
(symbol
	(rect 328 344 360 360)
	(text "VCC" (rect 7 0 31 11)(font "Arial" (font_size 6)))
	(text "inst3" (rect 3 5 44 19)(font "Arial" )(invisible))
	(port
		(pt 16 16)
		(output)
		(text "1" (rect 19 7 24 21)(font "Courier New" (bold))(invisible))
		(text "1" (rect 19 7 24 21)(font "Courier New" (bold))(invisible))
		(line (pt 16 16)(pt 16 8))
	)
	(drawing
		(line (pt 8 8)(pt 24 8))
	)
)
(symbol
	(rect 384 400 416 432)
	(text "GND" (rect 8 16 32 27)(font "Arial" (font_size 6)))
	(text "inst14" (rect 3 21 52 35)(font "Arial" )(invisible))
	(port
		(pt 16 0)
		(output)
		(text "1" (rect 18 0 23 14)(font "Courier New" (bold))(invisible))
		(text "1" (rect 18 0 23 14)(font "Courier New" (bold))(invisible))
		(line (pt 16 8)(pt 16 0))
	)
	(drawing
		(line (pt 8 8)(pt 16 16))
		(line (pt 16 16)(pt 24 8))
		(line (pt 8 8)(pt 24 8))
	)
)
(symbol
	(rect 1024 40 1088 88)
	(text "AND2" (rect 1 0 34 11)(font "Arial" (font_size 6)))
	(text "inst1" (rect 3 37 44 51)(font "Arial" ))
	(port
		(pt 0 16)
		(input)
		(text "IN1" (rect 2 7 19 21)(font "Courier New" (bold))(invisible))
		(text "IN1" (rect 2 7 19 21)(font "Courier New" (bold))(invisible))
		(line (pt 0 16)(pt 14 16))
	)
	(port
		(pt 0 32)
		(input)
		(text "IN2" (rect 2 23 19 37)(font "Courier New" (bold))(invisible))
		(text "IN2" (rect 2 23 19 37)(font "Courier New" (bold))(invisible))
		(line (pt 0 32)(pt 14 32))
	)
	(port
		(pt 64 24)
		(output)
		(text "OUT" (rect 48 15 65 29)(font "Courier New" (bold))(invisible))
		(text "OUT" (rect 48 15 65 29)(font "Courier New" (bold))(invisible))
		(line (pt 42 24)(pt 64 24))
	)
	(drawing
		(line (pt 14 12)(pt 30 12))
		(line (pt 14 37)(pt 31 37))
		(line (pt 14 12)(pt 14 37))
		(arc (pt 31 37)(pt 30 12)(rect 18 12 43 37))
	)
)
(symbol
	(rect 1024 136 1088 184)
	(text "AND2" (rect 1 0 34 11)(font "Arial" (font_size 6)))
	(text "inst2" (rect 3 37 44 51)(font "Arial" ))
	(port
		(pt 0 16)
		(input)
		(text "IN1" (rect 2 7 19 21)(font "Courier New" (bold))(invisible))
		(text "IN1" (rect 2 7 19 21)(font "Courier New" (bold))(invisible))
		(line (pt 0 16)(pt 14 16))
	)
	(port
		(pt 0 32)
		(input)
		(text "IN2" (rect 2 23 19 37)(font "Courier New" (bold))(invisible))
		(text "IN2" (rect 2 23 19 37)(font "Courier New" (bold))(invisible))
		(line (pt 0 32)(pt 14 32))
	)
	(port
		(pt 64 24)
		(output)
		(text "OUT" (rect 48 15 65 29)(font "Courier New" (bold))(invisible))
		(text "OUT" (rect 48 15 65 29)(font "Courier New" (bold))(invisible))
		(line (pt 42 24)(pt 64 24))
	)
	(drawing
		(line (pt 14 12)(pt 30 12))
		(line (pt 14 37)(pt 31 37))
		(line (pt 14 12)(pt 14 37))
		(arc (pt 31 37)(pt 30 12)(rect 18 12 43 37))
	)
)
(symbol
	(rect 1024 232 1088 280)
	(text "AND2" (rect 1 0 34 11)(font "Arial" (font_size 6)))
	(text "inst4" (rect 3 37 44 51)(font "Arial" ))
	(port
		(pt 0 16)
		(input)
		(text "IN1" (rect 2 7 19 21)(font "Courier New" (bold))(invisible))
		(text "IN1" (rect 2 7 19 21)(font "Courier New" (bold))(invisible))
		(line (pt 0 16)(pt 14 16))
	)
	(port
		(pt 0 32)
		(input)
		(text "IN2" (rect 2 23 19 37)(font "Courier New" (bold))(invisible))
		(text "IN2" (rect 2 23 19 37)(font "Courier New" (bold))(invisible))
		(line (pt 0 32)(pt 14 32))
	)
	(port
		(pt 64 24)
		(output)
		(text "OUT" (rect 48 15 65 29)(font "Courier New" (bold))(invisible))
		(text "OUT" (rect 48 15 65 29)(font "Courier New" (bold))(invisible))
		(line (pt 42 24)(pt 64 24))
	)
	(drawing
		(line (pt 14 12)(pt 30 12))
		(line (pt 14 37)(pt 31 37))
		(line (pt 14 12)(pt 14 37))
		(arc (pt 31 37)(pt 30 12)(rect 18 12 43 37))
	)
)
(symbol
	(rect 1024 320 1088 368)
	(text "AND2" (rect 1 0 34 11)(font "Arial" (font_size 6)))
	(text "inst5" (rect 3 37 44 51)(font "Arial" ))
	(port
		(pt 0 16)
		(input)
		(text "IN1" (rect 2 7 19 21)(font "Courier New" (bold))(invisible))
		(text "IN1" (rect 2 7 19 21)(font "Courier New" (bold))(invisible))
		(line (pt 0 16)(pt 14 16))
	)
	(port
		(pt 0 32)
		(input)
		(text "IN2" (rect 2 23 19 37)(font "Courier New" (bold))(invisible))
		(text "IN2" (rect 2 23 19 37)(font "Courier New" (bold))(invisible))
		(line (pt 0 32)(pt 14 32))
	)
	(port
		(pt 64 24)
		(output)
		(text "OUT" (rect 48 15 65 29)(font "Courier New" (bold))(invisible))
		(text "OUT" (rect 48 15 65 29)(font "Courier New" (bold))(invisible))
		(line (pt 42 24)(pt 64 24))
	)
	(drawing
		(line (pt 14 12)(pt 30 12))
		(line (pt 14 37)(pt 31 37))
		(line (pt 14 12)(pt 14 37))
		(arc (pt 31 37)(pt 30 12)(rect 18 12 43 37))
	)
)
(symbol
	(rect 1024 408 1088 456)
	(text "AND2" (rect 1 0 34 11)(font "Arial" (font_size 6)))
	(text "inst6" (rect 3 37 44 51)(font "Arial" ))
	(port
		(pt 0 16)
		(input)
		(text "IN1" (rect 2 7 19 21)(font "Courier New" (bold))(invisible))
		(text "IN1" (rect 2 7 19 21)(font "Courier New" (bold))(invisible))
		(line (pt 0 16)(pt 14 16))
	)
	(port
		(pt 0 32)
		(input)
		(text "IN2" (rect 2 23 19 37)(font "Courier New" (bold))(invisible))
		(text "IN2" (rect 2 23 19 37)(font "Courier New" (bold))(invisible))
		(line (pt 0 32)(pt 14 32))
	)
	(port
		(pt 64 24)
		(output)
		(text "OUT" (rect 48 15 65 29)(font "Courier New" (bold))(invisible))
		(text "OUT" (rect 48 15 65 29)(font "Courier New" (bold))(invisible))
		(line (pt 42 24)(pt 64 24))
	)
	(drawing
		(line (pt 14 12)(pt 30 12))
		(line (pt 14 37)(pt 31 37))
		(line (pt 14 12)(pt 14 37))
		(arc (pt 31 37)(pt 30 12)(rect 18 12 43 37))
	)
)
(symbol
	(rect 1024 512 1088 560)
	(text "AND2" (rect 1 0 34 11)(font "Arial" (font_size 6)))
	(text "inst7" (rect 3 37 44 51)(font "Arial" ))
	(port
		(pt 0 16)
		(input)
		(text "IN1" (rect 2 7 19 21)(font "Courier New" (bold))(invisible))
		(text "IN1" (rect 2 7 19 21)(font "Courier New" (bold))(invisible))
		(line (pt 0 16)(pt 14 16))
	)
	(port
		(pt 0 32)
		(input)
		(text "IN2" (rect 2 23 19 37)(font "Courier New" (bold))(invisible))
		(text "IN2" (rect 2 23 19 37)(font "Courier New" (bold))(invisible))
		(line (pt 0 32)(pt 14 32))
	)
	(port
		(pt 64 24)
		(output)
		(text "OUT" (rect 48 15 65 29)(font "Courier New" (bold))(invisible))
		(text "OUT" (rect 48 15 65 29)(font "Courier New" (bold))(invisible))
		(line (pt 42 24)(pt 64 24))
	)
	(drawing
		(line (pt 14 12)(pt 30 12))
		(line (pt 14 37)(pt 31 37))
		(line (pt 14 12)(pt 14 37))
		(arc (pt 31 37)(pt 30 12)(rect 18 12 43 37))
	)
)
(symbol
	(rect 1024 600 1088 648)
	(text "AND2" (rect 1 0 34 11)(font "Arial" (font_size 6)))
	(text "inst8" (rect 3 37 44 51)(font "Arial" ))
	(port
		(pt 0 16)
		(input)
		(text "IN1" (rect 2 7 19 21)(font "Courier New" (bold))(invisible))
		(text "IN1" (rect 2 7 19 21)(font "Courier New" (bold))(invisible))
		(line (pt 0 16)(pt 14 16))
	)
	(port
		(pt 0 32)
		(input)
		(text "IN2" (rect 2 23 19 37)(font "Courier New" (bold))(invisible))
		(text "IN2" (rect 2 23 19 37)(font "Courier New" (bold))(invisible))
		(line (pt 0 32)(pt 14 32))
	)
	(port
		(pt 64 24)
		(output)
		(text "OUT" (rect 48 15 65 29)(font "Courier New" (bold))(invisible))
		(text "OUT" (rect 48 15 65 29)(font "Courier New" (bold))(invisible))
		(line (pt 42 24)(pt 64 24))
	)
	(drawing
		(line (pt 14 12)(pt 30 12))
		(line (pt 14 37)(pt 31 37))
		(line (pt 14 12)(pt 14 37))
		(arc (pt 31 37)(pt 30 12)(rect 18 12 43 37))
	)
)
(symbol
	(rect 1024 680 1088 728)
	(text "AND2" (rect 1 0 34 11)(font "Arial" (font_size 6)))
	(text "inst9" (rect 3 37 44 51)(font "Arial" ))
	(port
		(pt 0 16)
		(input)
		(text "IN1" (rect 2 7 19 21)(font "Courier New" (bold))(invisible))
		(text "IN1" (rect 2 7 19 21)(font "Courier New" (bold))(invisible))
		(line (pt 0 16)(pt 14 16))
	)
	(port
		(pt 0 32)
		(input)
		(text "IN2" (rect 2 23 19 37)(font "Courier New" (bold))(invisible))
		(text "IN2" (rect 2 23 19 37)(font "Courier New" (bold))(invisible))
		(line (pt 0 32)(pt 14 32))
	)
	(port
		(pt 64 24)
		(output)
		(text "OUT" (rect 48 15 65 29)(font "Courier New" (bold))(invisible))
		(text "OUT" (rect 48 15 65 29)(font "Courier New" (bold))(invisible))
		(line (pt 42 24)(pt 64 24))
	)
	(drawing
		(line (pt 14 12)(pt 30 12))
		(line (pt 14 37)(pt 31 37))
		(line (pt 14 12)(pt 14 37))
		(arc (pt 31 37)(pt 30 12)(rect 18 12 43 37))
	)
)
(symbol
	(rect 1024 760 1088 808)
	(text "AND2" (rect 1 0 34 11)(font "Arial" (font_size 6)))
	(text "inst10" (rect 3 37 52 51)(font "Arial" ))
	(port
		(pt 0 16)
		(input)
		(text "IN1" (rect 2 7 19 21)(font "Courier New" (bold))(invisible))
		(text "IN1" (rect 2 7 19 21)(font "Courier New" (bold))(invisible))
		(line (pt 0 16)(pt 14 16))
	)
	(port
		(pt 0 32)
		(input)
		(text "IN2" (rect 2 23 19 37)(font "Courier New" (bold))(invisible))
		(text "IN2" (rect 2 23 19 37)(font "Courier New" (bold))(invisible))
		(line (pt 0 32)(pt 14 32))
	)
	(port
		(pt 64 24)
		(output)
		(text "OUT" (rect 48 15 65 29)(font "Courier New" (bold))(invisible))
		(text "OUT" (rect 48 15 65 29)(font "Courier New" (bold))(invisible))
		(line (pt 42 24)(pt 64 24))
	)
	(drawing
		(line (pt 14 12)(pt 30 12))
		(line (pt 14 37)(pt 31 37))
		(line (pt 14 12)(pt 14 37))
		(arc (pt 31 37)(pt 30 12)(rect 18 12 43 37))
	)
)
(symbol
	(rect 1024 848 1088 896)
	(text "AND2" (rect 1 0 34 11)(font "Arial" (font_size 6)))
	(text "inst11" (rect 3 37 52 51)(font "Arial" ))
	(port
		(pt 0 16)
		(input)
		(text "IN1" (rect 2 7 19 21)(font "Courier New" (bold))(invisible))
		(text "IN1" (rect 2 7 19 21)(font "Courier New" (bold))(invisible))
		(line (pt 0 16)(pt 14 16))
	)
	(port
		(pt 0 32)
		(input)
		(text "IN2" (rect 2 23 19 37)(font "Courier New" (bold))(invisible))
		(text "IN2" (rect 2 23 19 37)(font "Courier New" (bold))(invisible))
		(line (pt 0 32)(pt 14 32))
	)
	(port
		(pt 64 24)
		(output)
		(text "OUT" (rect 48 15 65 29)(font "Courier New" (bold))(invisible))
		(text "OUT" (rect 48 15 65 29)(font "Courier New" (bold))(invisible))
		(line (pt 42 24)(pt 64 24))
	)
	(drawing
		(line (pt 14 12)(pt 30 12))
		(line (pt 14 37)(pt 31 37))
		(line (pt 14 12)(pt 14 37))
		(arc (pt 31 37)(pt 30 12)(rect 18 12 43 37))
	)
)
(symbol
	(rect 1024 936 1088 984)
	(text "AND2" (rect 1 0 34 11)(font "Arial" (font_size 6)))
	(text "inst12" (rect 3 37 52 51)(font "Arial" ))
	(port
		(pt 0 16)
		(input)
		(text "IN1" (rect 2 7 19 21)(font "Courier New" (bold))(invisible))
		(text "IN1" (rect 2 7 19 21)(font "Courier New" (bold))(invisible))
		(line (pt 0 16)(pt 14 16))
	)
	(port
		(pt 0 32)
		(input)
		(text "IN2" (rect 2 23 19 37)(font "Courier New" (bold))(invisible))
		(text "IN2" (rect 2 23 19 37)(font "Courier New" (bold))(invisible))
		(line (pt 0 32)(pt 14 32))
	)
	(port
		(pt 64 24)
		(output)
		(text "OUT" (rect 48 15 65 29)(font "Courier New" (bold))(invisible))
		(text "OUT" (rect 48 15 65 29)(font "Courier New" (bold))(invisible))
		(line (pt 42 24)(pt 64 24))
	)
	(drawing
		(line (pt 14 12)(pt 30 12))
		(line (pt 14 37)(pt 31 37))
		(line (pt 14 12)(pt 14 37))
		(arc (pt 31 37)(pt 30 12)(rect 18 12 43 37))
	)
)
(symbol
	(rect 1208 48 1272 256)
	(text "OR12" (rect 1 0 34 11)(font "Arial" (font_size 6)))
	(text "inst15" (rect 3 197 52 211)(font "Arial" ))
	(port
		(pt 0 48)
		(input)
		(text "IN3" (rect 2 39 19 53)(font "Courier New" (bold))(invisible))
		(text "IN3" (rect 2 39 19 53)(font "Courier New" (bold))(invisible))
		(line (pt 0 48)(pt 13 48))
	)
	(port
		(pt 0 32)
		(input)
		(text "IN2" (rect 2 23 19 37)(font "Courier New" (bold))(invisible))
		(text "IN2" (rect 2 23 19 37)(font "Courier New" (bold))(invisible))
		(line (pt 0 32)(pt 13 32))
	)
	(port
		(pt 0 16)
		(input)
		(text "IN1" (rect 2 7 19 21)(font "Courier New" (bold))(invisible))
		(text "IN1" (rect 2 7 19 21)(font "Courier New" (bold))(invisible))
		(line (pt 0 16)(pt 13 16))
	)
	(port
		(pt 0 96)
		(input)
		(text "IN6" (rect 2 87 19 101)(font "Courier New" (bold))(invisible))
		(text "IN6" (rect 2 87 19 101)(font "Courier New" (bold))(invisible))
		(line (pt 0 96)(pt 15 96))
	)
	(port
		(pt 0 80)
		(input)
		(text "IN5" (rect 2 71 19 85)(font "Courier New" (bold))(invisible))
		(text "IN5" (rect 2 71 19 85)(font "Courier New" (bold))(invisible))
		(line (pt 0 80)(pt 13 80))
	)
	(port
		(pt 0 64)
		(input)
		(text "IN4" (rect 2 55 19 69)(font "Courier New" (bold))(invisible))
		(text "IN4" (rect 2 55 19 69)(font "Courier New" (bold))(invisible))
		(line (pt 0 64)(pt 13 64))
	)
	(port
		(pt 0 128)
		(input)
		(text "IN8" (rect 2 119 19 133)(font "Courier New" (bold))(invisible))
		(text "IN8" (rect 2 119 19 133)(font "Courier New" (bold))(invisible))
		(line (pt 0 128)(pt 13 128))
	)
	(port
		(pt 0 112)
		(input)
		(text "IN7" (rect 2 103 19 117)(font "Courier New" (bold))(invisible))
		(text "IN7" (rect 2 103 19 117)(font "Courier New" (bold))(invisible))
		(line (pt 0 112)(pt 15 112))
	)
	(port
		(pt 0 144)
		(input)
		(text "IN9" (rect 2 135 19 149)(font "Courier New" (bold))(invisible))
		(text "IN9" (rect 2 135 19 149)(font "Courier New" (bold))(invisible))
		(line (pt 0 144)(pt 13 144))
	)
	(port
		(pt 0 176)
		(input)
		(text "IN11" (rect 2 167 25 181)(font "Courier New" (bold))(invisible))
		(text "IN11" (rect 2 167 25 181)(font "Courier New" (bold))(invisible))
		(line (pt 0 176)(pt 13 176))
	)
	(port
		(pt 0 160)
		(input)
		(text "IN10" (rect 2 151 25 165)(font "Courier New" (bold))(invisible))
		(text "IN10" (rect 2 151 25 165)(font "Courier New" (bold))(invisible))
		(line (pt 0 160)(pt 13 160))
	)
	(port
		(pt 0 192)
		(input)
		(text "IN12" (rect 2 183 25 197)(font "Courier New" (bold))(invisible))
		(text "IN12" (rect 2 183 25 197)(font "Courier New" (bold))(invisible))
		(line (pt 0 192)(pt 13 192))
	)
	(port
		(pt 64 104)
		(output)
		(text "OUT" (rect 48 95 65 109)(font "Courier New" (bold))(invisible))
		(text "OUT" (rect 48 95 65 109)(font "Courier New" (bold))(invisible))
		(line (pt 48 104)(pt 64 104))
	)
	(drawing
		(line (pt 14 93)(pt 25 93))
		(line (pt 14 116)(pt 25 116))
		(line (pt 13 93)(pt 13 13))
		(line (pt 13 195)(pt 13 115))
		(arc (pt 7 109)(pt 7 99)(rect -14 88 19 121))
		(arc (pt 49 104)(pt 25 93)(rect -6 93 57 156))
		(arc (pt 25 115)(pt 49 104)(rect -6 53 57 116))
	)
)
(symbol
	(rect 520 32 648 416)
	(text "Decoder5_1" (rect 20 0 149 18)(font "Arial" (font_size 10)))
	(text "inst" (rect 8 366 41 380)(font "Arial" ))
	(port
		(pt 0 192)
		(input)
		(text "data[4..0]" (rect 0 0 94 16)(font "Arial" (font_size 8)))
		(text "data[4..0]" (rect 20 184 114 200)(font "Arial" (font_size 8)))
		(line (pt 0 192)(pt 16 192)(line_width 3))
	)
	(port
		(pt 128 32)
		(output)
		(text "eq0" (rect 0 0 28 16)(font "Arial" (font_size 8)))
		(text "eq0" (rect 88 24 116 40)(font "Arial" (font_size 8)))
		(line (pt 128 32)(pt 112 32))
	)
	(port
		(pt 128 48)
		(output)
		(text "eq1" (rect 0 0 28 16)(font "Arial" (font_size 8)))
		(text "eq1" (rect 88 40 116 56)(font "Arial" (font_size 8)))
		(line (pt 128 48)(pt 112 48))
	)
	(port
		(pt 128 64)
		(output)
		(text "eq2" (rect 0 0 28 16)(font "Arial" (font_size 8)))
		(text "eq2" (rect 88 56 116 72)(font "Arial" (font_size 8)))
		(line (pt 128 64)(pt 112 64))
	)
	(port
		(pt 128 80)
		(output)
		(text "eq3" (rect 0 0 28 16)(font "Arial" (font_size 8)))
		(text "eq3" (rect 88 72 116 88)(font "Arial" (font_size 8)))
		(line (pt 128 80)(pt 112 80))
	)
	(port
		(pt 128 96)
		(output)
		(text "eq4" (rect 0 0 28 16)(font "Arial" (font_size 8)))
		(text "eq4" (rect 88 88 116 104)(font "Arial" (font_size 8)))
		(line (pt 128 96)(pt 112 96))
	)
	(port
		(pt 128 112)
		(output)
		(text "eq5" (rect 0 0 28 16)(font "Arial" (font_size 8)))
		(text "eq5" (rect 88 104 116 120)(font "Arial" (font_size 8)))
		(line (pt 128 112)(pt 112 112))
	)
	(port
		(pt 128 128)
		(output)
		(text "eq6" (rect 0 0 28 16)(font "Arial" (font_size 8)))
		(text "eq6" (rect 88 120 116 136)(font "Arial" (font_size 8)))
		(line (pt 128 128)(pt 112 128))
	)
	(port
		(pt 128 144)
		(output)
		(text "eq7" (rect 0 0 28 16)(font "Arial" (font_size 8)))
		(text "eq7" (rect 88 136 116 152)(font "Arial" (font_size 8)))
		(line (pt 128 144)(pt 112 144))
	)
	(port
		(pt 128 160)
		(output)
		(text "eq8" (rect 0 0 28 16)(font "Arial" (font_size 8)))
		(text "eq8" (rect 88 152 116 168)(font "Arial" (font_size 8)))
		(line (pt 128 160)(pt 112 160))
	)
	(port
		(pt 128 176)
		(output)
		(text "eq9" (rect 0 0 28 16)(font "Arial" (font_size 8)))
		(text "eq9" (rect 88 168 116 184)(font "Arial" (font_size 8)))
		(line (pt 128 176)(pt 112 176))
	)
	(port
		(pt 128 192)
		(output)
		(text "eq10" (rect 0 0 37 16)(font "Arial" (font_size 8)))
		(text "eq10" (rect 81 184 118 200)(font "Arial" (font_size 8)))
		(line (pt 128 192)(pt 112 192))
	)
	(port
		(pt 128 208)
		(output)
		(text "eq11" (rect 0 0 37 16)(font "Arial" (font_size 8)))
		(text "eq11" (rect 82 200 119 216)(font "Arial" (font_size 8)))
		(line (pt 128 208)(pt 112 208))
	)
	(port
		(pt 128 224)
		(output)
		(text "eq12" (rect 0 0 37 16)(font "Arial" (font_size 8)))
		(text "eq12" (rect 81 216 118 232)(font "Arial" (font_size 8)))
		(line (pt 128 224)(pt 112 224))
	)
	(port
		(pt 128 240)
		(output)
		(text "eq13" (rect 0 0 37 16)(font "Arial" (font_size 8)))
		(text "eq13" (rect 81 232 118 248)(font "Arial" (font_size 8)))
		(line (pt 128 240)(pt 112 240))
	)
	(port
		(pt 128 256)
		(output)
		(text "eq14" (rect 0 0 37 16)(font "Arial" (font_size 8)))
		(text "eq14" (rect 81 248 118 264)(font "Arial" (font_size 8)))
		(line (pt 128 256)(pt 112 256))
	)
	(port
		(pt 128 272)
		(output)
		(text "eq15" (rect 0 0 37 16)(font "Arial" (font_size 8)))
		(text "eq15" (rect 81 264 118 280)(font "Arial" (font_size 8)))
		(line (pt 128 272)(pt 112 272))
	)
	(port
		(pt 128 288)
		(output)
		(text "eq16" (rect 0 0 37 16)(font "Arial" (font_size 8)))
		(text "eq16" (rect 81 280 118 296)(font "Arial" (font_size 8)))
		(line (pt 128 288)(pt 112 288))
	)
	(port
		(pt 128 304)
		(output)
		(text "eq17" (rect 0 0 37 16)(font "Arial" (font_size 8)))
		(text "eq17" (rect 81 296 118 312)(font "Arial" (font_size 8)))
		(line (pt 128 304)(pt 112 304))
	)
	(port
		(pt 128 320)
		(output)
		(text "eq18" (rect 0 0 37 16)(font "Arial" (font_size 8)))
		(text "eq18" (rect 81 312 118 328)(font "Arial" (font_size 8)))
		(line (pt 128 320)(pt 112 320))
	)
	(port
		(pt 128 336)
		(output)
		(text "eq19" (rect 0 0 37 16)(font "Arial" (font_size 8)))
		(text "eq19" (rect 81 328 118 344)(font "Arial" (font_size 8)))
		(line (pt 128 336)(pt 112 336))
	)
	(port
		(pt 128 352)
		(output)
		(text "eq20" (rect 0 0 37 16)(font "Arial" (font_size 8)))
		(text "eq20" (rect 81 344 118 360)(font "Arial" (font_size 8)))
		(line (pt 128 352)(pt 112 352))
	)
	(drawing
		(line (pt 16 16)(pt 16 368))
		(line (pt 16 16)(pt 112 16))
		(line (pt 16 368)(pt 112 368))
		(line (pt 112 16)(pt 112 368))
		(line (pt 0 0)(pt 130 0))
		(line (pt 130 0)(pt 130 386))
		(line (pt 0 386)(pt 130 386))
		(line (pt 0 0)(pt 0 386))
		(line (pt 0 0)(pt 0 0))
		(line (pt 0 0)(pt 0 0))
		(line (pt 0 0)(pt 0 0))
		(line (pt 0 0)(pt 0 0))
	)
)
(symbol
	(rect 1312 352 1376 400)
	(text "AND2" (rect 1 0 34 11)(font "Arial" (font_size 6)))
	(text "inst16" (rect 3 37 52 51)(font "Arial" ))
	(port
		(pt 0 16)
		(input)
		(text "IN1" (rect 2 7 19 21)(font "Courier New" (bold))(invisible))
		(text "IN1" (rect 2 7 19 21)(font "Courier New" (bold))(invisible))
		(line (pt 0 16)(pt 14 16))
	)
	(port
		(pt 0 32)
		(input)
		(text "IN2" (rect 2 23 19 37)(font "Courier New" (bold))(invisible))
		(text "IN2" (rect 2 23 19 37)(font "Courier New" (bold))(invisible))
		(line (pt 0 32)(pt 14 32))
	)
	(port
		(pt 64 24)
		(output)
		(text "OUT" (rect 48 15 65 29)(font "Courier New" (bold))(invisible))
		(text "OUT" (rect 48 15 65 29)(font "Courier New" (bold))(invisible))
		(line (pt 42 24)(pt 64 24))
	)
	(drawing
		(line (pt 14 12)(pt 30 12))
		(line (pt 14 37)(pt 31 37))
		(line (pt 14 12)(pt 14 37))
		(arc (pt 31 37)(pt 30 12)(rect 18 12 43 37))
	)
)
(connector
	(text "VCC" (rect 328 371 342 395)(font "Arial" )(vertical))
	(pt 344 360)
	(pt 344 408)
)
(connector
	(text "GND" (rect 384 363 398 387)(font "Arial" )(vertical))
	(pt 400 400)
	(pt 400 352)
)
(connector
	(text "ready" (rect 352 56 393 70)(font "Arial" ))
	(pt 344 72)
	(pt 392 72)
)
(connector
	(text "strt" (rect 361 80 394 94)(font "Arial" ))
	(pt 344 96)
	(pt 384 96)
)
(connector
	(pt 1200 240)
	(pt 1208 240)
)
(connector
	(pt 1088 64)
	(pt 1208 64)
)
(connector
	(pt 1104 80)
	(pt 1208 80)
)
(connector
	(pt 1128 128)
	(pt 1208 128)
)
(connector
	(pt 1120 112)
	(pt 1208 112)
)
(connector
	(pt 1112 96)
	(pt 1208 96)
)
(connector
	(pt 1144 160)
	(pt 1208 160)
)
(connector
	(pt 1136 144)
	(pt 1208 144)
)
(connector
	(pt 1152 176)
	(pt 1208 176)
)
(connector
	(pt 1168 208)
	(pt 1208 208)
)
(connector
	(pt 1160 192)
	(pt 1208 192)
)
(connector
	(pt 1176 224)
	(pt 1208 224)
)
(connector
	(pt 1104 80)
	(pt 1104 160)
)
(connector
	(pt 1088 160)
	(pt 1104 160)
)
(connector
	(pt 1112 96)
	(pt 1112 256)
)
(connector
	(pt 1112 256)
	(pt 1088 256)
)
(connector
	(pt 1120 112)
	(pt 1120 344)
)
(connector
	(pt 1088 344)
	(pt 1120 344)
)
(connector
	(pt 1128 432)
	(pt 1088 432)
)
(connector
	(pt 1128 128)
	(pt 1128 432)
)
(connector
	(pt 1136 144)
	(pt 1136 536)
)
(connector
	(pt 1088 536)
	(pt 1136 536)
)
(connector
	(pt 1144 160)
	(pt 1144 624)
)
(connector
	(pt 1160 192)
	(pt 1160 784)
)
(connector
	(pt 1168 208)
	(pt 1168 872)
)
(connector
	(pt 1176 224)
	(pt 1176 960)
)
(connector
	(pt 1088 624)
	(pt 1144 624)
)
(connector
	(pt 1088 704)
	(pt 1152 704)
)
(connector
	(pt 1088 784)
	(pt 1160 784)
)
(connector
	(pt 1088 872)
	(pt 1168 872)
)
(connector
	(pt 1088 960)
	(pt 1176 960)
)
(connector
	(pt 1024 72)
	(pt 1016 72)
)
(connector
	(pt 1016 104)
	(pt 1016 72)
)
(connector
	(text "cmnd[0]" (rect 1036 88 1093 102)(font "Arial" ))
	(pt 1016 104)
	(pt 1080 104)
)
(connector
	(pt 1024 168)
	(pt 1016 168)
)
(connector
	(pt 1016 200)
	(pt 1016 168)
)
(connector
	(pt 1024 264)
	(pt 1016 264)
)
(connector
	(pt 1016 296)
	(pt 1016 264)
)
(connector
	(pt 1024 352)
	(pt 1016 352)
)
(connector
	(pt 1016 384)
	(pt 1016 352)
)
(connector
	(pt 1024 440)
	(pt 1016 440)
)
(connector
	(pt 1016 472)
	(pt 1016 440)
)
(connector
	(pt 1024 544)
	(pt 1016 544)
)
(connector
	(pt 1016 576)
	(pt 1016 544)
)
(connector
	(pt 1024 632)
	(pt 1016 632)
)
(connector
	(pt 1016 664)
	(pt 1016 632)
)
(connector
	(pt 1024 712)
	(pt 1016 712)
)
(connector
	(pt 1016 744)
	(pt 1016 712)
)
(connector
	(pt 1024 880)
	(pt 1016 880)
)
(connector
	(pt 1016 912)
	(pt 1016 880)
)
(connector
	(pt 1024 968)
	(pt 1016 968)
)
(connector
	(pt 1016 1000)
	(pt 1016 968)
)
(connector
	(text "cmnd[1]" (rect 1036 184 1093 198)(font "Arial" ))
	(pt 1016 200)
	(pt 1080 200)
)
(connector
	(text "cmnd[2]" (rect 1036 280 1093 294)(font "Arial" ))
	(pt 1016 296)
	(pt 1080 296)
)
(connector
	(text "cmnd[4]" (rect 1036 456 1093 470)(font "Arial" ))
	(pt 1016 472)
	(pt 1080 472)
)
(connector
	(text "cmnd[5]" (rect 1036 560 1093 574)(font "Arial" ))
	(pt 1016 576)
	(pt 1080 576)
)
(connector
	(text "cmnd[6]" (rect 1036 648 1093 662)(font "Arial" ))
	(pt 1016 664)
	(pt 1080 664)
)
(connector
	(text "cmnd[7]" (rect 1036 728 1093 742)(font "Arial" ))
	(pt 1016 744)
	(pt 1080 744)
)
(connector
	(pt 1024 792)
	(pt 1016 792)
)
(connector
	(pt 1016 824)
	(pt 1016 792)
)
(connector
	(text "cmnd[8]" (rect 1036 808 1093 822)(font "Arial" ))
	(pt 1016 824)
	(pt 1080 824)
)
(connector
	(text "cmnd[9]" (rect 1036 896 1093 910)(font "Arial" ))
	(pt 1016 912)
	(pt 1080 912)
)
(connector
	(text "cmnd[10]" (rect 1036 984 1102 998)(font "Arial" ))
	(pt 1016 1000)
	(pt 1080 1000)
)
(connector
	(pt 1432 264)
	(pt 1432 376)
)
(connector
	(text "GND" (rect 976 848 1000 862)(font "Arial" ))
	(pt 1024 864)
	(pt 968 864)
)
(connector
	(text "GND" (rect 976 936 1000 950)(font "Arial" ))
	(pt 1024 952)
	(pt 968 952)
)
(connector
	(text "cmnd[10..0]" (rect 356 104 446 118)(font "Arial" ))
	(pt 344 120)
	(pt 384 120)
	(bus)
)
(connector
	(pt 1200 240)
	(pt 1200 264)
)
(connector
	(text "Cntr[4..0]" (rect 342 208 424 222)(font "Arial" ))
	(pt 304 224)
	(pt 520 224)
	(bus)
)
(connector
	(text "T0" (rect 656 48 672 62)(font "Arial" ))
	(pt 648 64)
	(pt 696 64)
)
(connector
	(text "T1" (rect 656 64 672 78)(font "Arial" ))
	(pt 648 80)
	(pt 696 80)
)
(connector
	(text "T2" (rect 656 80 672 94)(font "Arial" ))
	(pt 648 96)
	(pt 696 96)
)
(connector
	(text "T3" (rect 657 96 673 110)(font "Arial" ))
	(pt 648 112)
	(pt 696 112)
)
(connector
	(text "T4" (rect 656 112 672 126)(font "Arial" ))
	(pt 648 128)
	(pt 696 128)
)
(connector
	(text "T5" (rect 656 128 672 142)(font "Arial" ))
	(pt 648 144)
	(pt 696 144)
)
(connector
	(text "T6" (rect 656 144 672 158)(font "Arial" ))
	(pt 648 160)
	(pt 696 160)
)
(connector
	(text "T7" (rect 657 160 673 174)(font "Arial" ))
	(pt 648 176)
	(pt 696 176)
)
(connector
	(text "T8" (rect 656 176 672 190)(font "Arial" ))
	(pt 648 192)
	(pt 696 192)
)
(connector
	(text "T9" (rect 656 192 672 206)(font "Arial" ))
	(pt 648 208)
	(pt 696 208)
)
(connector
	(text "T10" (rect 656 208 680 222)(font "Arial" ))
	(pt 648 224)
	(pt 696 224)
)
(connector
	(text "T11" (rect 657 224 681 238)(font "Arial" ))
	(pt 648 240)
	(pt 696 240)
)
(connector
	(text "T12" (rect 656 240 680 254)(font "Arial" ))
	(pt 648 256)
	(pt 696 256)
)
(connector
	(text "T13" (rect 656 256 680 270)(font "Arial" ))
	(pt 648 272)
	(pt 696 272)
)
(connector
	(text "T14" (rect 656 272 680 286)(font "Arial" ))
	(pt 648 288)
	(pt 696 288)
)
(connector
	(text "T15" (rect 657 288 681 302)(font "Arial" ))
	(pt 648 304)
	(pt 696 304)
)
(connector
	(text "T16" (rect 657 304 681 318)(font "Arial" ))
	(pt 648 320)
	(pt 696 320)
)
(connector
	(text "T17" (rect 656 320 680 334)(font "Arial" ))
	(pt 648 336)
	(pt 696 336)
)
(connector
	(text "T18" (rect 656 336 680 350)(font "Arial" ))
	(pt 648 352)
	(pt 696 352)
)
(connector
	(text "T19" (rect 656 352 680 366)(font "Arial" ))
	(pt 648 368)
	(pt 696 368)
)
(connector
	(text "T20" (rect 657 368 681 382)(font "Arial" ))
	(pt 648 384)
	(pt 696 384)
)
(connector
	(text "GND" (rect 976 680 1000 694)(font "Arial" ))
	(pt 1024 696)
	(pt 968 696)
)
(connector
	(text "GND" (rect 976 760 1000 774)(font "Arial" ))
	(pt 1024 776)
	(pt 968 776)
)
(connector
	(text "GND" (rect 976 512 1000 526)(font "Arial" ))
	(pt 1024 528)
	(pt 968 528)
)
(connector
	(text "GND" (rect 976 600 1000 614)(font "Arial" ))
	(pt 1024 616)
	(pt 968 616)
)
(connector
	(text "GND" (rect 976 320 1000 334)(font "Arial" ))
	(pt 1024 336)
	(pt 968 336)
)
(connector
	(text "GND" (rect 976 408 1000 422)(font "Arial" ))
	(pt 1024 424)
	(pt 968 424)
)
(connector
	(text "GND" (rect 976 232 1000 246)(font "Arial" ))
	(pt 1024 248)
	(pt 968 248)
)
(connector
	(text "GND" (rect 976 136 1000 150)(font "Arial" ))
	(pt 1024 152)
	(pt 968 152)
)
(connector
	(text "GND" (rect 976 40 1000 54)(font "Arial" ))
	(pt 1024 56)
	(pt 968 56)
)
(connector
	(pt 1152 176)
	(pt 1152 704)
)
(connector
	(pt 1200 264)
	(pt 1432 264)
)
(connector
	(text "cmnd[3]" (rect 1036 368 1093 382)(font "Arial" ))
	(pt 1016 384)
	(pt 1080 384)
)
(connector
	(text "<<__$DEF_ALIAS1658>>" (rect 1382 360 1547 374)(font "Arial" )(invisible))
	(pt 1376 376)
	(pt 1432 376)
)
(connector
	(pt 1240 384)
	(pt 1240 376)
)
(connector
	(text "T2" (rect 1256 352 1272 366)(font "Arial" ))
	(pt 1312 368)
	(pt 1248 368)
)
(connector
	(text "ready" (rect 1248 368 1289 382)(font "Arial" ))
	(pt 1312 384)
	(pt 1240 384)
)
(connector
	(pt 1360 152)
	(pt 1272 152)
)
