/*
WARNING: Do NOT edit the input and output ports in this file in a text
editor if you plan to continue editing the block that represents it in
the Block Editor! File corruption is VERY likely to occur.
*/
/*
Copyright (C) 1991-2015 Altera Corporation. All rights reserved.
Your use of Altera Corporation's design tools, logic functions 
and other software and tools, and its AMPP partner logic 
functions, and any output files from any of the foregoing 
(including device programming or simulation files), and any 
associated documentation or information are expressly subject 
to the terms and conditions of the Altera Program License 
Subscription Agreement, the Altera Quartus Prime License Agreement,
the Altera MegaCore Function License Agreement, or other 
applicable license agreement, including, without limitation, 
that your use is for the sole purpose of programming logic 
devices manufactured by Altera and sold by Altera or its 
authorized distributors.  Please refer to the applicable 
agreement for further details.
*/
(header "graphic" (version "1.4"))
(pin
	(input)
	(rect 200 -104 376 -88)
	(text "INPUT" (rect 133 0 174 11)(font "Arial" (font_size 6)))
	(text "CLK" (rect 9 0 33 14)(font "Arial" ))
	(pt 176 8)
	(drawing
		(line (pt 92 12)(pt 117 12))
		(line (pt 92 4)(pt 117 4))
		(line (pt 121 8)(pt 176 8))
		(line (pt 92 12)(pt 92 4))
		(line (pt 117 4)(pt 121 8))
		(line (pt 117 12)(pt 121 8))
	)
	(text "VCC" (rect 136 7 160 18)(font "Arial" (font_size 6)))
)
(pin
	(input)
	(rect 200 -80 376 -64)
	(text "INPUT" (rect 133 0 174 11)(font "Arial" (font_size 6)))
	(text "reset" (rect 9 0 50 14)(font "Arial" ))
	(pt 176 8)
	(drawing
		(line (pt 92 12)(pt 117 12))
		(line (pt 92 4)(pt 117 4))
		(line (pt 121 8)(pt 176 8))
		(line (pt 92 12)(pt 92 4))
		(line (pt 117 4)(pt 121 8))
		(line (pt 117 12)(pt 121 8))
	)
	(text "VCC" (rect 136 7 160 18)(font "Arial" (font_size 6)))
)
(pin
	(input)
	(rect 592 928 856 944)
	(text "INPUT" (rect 221 0 262 11)(font "Arial" (font_size 6)))
	(text "Address_test2[31..0]" (rect 5 0 170 14)(font "Arial" ))
	(pt 264 8)
	(drawing
		(line (pt 180 12)(pt 205 12))
		(line (pt 180 4)(pt 205 4))
		(line (pt 209 8)(pt 264 8))
		(line (pt 180 12)(pt 180 4))
		(line (pt 205 4)(pt 209 8))
		(line (pt 205 12)(pt 209 8))
	)
	(text "VCC" (rect 224 7 248 18)(font "Arial" (font_size 6)))
)
(pin
	(input)
	(rect 584 896 848 912)
	(text "INPUT" (rect 221 0 262 11)(font "Arial" (font_size 6)))
	(text "Address_test1[31..0]" (rect 5 0 170 14)(font "Arial" ))
	(pt 264 8)
	(drawing
		(line (pt 180 12)(pt 205 12))
		(line (pt 180 4)(pt 205 4))
		(line (pt 209 8)(pt 264 8))
		(line (pt 180 12)(pt 180 4))
		(line (pt 205 4)(pt 209 8))
		(line (pt 205 12)(pt 209 8))
	)
	(text "VCC" (rect 224 7 248 18)(font "Arial" (font_size 6)))
)
(pin
	(output)
	(rect 1224 840 1400 856)
	(text "OUTPUT" (rect 1 0 50 11)(font "Arial" (font_size 6)))
	(text "data_test1[31..0]" (rect 90 0 230 14)(font "Arial" ))
	(pt 0 8)
	(drawing
		(line (pt 0 8)(pt 52 8))
		(line (pt 52 4)(pt 78 4))
		(line (pt 52 12)(pt 78 12))
		(line (pt 52 12)(pt 52 4))
		(line (pt 78 4)(pt 82 8))
		(line (pt 82 8)(pt 78 12))
		(line (pt 78 12)(pt 82 8))
	)
)
(pin
	(output)
	(rect 1480 120 1656 136)
	(text "OUTPUT" (rect 1 0 50 11)(font "Arial" (font_size 6)))
	(text "spp[31..0]" (rect 90 0 172 14)(font "Arial" ))
	(pt 0 8)
	(drawing
		(line (pt 0 8)(pt 52 8))
		(line (pt 52 4)(pt 78 4))
		(line (pt 52 12)(pt 78 12))
		(line (pt 52 12)(pt 52 4))
		(line (pt 78 4)(pt 82 8))
		(line (pt 82 8)(pt 78 12))
		(line (pt 78 12)(pt 82 8))
	)
)
(pin
	(output)
	(rect 584 624 760 640)
	(text "OUTPUT" (rect 1 0 50 11)(font "Arial" (font_size 6)))
	(text "TS0" (rect 90 0 114 14)(font "Arial" ))
	(pt 0 8)
	(drawing
		(line (pt 0 8)(pt 52 8))
		(line (pt 52 4)(pt 78 4))
		(line (pt 52 12)(pt 78 12))
		(line (pt 52 12)(pt 52 4))
		(line (pt 78 4)(pt 82 8))
		(line (pt 82 8)(pt 78 12))
		(line (pt 78 12)(pt 82 8))
	)
)
(pin
	(output)
	(rect 584 640 760 656)
	(text "OUTPUT" (rect 1 0 50 11)(font "Arial" (font_size 6)))
	(text "TS1" (rect 90 0 114 14)(font "Arial" ))
	(pt 0 8)
	(drawing
		(line (pt 0 8)(pt 52 8))
		(line (pt 52 4)(pt 78 4))
		(line (pt 52 12)(pt 78 12))
		(line (pt 52 12)(pt 52 4))
		(line (pt 78 4)(pt 82 8))
		(line (pt 82 8)(pt 78 12))
		(line (pt 78 12)(pt 82 8))
	)
)
(pin
	(output)
	(rect 1672 360 1848 376)
	(text "OUTPUT" (rect 1 0 50 11)(font "Arial" (font_size 6)))
	(text "cinc" (rect 90 0 123 14)(font "Arial" ))
	(pt 0 8)
	(drawing
		(line (pt 0 8)(pt 52 8))
		(line (pt 52 4)(pt 78 4))
		(line (pt 52 12)(pt 78 12))
		(line (pt 52 12)(pt 52 4))
		(line (pt 78 4)(pt 82 8))
		(line (pt 82 8)(pt 78 12))
		(line (pt 78 12)(pt 82 8))
	)
)
(pin
	(output)
	(rect 584 672 760 688)
	(text "OUTPUT" (rect 1 0 50 11)(font "Arial" (font_size 6)))
	(text "IR[7..0]" (rect 90 0 156 14)(font "Arial" ))
	(pt 0 8)
	(drawing
		(line (pt 0 8)(pt 52 8))
		(line (pt 52 4)(pt 78 4))
		(line (pt 52 12)(pt 78 12))
		(line (pt 52 12)(pt 52 4))
		(line (pt 78 4)(pt 82 8))
		(line (pt 82 8)(pt 78 12))
		(line (pt 78 12)(pt 82 8))
	)
)
(pin
	(output)
	(rect 1432 56 1608 72)
	(text "OUTPUT" (rect 1 0 50 11)(font "Arial" (font_size 6)))
	(text "I_out[7..0]" (rect 90 0 180 14)(font "Arial" ))
	(pt 0 8)
	(drawing
		(line (pt 0 8)(pt 52 8))
		(line (pt 52 4)(pt 78 4))
		(line (pt 52 12)(pt 78 12))
		(line (pt 52 12)(pt 52 4))
		(line (pt 78 4)(pt 82 8))
		(line (pt 82 8)(pt 78 12))
		(line (pt 78 12)(pt 82 8))
	)
)
(pin
	(output)
	(rect 1352 352 1528 368)
	(text "OUTPUT" (rect 1 0 50 11)(font "Arial" (font_size 6)))
	(text "start" (rect 90 0 131 14)(font "Arial" ))
	(pt 0 8)
	(drawing
		(line (pt 0 8)(pt 52 8))
		(line (pt 52 4)(pt 78 4))
		(line (pt 52 12)(pt 78 12))
		(line (pt 52 12)(pt 52 4))
		(line (pt 78 4)(pt 82 8))
		(line (pt 82 8)(pt 78 12))
		(line (pt 78 12)(pt 82 8))
	)
)
(pin
	(output)
	(rect 1384 384 1560 400)
	(text "OUTPUT" (rect 1 0 50 11)(font "Arial" (font_size 6)))
	(text "rawantadan" (rect 90 0 172 14)(font "Arial" ))
	(pt 0 8)
	(drawing
		(line (pt 0 8)(pt 52 8))
		(line (pt 52 4)(pt 78 4))
		(line (pt 52 12)(pt 78 12))
		(line (pt 52 12)(pt 52 4))
		(line (pt 78 4)(pt 82 8))
		(line (pt 82 8)(pt 78 12))
		(line (pt 78 12)(pt 82 8))
	)
)
(pin
	(output)
	(rect 1216 808 1392 824)
	(text "OUTPUT" (rect 1 0 50 11)(font "Arial" (font_size 6)))
	(text "Mem_out[31..0]" (rect 90 0 205 14)(font "Arial" ))
	(pt 0 8)
	(drawing
		(line (pt 0 8)(pt 52 8))
		(line (pt 52 4)(pt 78 4))
		(line (pt 52 12)(pt 78 12))
		(line (pt 52 12)(pt 52 4))
		(line (pt 78 4)(pt 82 8))
		(line (pt 82 8)(pt 78 12))
		(line (pt 78 12)(pt 82 8))
	)
)
(pin
	(output)
	(rect 1192 824 1368 840)
	(text "OUTPUT" (rect 1 0 50 11)(font "Arial" (font_size 6)))
	(text "ready" (rect 90 0 131 14)(font "Arial" ))
	(pt 0 8)
	(drawing
		(line (pt 0 8)(pt 52 8))
		(line (pt 52 4)(pt 78 4))
		(line (pt 52 12)(pt 78 12))
		(line (pt 52 12)(pt 52 4))
		(line (pt 78 4)(pt 82 8))
		(line (pt 82 8)(pt 78 12))
		(line (pt 78 12)(pt 82 8))
	)
)
(pin
	(output)
	(rect 776 704 995 720)
	(text "OUTPUT" (rect 1 0 50 11)(font "Arial" (font_size 6)))
	(text "Busselect[2..0]" (rect 90 0 213 14)(font "Arial" ))
	(pt 0 8)
	(drawing
		(line (pt 0 8)(pt 52 8))
		(line (pt 52 4)(pt 78 4))
		(line (pt 52 12)(pt 78 12))
		(line (pt 52 12)(pt 52 4))
		(line (pt 78 4)(pt 82 8))
		(line (pt 82 8)(pt 78 12))
		(line (pt 78 12)(pt 82 8))
	)
)
(pin
	(output)
	(rect 584 656 762 672)
	(text "OUTPUT" (rect 1 0 50 11)(font "Arial" (font_size 6)))
	(text "Cntr[4..0]" (rect 90 0 172 14)(font "Arial" ))
	(pt 0 8)
	(drawing
		(line (pt 0 8)(pt 52 8))
		(line (pt 52 4)(pt 78 4))
		(line (pt 52 12)(pt 78 12))
		(line (pt 52 12)(pt 52 4))
		(line (pt 78 4)(pt 82 8))
		(line (pt 82 8)(pt 78 12))
		(line (pt 78 12)(pt 82 8))
	)
)
(pin
	(output)
	(rect 1208 856 1444 872)
	(text "OUTPUT" (rect 1 0 50 11)(font "Arial" (font_size 6)))
	(text "data_test2[31..0]" (rect 90 0 230 14)(font "Arial" ))
	(pt 0 8)
	(drawing
		(line (pt 0 8)(pt 52 8))
		(line (pt 52 4)(pt 78 4))
		(line (pt 52 12)(pt 78 12))
		(line (pt 52 12)(pt 52 4))
		(line (pt 78 4)(pt 82 8))
		(line (pt 82 8)(pt 78 12))
		(line (pt 78 12)(pt 82 8))
	)
)
(pin
	(output)
	(rect 1472 248 1716 264)
	(text "OUTPUT" (rect 1 0 50 11)(font "Arial" (font_size 6)))
	(text "Address_out[31..0]" (rect 90 0 238 14)(font "Arial" ))
	(pt 0 8)
	(drawing
		(line (pt 0 8)(pt 52 8))
		(line (pt 52 4)(pt 78 4))
		(line (pt 52 12)(pt 78 12))
		(line (pt 52 12)(pt 52 4))
		(line (pt 78 4)(pt 82 8))
		(line (pt 82 8)(pt 78 12))
		(line (pt 78 12)(pt 82 8))
	)
)
(pin
	(output)
	(rect 1376 280 1620 296)
	(text "OUTPUT" (rect 1 0 50 11)(font "Arial" (font_size 6)))
	(text "ALU_B_entry[31..0]" (rect 90 0 238 14)(font "Arial" ))
	(pt 0 8)
	(drawing
		(line (pt 0 8)(pt 52 8))
		(line (pt 52 4)(pt 78 4))
		(line (pt 52 12)(pt 78 12))
		(line (pt 52 12)(pt 52 4))
		(line (pt 78 4)(pt 82 8))
		(line (pt 82 8)(pt 78 12))
		(line (pt 78 12)(pt 82 8))
	)
)
(pin
	(output)
	(rect 1456 296 1667 312)
	(text "OUTPUT" (rect 1 0 50 11)(font "Arial" (font_size 6)))
	(text "ALU_out[31..0]" (rect 90 0 205 14)(font "Arial" ))
	(pt 0 8)
	(drawing
		(line (pt 0 8)(pt 52 8))
		(line (pt 52 4)(pt 78 4))
		(line (pt 52 12)(pt 78 12))
		(line (pt 52 12)(pt 52 4))
		(line (pt 78 4)(pt 82 8))
		(line (pt 82 8)(pt 78 12))
		(line (pt 78 12)(pt 82 8))
	)
)
(pin
	(output)
	(rect 1480 312 1683 328)
	(text "OUTPUT" (rect 1 0 50 11)(font "Arial" (font_size 6)))
	(text "AC_out[31..0]" (rect 90 0 197 14)(font "Arial" ))
	(pt 0 8)
	(drawing
		(line (pt 0 8)(pt 52 8))
		(line (pt 52 4)(pt 78 4))
		(line (pt 52 12)(pt 78 12))
		(line (pt 52 12)(pt 52 4))
		(line (pt 78 4)(pt 82 8))
		(line (pt 82 8)(pt 78 12))
		(line (pt 78 12)(pt 82 8))
	)
)
(pin
	(output)
	(rect 1512 264 1715 280)
	(text "OUTPUT" (rect 1 0 50 11)(font "Arial" (font_size 6)))
	(text "DR_out[31..0]" (rect 90 0 197 14)(font "Arial" ))
	(pt 0 8)
	(drawing
		(line (pt 0 8)(pt 52 8))
		(line (pt 52 4)(pt 78 4))
		(line (pt 52 12)(pt 78 12))
		(line (pt 52 12)(pt 52 4))
		(line (pt 78 4)(pt 82 8))
		(line (pt 82 8)(pt 78 12))
		(line (pt 78 12)(pt 82 8))
	)
)
(pin
	(output)
	(rect 1480 152 1656 168)
	(text "OUTPUT" (rect 1 0 50 11)(font "Arial" (font_size 6)))
	(text "lvv[31..0]" (rect 90 0 172 14)(font "Arial" ))
	(pt 0 8)
	(drawing
		(line (pt 0 8)(pt 52 8))
		(line (pt 52 4)(pt 78 4))
		(line (pt 52 12)(pt 78 12))
		(line (pt 52 12)(pt 52 4))
		(line (pt 78 4)(pt 82 8))
		(line (pt 82 8)(pt 78 12))
		(line (pt 78 12)(pt 82 8))
	)
)
(pin
	(output)
	(rect 1480 168 1656 184)
	(text "OUTPUT" (rect 1 0 50 11)(font "Arial" (font_size 6)))
	(text "pcc[31..0]" (rect 90 0 172 14)(font "Arial" ))
	(pt 0 8)
	(drawing
		(line (pt 0 8)(pt 52 8))
		(line (pt 52 4)(pt 78 4))
		(line (pt 52 12)(pt 78 12))
		(line (pt 52 12)(pt 52 4))
		(line (pt 78 4)(pt 82 8))
		(line (pt 82 8)(pt 78 12))
		(line (pt 78 12)(pt 82 8))
	)
)
(pin
	(output)
	(rect 1480 200 1656 216)
	(text "OUTPUT" (rect 1 0 50 11)(font "Arial" (font_size 6)))
	(text "cppp[31..0]" (rect 90 0 180 14)(font "Arial" ))
	(pt 0 8)
	(drawing
		(line (pt 0 8)(pt 52 8))
		(line (pt 52 4)(pt 78 4))
		(line (pt 52 12)(pt 78 12))
		(line (pt 52 12)(pt 52 4))
		(line (pt 78 4)(pt 82 8))
		(line (pt 82 8)(pt 78 12))
		(line (pt 78 12)(pt 82 8))
	)
)
(pin
	(output)
	(rect 1472 184 1648 200)
	(text "OUTPUT" (rect 1 0 50 11)(font "Arial" (font_size 6)))
	(text "Buss[31..0]" (rect 90 0 180 14)(font "Arial" ))
	(pt 0 8)
	(drawing
		(line (pt 0 8)(pt 52 8))
		(line (pt 52 4)(pt 78 4))
		(line (pt 52 12)(pt 78 12))
		(line (pt 52 12)(pt 52 4))
		(line (pt 78 4)(pt 82 8))
		(line (pt 82 8)(pt 78 12))
		(line (pt 78 12)(pt 82 8))
	)
)
(pin
	(output)
	(rect 1480 136 1683 152)
	(text "OUTPUT" (rect 1 0 50 11)(font "Arial" (font_size 6)))
	(text "TR_out[31..0]" (rect 90 0 197 14)(font "Arial" ))
	(pt 0 8)
	(drawing
		(line (pt 0 8)(pt 52 8))
		(line (pt 52 4)(pt 78 4))
		(line (pt 52 12)(pt 78 12))
		(line (pt 52 12)(pt 52 4))
		(line (pt 78 4)(pt 82 8))
		(line (pt 82 8)(pt 78 12))
		(line (pt 78 12)(pt 82 8))
	)
)
(pin
	(output)
	(rect 1464 424 1659 440)
	(text "OUTPUT" (rect 1 0 50 11)(font "Arial" (font_size 6)))
	(text "ERreg[31..0]" (rect 90 0 189 14)(font "Arial" ))
	(pt 0 8)
	(drawing
		(line (pt 0 8)(pt 52 8))
		(line (pt 52 4)(pt 78 4))
		(line (pt 52 12)(pt 78 12))
		(line (pt 52 12)(pt 52 4))
		(line (pt 78 4)(pt 82 8))
		(line (pt 82 8)(pt 78 12))
		(line (pt 78 12)(pt 82 8))
	)
)
(pin
	(output)
	(rect 696 728 872 744)
	(text "OUTPUT" (rect 1 0 50 11)(font "Arial" (font_size 6)))
	(text "acld" (rect 90 0 123 14)(font "Arial" ))
	(pt 0 8)
	(drawing
		(line (pt 0 8)(pt 52 8))
		(line (pt 52 4)(pt 78 4))
		(line (pt 52 12)(pt 78 12))
		(line (pt 52 12)(pt 52 4))
		(line (pt 78 4)(pt 82 8))
		(line (pt 82 8)(pt 78 12))
		(line (pt 78 12)(pt 82 8))
	)
)
(pin
	(output)
	(rect 744 992 920 1008)
	(text "OUTPUT" (rect 1 0 50 11)(font "Arial" (font_size 6)))
	(text "cntr_clrn" (rect 90 0 164 14)(font "Arial" ))
	(pt 0 8)
	(drawing
		(line (pt 0 8)(pt 52 8))
		(line (pt 52 4)(pt 78 4))
		(line (pt 52 12)(pt 78 12))
		(line (pt 52 12)(pt 52 4))
		(line (pt 78 4)(pt 82 8))
		(line (pt 82 8)(pt 78 12))
		(line (pt 78 12)(pt 82 8))
	)
)
(symbol
	(rect 728 824 776 856)
	(text "NOT" (rect 1 0 25 11)(font "Arial" (font_size 6)))
	(text "inst5" (rect 3 21 44 35)(font "Arial" ))
	(port
		(pt 0 16)
		(input)
		(text "IN" (rect 2 7 13 21)(font "Courier New" (bold))(invisible))
		(text "IN" (rect 2 7 13 21)(font "Courier New" (bold))(invisible))
		(line (pt 0 16)(pt 13 16))
	)
	(port
		(pt 48 16)
		(output)
		(text "OUT" (rect 32 7 49 21)(font "Courier New" (bold))(invisible))
		(text "OUT" (rect 32 7 49 21)(font "Courier New" (bold))(invisible))
		(line (pt 39 16)(pt 48 16))
	)
	(drawing
		(line (pt 13 25)(pt 13 7))
		(line (pt 13 7)(pt 31 16))
		(line (pt 13 25)(pt 31 16))
		(circle (rect 31 12 39 20))
	)
)
(symbol
	(rect 872 784 1120 960)
	(text "memory" (rect 5 0 54 14)(font "Arial" ))
	(text "inst3" (rect 8 160 49 174)(font "Arial" ))
	(port
		(pt 0 32)
		(input)
		(text "clk" (rect 0 0 24 14)(font "Arial" ))
		(text "clk" (rect 21 27 45 41)(font "Arial" ))
		(line (pt 0 32)(pt 16 32))
	)
	(port
		(pt 0 48)
		(input)
		(text "reset" (rect 0 0 41 14)(font "Arial" ))
		(text "reset" (rect 21 43 62 57)(font "Arial" ))
		(line (pt 0 48)(pt 16 48))
	)
	(port
		(pt 0 64)
		(input)
		(text "address[31..0]" (rect 0 0 115 14)(font "Arial" ))
		(text "address[31..0]" (rect 21 59 136 73)(font "Arial" ))
		(line (pt 0 64)(pt 16 64)(line_width 3))
	)
	(port
		(pt 0 80)
		(input)
		(text "data_in[31..0]" (rect 0 0 115 14)(font "Arial" ))
		(text "data_in[31..0]" (rect 21 75 136 89)(font "Arial" ))
		(line (pt 0 80)(pt 16 80)(line_width 3))
	)
	(port
		(pt 0 96)
		(input)
		(text "rwn" (rect 0 0 24 14)(font "Arial" ))
		(text "rwn" (rect 21 91 45 105)(font "Arial" ))
		(line (pt 0 96)(pt 16 96))
	)
	(port
		(pt 0 112)
		(input)
		(text "start" (rect 0 0 41 14)(font "Arial" ))
		(text "start" (rect 21 107 62 121)(font "Arial" ))
		(line (pt 0 112)(pt 16 112))
	)
	(port
		(pt 0 128)
		(input)
		(text "address_test1[31..0]" (rect 0 0 165 14)(font "Arial" ))
		(text "address_test1[31..0]" (rect 21 123 186 137)(font "Arial" ))
		(line (pt 0 128)(pt 16 128)(line_width 3))
	)
	(port
		(pt 0 144)
		(input)
		(text "address_test2[31..0]" (rect 0 0 165 14)(font "Arial" ))
		(text "address_test2[31..0]" (rect 21 139 186 153)(font "Arial" ))
		(line (pt 0 144)(pt 16 144)(line_width 3))
	)
	(port
		(pt 248 32)
		(output)
		(text "data_out[31..0]" (rect 0 0 123 14)(font "Arial" ))
		(text "data_out[31..0]" (rect 123 27 246 41)(font "Arial" ))
		(line (pt 248 32)(pt 232 32)(line_width 3))
	)
	(port
		(pt 248 48)
		(output)
		(text "ready" (rect 0 0 41 14)(font "Arial" ))
		(text "ready" (rect 193 43 234 57)(font "Arial" ))
		(line (pt 248 48)(pt 232 48))
	)
	(port
		(pt 248 64)
		(output)
		(text "data_test1[31..0]" (rect 0 0 140 14)(font "Arial" ))
		(text "data_test1[31..0]" (rect 109 59 249 73)(font "Arial" ))
		(line (pt 248 64)(pt 232 64)(line_width 3))
	)
	(port
		(pt 248 80)
		(output)
		(text "data_test2[31..0]" (rect 0 0 140 14)(font "Arial" ))
		(text "data_test2[31..0]" (rect 109 75 249 89)(font "Arial" ))
		(line (pt 248 80)(pt 232 80)(line_width 3))
	)
	(drawing
		(rectangle (rect 16 16 232 160))
	)
)
(symbol
	(rect 216 72 584 744)
	(text "ControlUnit" (rect 5 0 108 16)(font "Arial" (font_size 8)))
	(text "inst" (rect 8 654 41 668)(font "Arial" ))
	(port
		(pt 0 32)
		(input)
		(text "reset" (rect 0 0 47 16)(font "Arial" (font_size 8)))
		(text "reset" (rect 21 27 68 43)(font "Arial" (font_size 8)))
		(line (pt 0 32)(pt 16 32))
	)
	(port
		(pt 0 48)
		(input)
		(text "CLK" (rect 0 0 28 16)(font "Arial" (font_size 8)))
		(text "CLK" (rect 21 43 49 59)(font "Arial" (font_size 8)))
		(line (pt 0 48)(pt 16 48))
	)
	(port
		(pt 0 64)
		(input)
		(text "Counter[4..0]" (rect 0 0 122 16)(font "Arial" (font_size 8)))
		(text "Counter[4..0]" (rect 21 59 143 75)(font "Arial" (font_size 8)))
		(line (pt 0 64)(pt 16 64)(line_width 3))
	)
	(port
		(pt 0 80)
		(input)
		(text "ready" (rect 0 0 47 16)(font "Arial" (font_size 8)))
		(text "ready" (rect 21 75 68 91)(font "Arial" (font_size 8)))
		(line (pt 0 80)(pt 16 80))
	)
	(port
		(pt 0 96)
		(input)
		(text "ins[7..0]" (rect 0 0 84 16)(font "Arial" (font_size 8)))
		(text "ins[7..0]" (rect 21 91 105 107)(font "Arial" (font_size 8)))
		(line (pt 0 96)(pt 16 96)(line_width 3))
	)
	(port
		(pt 0 112)
		(input)
		(text "start" (rect 0 0 47 16)(font "Arial" (font_size 8)))
		(text "start" (rect 21 107 68 123)(font "Arial" (font_size 8)))
		(line (pt 0 112)(pt 16 112))
	)
	(port
		(pt 0 128)
		(input)
		(text "DR[31..0]" (rect 0 0 84 16)(font "Arial" (font_size 8)))
		(text "DR[31..0]" (rect 21 123 105 139)(font "Arial" (font_size 8)))
		(line (pt 0 128)(pt 16 128)(line_width 3))
	)
	(port
		(pt 368 32)
		(output)
		(text "DR_clrn" (rect 0 0 66 16)(font "Arial" (font_size 8)))
		(text "DR_clrn" (rect 281 27 347 43)(font "Arial" (font_size 8)))
		(line (pt 368 32)(pt 352 32))
	)
	(port
		(pt 368 48)
		(output)
		(text "ALU_control[5..0]" (rect 0 0 160 16)(font "Arial" (font_size 8)))
		(text "ALU_control[5..0]" (rect 187 43 347 59)(font "Arial" (font_size 8)))
		(line (pt 368 48)(pt 352 48)(line_width 3))
	)
	(port
		(pt 368 64)
		(output)
		(text "DR_load" (rect 0 0 66 16)(font "Arial" (font_size 8)))
		(text "DR_load" (rect 281 59 347 75)(font "Arial" (font_size 8)))
		(line (pt 368 64)(pt 352 64))
	)
	(port
		(pt 368 80)
		(output)
		(text "vld" (rect 0 0 28 16)(font "Arial" (font_size 8)))
		(text "vld" (rect 319 75 347 91)(font "Arial" (font_size 8)))
		(line (pt 368 80)(pt 352 80))
	)
	(port
		(pt 368 96)
		(output)
		(text "DR_inc" (rect 0 0 56 16)(font "Arial" (font_size 8)))
		(text "DR_inc" (rect 291 91 347 107)(font "Arial" (font_size 8)))
		(line (pt 368 96)(pt 352 96))
	)
	(port
		(pt 368 112)
		(output)
		(text "DR_shiftleft2" (rect 0 0 122 16)(font "Arial" (font_size 8)))
		(text "DR_shiftleft2" (rect 225 107 347 123)(font "Arial" (font_size 8)))
		(line (pt 368 112)(pt 352 112))
	)
	(port
		(pt 368 128)
		(output)
		(text "DR_load4" (rect 0 0 75 16)(font "Arial" (font_size 8)))
		(text "DR_load4" (rect 272 123 347 139)(font "Arial" (font_size 8)))
		(line (pt 368 128)(pt 352 128))
	)
	(port
		(pt 368 144)
		(output)
		(text "DR_shiftleft8" (rect 0 0 122 16)(font "Arial" (font_size 8)))
		(text "DR_shiftleft8" (rect 225 139 347 155)(font "Arial" (font_size 8)))
		(line (pt 368 144)(pt 352 144))
	)
	(port
		(pt 368 160)
		(output)
		(text "AC_clrn" (rect 0 0 66 16)(font "Arial" (font_size 8)))
		(text "AC_clrn" (rect 281 155 347 171)(font "Arial" (font_size 8)))
		(line (pt 368 160)(pt 352 160))
	)
	(port
		(pt 368 176)
		(output)
		(text "AC_load" (rect 0 0 66 16)(font "Arial" (font_size 8)))
		(text "AC_load" (rect 281 171 347 187)(font "Arial" (font_size 8)))
		(line (pt 368 176)(pt 352 176))
	)
	(port
		(pt 368 192)
		(output)
		(text "AC_inc" (rect 0 0 56 16)(font "Arial" (font_size 8)))
		(text "AC_inc" (rect 291 187 347 203)(font "Arial" (font_size 8)))
		(line (pt 368 192)(pt 352 192))
	)
	(port
		(pt 368 208)
		(output)
		(text "AC_shiftleft2" (rect 0 0 122 16)(font "Arial" (font_size 8)))
		(text "AC_shiftleft2" (rect 225 203 347 219)(font "Arial" (font_size 8)))
		(line (pt 368 208)(pt 352 208))
	)
	(port
		(pt 368 224)
		(output)
		(text "AC_load4" (rect 0 0 75 16)(font "Arial" (font_size 8)))
		(text "AC_load4" (rect 272 219 347 235)(font "Arial" (font_size 8)))
		(line (pt 368 224)(pt 352 224))
	)
	(port
		(pt 368 240)
		(output)
		(text "AC_shiftleft8" (rect 0 0 122 16)(font "Arial" (font_size 8)))
		(text "AC_shiftleft8" (rect 225 235 347 251)(font "Arial" (font_size 8)))
		(line (pt 368 240)(pt 352 240))
	)
	(port
		(pt 368 256)
		(output)
		(text "IR_clrn" (rect 0 0 66 16)(font "Arial" (font_size 8)))
		(text "IR_clrn" (rect 281 251 347 267)(font "Arial" (font_size 8)))
		(line (pt 368 256)(pt 352 256))
	)
	(port
		(pt 368 272)
		(output)
		(text "TR_clrn" (rect 0 0 66 16)(font "Arial" (font_size 8)))
		(text "TR_clrn" (rect 281 267 347 283)(font "Arial" (font_size 8)))
		(line (pt 368 272)(pt 352 272))
	)
	(port
		(pt 368 288)
		(output)
		(text "SR" (rect 0 0 18 16)(font "Arial" (font_size 8)))
		(text "SR" (rect 329 283 347 299)(font "Arial" (font_size 8)))
		(line (pt 368 288)(pt 352 288))
	)
	(port
		(pt 368 304)
		(output)
		(text "IR_load" (rect 0 0 66 16)(font "Arial" (font_size 8)))
		(text "IR_load" (rect 281 299 347 315)(font "Arial" (font_size 8)))
		(line (pt 368 304)(pt 352 304))
	)
	(port
		(pt 368 320)
		(output)
		(text "TR_load" (rect 0 0 66 16)(font "Arial" (font_size 8)))
		(text "TR_load" (rect 281 315 347 331)(font "Arial" (font_size 8)))
		(line (pt 368 320)(pt 352 320))
	)
	(port
		(pt 368 336)
		(output)
		(text "rwnR" (rect 0 0 37 16)(font "Arial" (font_size 8)))
		(text "rwnR" (rect 310 331 347 347)(font "Arial" (font_size 8)))
		(line (pt 368 336)(pt 352 336))
	)
	(port
		(pt 368 352)
		(output)
		(text "TR_shiftleft8" (rect 0 0 122 16)(font "Arial" (font_size 8)))
		(text "TR_shiftleft8" (rect 225 347 347 363)(font "Arial" (font_size 8)))
		(line (pt 368 352)(pt 352 352))
	)
	(port
		(pt 368 368)
		(output)
		(text "Counter_clrn" (rect 0 0 113 16)(font "Arial" (font_size 8)))
		(text "Counter_clrn" (rect 234 363 347 379)(font "Arial" (font_size 8)))
		(line (pt 368 368)(pt 352 368))
	)
	(port
		(pt 368 384)
		(output)
		(text "Counter_inc" (rect 0 0 103 16)(font "Arial" (font_size 8)))
		(text "Counter_inc" (rect 244 379 347 395)(font "Arial" (font_size 8)))
		(line (pt 368 384)(pt 352 384))
	)
	(port
		(pt 368 400)
		(output)
		(text "B_select" (rect 0 0 75 16)(font "Arial" (font_size 8)))
		(text "B_select" (rect 272 395 347 411)(font "Arial" (font_size 8)))
		(line (pt 368 400)(pt 352 400))
	)
	(port
		(pt 368 416)
		(output)
		(text "Bus_select[2..0]" (rect 0 0 151 16)(font "Arial" (font_size 8)))
		(text "Bus_select[2..0]" (rect 196 411 347 427)(font "Arial" (font_size 8)))
		(line (pt 368 416)(pt 352 416)(line_width 3))
	)
	(port
		(pt 368 432)
		(output)
		(text "Pointer_select[1..0]" (rect 0 0 188 16)(font "Arial" (font_size 8)))
		(text "Pointer_select[1..0]" (rect 159 427 347 443)(font "Arial" (font_size 8)))
		(line (pt 368 432)(pt 352 432)(line_width 3))
	)
	(port
		(pt 368 448)
		(output)
		(text "AR_clrn" (rect 0 0 66 16)(font "Arial" (font_size 8)))
		(text "AR_clrn" (rect 281 443 347 459)(font "Arial" (font_size 8)))
		(line (pt 368 448)(pt 352 448))
	)
	(port
		(pt 368 464)
		(output)
		(text "AR_load" (rect 0 0 66 16)(font "Arial" (font_size 8)))
		(text "AR_load" (rect 281 459 347 475)(font "Arial" (font_size 8)))
		(line (pt 368 464)(pt 352 464))
	)
	(port
		(pt 368 480)
		(output)
		(text "SP_load" (rect 0 0 66 16)(font "Arial" (font_size 8)))
		(text "SP_load" (rect 281 475 347 491)(font "Arial" (font_size 8)))
		(line (pt 368 480)(pt 352 480))
	)
	(port
		(pt 368 496)
		(output)
		(text "PC_inc" (rect 0 0 56 16)(font "Arial" (font_size 8)))
		(text "PC_inc" (rect 291 491 347 507)(font "Arial" (font_size 8)))
		(line (pt 368 496)(pt 352 496))
	)
	(port
		(pt 368 512)
		(output)
		(text "PC_load" (rect 0 0 66 16)(font "Arial" (font_size 8)))
		(text "PC_load" (rect 281 507 347 523)(font "Arial" (font_size 8)))
		(line (pt 368 512)(pt 352 512))
	)
	(port
		(pt 368 528)
		(output)
		(text "ER_clrn" (rect 0 0 66 16)(font "Arial" (font_size 8)))
		(text "ER_clrn" (rect 281 523 347 539)(font "Arial" (font_size 8)))
		(line (pt 368 528)(pt 352 528))
	)
	(port
		(pt 368 544)
		(output)
		(text "ER_load" (rect 0 0 66 16)(font "Arial" (font_size 8)))
		(text "ER_load" (rect 281 539 347 555)(font "Arial" (font_size 8)))
		(line (pt 368 544)(pt 352 544))
	)
	(port
		(pt 368 560)
		(output)
		(text "TT0" (rect 0 0 28 16)(font "Arial" (font_size 8)))
		(text "TT0" (rect 319 555 347 571)(font "Arial" (font_size 8)))
		(line (pt 368 560)(pt 352 560))
	)
	(port
		(pt 368 576)
		(output)
		(text "TT1" (rect 0 0 28 16)(font "Arial" (font_size 8)))
		(text "TT1" (rect 319 571 347 587)(font "Arial" (font_size 8)))
		(line (pt 368 576)(pt 352 576))
	)
	(port
		(pt 368 592)
		(output)
		(text "Cntr[4..0]" (rect 0 0 94 16)(font "Arial" (font_size 8)))
		(text "Cntr[4..0]" (rect 253 587 347 603)(font "Arial" (font_size 8)))
		(line (pt 368 592)(pt 352 592)(line_width 3))
	)
	(port
		(pt 368 608)
		(output)
		(text "TT3[7..0]" (rect 0 0 84 16)(font "Arial" (font_size 8)))
		(text "TT3[7..0]" (rect 263 603 347 619)(font "Arial" (font_size 8)))
		(line (pt 368 608)(pt 352 608)(line_width 3))
	)
	(port
		(pt 368 624)
		(output)
		(text "DR_load8bit" (rect 0 0 103 16)(font "Arial" (font_size 8)))
		(text "DR_load8bit" (rect 244 619 347 635)(font "Arial" (font_size 8)))
		(line (pt 368 624)(pt 352 624))
	)
	(drawing
		(rectangle (rect 16 16 352 656))
	)
)
(symbol
	(rect 880 64 1288 704)
	(text "DataPath" (rect 5 0 80 16)(font "Arial" (font_size 8)))
	(text "inst2" (rect 8 622 49 636)(font "Arial" ))
	(port
		(pt 0 32)
		(input)
		(text "TR_clrn" (rect 0 0 66 16)(font "Arial" (font_size 8)))
		(text "TR_clrn" (rect 21 27 87 43)(font "Arial" (font_size 8)))
		(line (pt 0 32)(pt 16 32))
	)
	(port
		(pt 0 48)
		(input)
		(text "CLK" (rect 0 0 28 16)(font "Arial" (font_size 8)))
		(text "CLK" (rect 21 43 49 59)(font "Arial" (font_size 8)))
		(line (pt 0 48)(pt 16 48))
	)
	(port
		(pt 0 64)
		(input)
		(text "IR_clrn" (rect 0 0 66 16)(font "Arial" (font_size 8)))
		(text "IR_clrn" (rect 21 59 87 75)(font "Arial" (font_size 8)))
		(line (pt 0 64)(pt 16 64))
	)
	(port
		(pt 0 80)
		(input)
		(text "TR_load" (rect 0 0 66 16)(font "Arial" (font_size 8)))
		(text "TR_load" (rect 21 75 87 91)(font "Arial" (font_size 8)))
		(line (pt 0 80)(pt 16 80))
	)
	(port
		(pt 0 96)
		(input)
		(text "IR_load" (rect 0 0 66 16)(font "Arial" (font_size 8)))
		(text "IR_load" (rect 21 91 87 107)(font "Arial" (font_size 8)))
		(line (pt 0 96)(pt 16 96))
	)
	(port
		(pt 0 112)
		(input)
		(text "TR_shiftleft8" (rect 0 0 122 16)(font "Arial" (font_size 8)))
		(text "TR_shiftleft8" (rect 21 107 143 123)(font "Arial" (font_size 8)))
		(line (pt 0 112)(pt 16 112))
	)
	(port
		(pt 0 128)
		(input)
		(text "Mem_in[31..0]" (rect 0 0 122 16)(font "Arial" (font_size 8)))
		(text "Mem_in[31..0]" (rect 21 123 143 139)(font "Arial" (font_size 8)))
		(line (pt 0 128)(pt 16 128)(line_width 3))
	)
	(port
		(pt 0 144)
		(input)
		(text "B_select" (rect 0 0 75 16)(font "Arial" (font_size 8)))
		(text "B_select" (rect 21 139 96 155)(font "Arial" (font_size 8)))
		(line (pt 0 144)(pt 16 144))
	)
	(port
		(pt 0 160)
		(input)
		(text "ALU_control[5..0]" (rect 0 0 160 16)(font "Arial" (font_size 8)))
		(text "ALU_control[5..0]" (rect 21 155 181 171)(font "Arial" (font_size 8)))
		(line (pt 0 160)(pt 16 160)(line_width 3))
	)
	(port
		(pt 0 176)
		(input)
		(text "Pointer_select[1..0]" (rect 0 0 188 16)(font "Arial" (font_size 8)))
		(text "Pointer_select[1..0]" (rect 21 171 209 187)(font "Arial" (font_size 8)))
		(line (pt 0 176)(pt 16 176)(line_width 3))
	)
	(port
		(pt 0 192)
		(input)
		(text "Counter_clrn" (rect 0 0 113 16)(font "Arial" (font_size 8)))
		(text "Counter_clrn" (rect 21 187 134 203)(font "Arial" (font_size 8)))
		(line (pt 0 192)(pt 16 192))
	)
	(port
		(pt 0 208)
		(input)
		(text "Counter_inc" (rect 0 0 103 16)(font "Arial" (font_size 8)))
		(text "Counter_inc" (rect 21 203 124 219)(font "Arial" (font_size 8)))
		(line (pt 0 208)(pt 16 208))
	)
	(port
		(pt 0 224)
		(input)
		(text "Bus_select[2..0]" (rect 0 0 151 16)(font "Arial" (font_size 8)))
		(text "Bus_select[2..0]" (rect 21 219 172 235)(font "Arial" (font_size 8)))
		(line (pt 0 224)(pt 16 224)(line_width 3))
	)
	(port
		(pt 0 240)
		(input)
		(text "reset" (rect 0 0 47 16)(font "Arial" (font_size 8)))
		(text "reset" (rect 21 235 68 251)(font "Arial" (font_size 8)))
		(line (pt 0 240)(pt 16 240))
	)
	(port
		(pt 0 256)
		(input)
		(text "DR_clrn" (rect 0 0 66 16)(font "Arial" (font_size 8)))
		(text "DR_clrn" (rect 21 251 87 267)(font "Arial" (font_size 8)))
		(line (pt 0 256)(pt 16 256))
	)
	(port
		(pt 0 272)
		(input)
		(text "DR_load" (rect 0 0 66 16)(font "Arial" (font_size 8)))
		(text "DR_load" (rect 21 267 87 283)(font "Arial" (font_size 8)))
		(line (pt 0 272)(pt 16 272))
	)
	(port
		(pt 0 288)
		(input)
		(text "DR_inc" (rect 0 0 56 16)(font "Arial" (font_size 8)))
		(text "DR_inc" (rect 21 283 77 299)(font "Arial" (font_size 8)))
		(line (pt 0 288)(pt 16 288))
	)
	(port
		(pt 0 304)
		(input)
		(text "DR_shiftleft2" (rect 0 0 122 16)(font "Arial" (font_size 8)))
		(text "DR_shiftleft2" (rect 21 299 143 315)(font "Arial" (font_size 8)))
		(line (pt 0 304)(pt 16 304))
	)
	(port
		(pt 0 320)
		(input)
		(text "DR_load4" (rect 0 0 75 16)(font "Arial" (font_size 8)))
		(text "DR_load4" (rect 21 315 96 331)(font "Arial" (font_size 8)))
		(line (pt 0 320)(pt 16 320))
	)
	(port
		(pt 0 336)
		(input)
		(text "DR_shiftleft8" (rect 0 0 122 16)(font "Arial" (font_size 8)))
		(text "DR_shiftleft8" (rect 21 331 143 347)(font "Arial" (font_size 8)))
		(line (pt 0 336)(pt 16 336))
	)
	(port
		(pt 0 352)
		(input)
		(text "AC_clrn" (rect 0 0 66 16)(font "Arial" (font_size 8)))
		(text "AC_clrn" (rect 21 347 87 363)(font "Arial" (font_size 8)))
		(line (pt 0 352)(pt 16 352))
	)
	(port
		(pt 0 368)
		(input)
		(text "AC_load" (rect 0 0 66 16)(font "Arial" (font_size 8)))
		(text "AC_load" (rect 21 363 87 379)(font "Arial" (font_size 8)))
		(line (pt 0 368)(pt 16 368))
	)
	(port
		(pt 0 384)
		(input)
		(text "AC_inc" (rect 0 0 56 16)(font "Arial" (font_size 8)))
		(text "AC_inc" (rect 21 379 77 395)(font "Arial" (font_size 8)))
		(line (pt 0 384)(pt 16 384))
	)
	(port
		(pt 0 400)
		(input)
		(text "AC_shiftleft2" (rect 0 0 122 16)(font "Arial" (font_size 8)))
		(text "AC_shiftleft2" (rect 21 395 143 411)(font "Arial" (font_size 8)))
		(line (pt 0 400)(pt 16 400))
	)
	(port
		(pt 0 416)
		(input)
		(text "AC_load4" (rect 0 0 75 16)(font "Arial" (font_size 8)))
		(text "AC_load4" (rect 21 411 96 427)(font "Arial" (font_size 8)))
		(line (pt 0 416)(pt 16 416))
	)
	(port
		(pt 0 432)
		(input)
		(text "AC_shiftleft8" (rect 0 0 122 16)(font "Arial" (font_size 8)))
		(text "AC_shiftleft8" (rect 21 427 143 443)(font "Arial" (font_size 8)))
		(line (pt 0 432)(pt 16 432))
	)
	(port
		(pt 0 448)
		(input)
		(text "SP_load" (rect 0 0 66 16)(font "Arial" (font_size 8)))
		(text "SP_load" (rect 21 443 87 459)(font "Arial" (font_size 8)))
		(line (pt 0 448)(pt 16 448))
	)
	(port
		(pt 0 464)
		(input)
		(text "PC_load" (rect 0 0 66 16)(font "Arial" (font_size 8)))
		(text "PC_load" (rect 21 459 87 475)(font "Arial" (font_size 8)))
		(line (pt 0 464)(pt 16 464))
	)
	(port
		(pt 0 480)
		(input)
		(text "PC_inc" (rect 0 0 56 16)(font "Arial" (font_size 8)))
		(text "PC_inc" (rect 21 475 77 491)(font "Arial" (font_size 8)))
		(line (pt 0 480)(pt 16 480))
	)
	(port
		(pt 0 496)
		(input)
		(text "AR_clrn" (rect 0 0 66 16)(font "Arial" (font_size 8)))
		(text "AR_clrn" (rect 21 491 87 507)(font "Arial" (font_size 8)))
		(line (pt 0 496)(pt 16 496))
	)
	(port
		(pt 0 512)
		(input)
		(text "AR_load" (rect 0 0 66 16)(font "Arial" (font_size 8)))
		(text "AR_load" (rect 21 507 87 523)(font "Arial" (font_size 8)))
		(line (pt 0 512)(pt 16 512))
	)
	(port
		(pt 0 528)
		(input)
		(text "SR" (rect 0 0 18 16)(font "Arial" (font_size 8)))
		(text "SR" (rect 21 523 39 539)(font "Arial" (font_size 8)))
		(line (pt 0 528)(pt 16 528))
	)
	(port
		(pt 0 544)
		(input)
		(text "rwnR" (rect 0 0 37 16)(font "Arial" (font_size 8)))
		(text "rwnR" (rect 21 539 58 555)(font "Arial" (font_size 8)))
		(line (pt 0 544)(pt 16 544))
	)
	(port
		(pt 0 560)
		(input)
		(text "ER_clrn" (rect 0 0 66 16)(font "Arial" (font_size 8)))
		(text "ER_clrn" (rect 21 555 87 571)(font "Arial" (font_size 8)))
		(line (pt 0 560)(pt 16 560))
	)
	(port
		(pt 0 576)
		(input)
		(text "ER_load" (rect 0 0 66 16)(font "Arial" (font_size 8)))
		(text "ER_load" (rect 21 571 87 587)(font "Arial" (font_size 8)))
		(line (pt 0 576)(pt 16 576))
	)
	(port
		(pt 0 592)
		(input)
		(text "DR_load8bit" (rect 0 0 103 16)(font "Arial" (font_size 8)))
		(text "DR_load8bit" (rect 21 587 124 603)(font "Arial" (font_size 8)))
		(line (pt 0 592)(pt 16 592))
	)
	(port
		(pt 408 32)
		(output)
		(text "I_out[7..0]" (rect 0 0 103 16)(font "Arial" (font_size 8)))
		(text "I_out[7..0]" (rect 284 27 387 43)(font "Arial" (font_size 8)))
		(line (pt 408 32)(pt 392 32)(line_width 3))
	)
	(port
		(pt 408 48)
		(output)
		(text "CNT[4..0]" (rect 0 0 84 16)(font "Arial" (font_size 8)))
		(text "CNT[4..0]" (rect 303 43 387 59)(font "Arial" (font_size 8)))
		(line (pt 408 48)(pt 392 48)(line_width 3))
	)
	(port
		(pt 408 64)
		(output)
		(text "spp[31..0]" (rect 0 0 94 16)(font "Arial" (font_size 8)))
		(text "spp[31..0]" (rect 293 59 387 75)(font "Arial" (font_size 8)))
		(line (pt 408 64)(pt 392 64)(line_width 3))
	)
	(port
		(pt 408 80)
		(output)
		(text "TR_out[31..0]" (rect 0 0 122 16)(font "Arial" (font_size 8)))
		(text "TR_out[31..0]" (rect 265 75 387 91)(font "Arial" (font_size 8)))
		(line (pt 408 80)(pt 392 80)(line_width 3))
	)
	(port
		(pt 408 96)
		(output)
		(text "lvv[31..0]" (rect 0 0 94 16)(font "Arial" (font_size 8)))
		(text "lvv[31..0]" (rect 293 91 387 107)(font "Arial" (font_size 8)))
		(line (pt 408 96)(pt 392 96)(line_width 3))
	)
	(port
		(pt 408 112)
		(output)
		(text "pcc[31..0]" (rect 0 0 94 16)(font "Arial" (font_size 8)))
		(text "pcc[31..0]" (rect 293 107 387 123)(font "Arial" (font_size 8)))
		(line (pt 408 112)(pt 392 112)(line_width 3))
	)
	(port
		(pt 408 128)
		(output)
		(text "Bus[31..0]" (rect 0 0 94 16)(font "Arial" (font_size 8)))
		(text "Bus[31..0]" (rect 293 123 387 139)(font "Arial" (font_size 8)))
		(line (pt 408 128)(pt 392 128)(line_width 3))
	)
	(port
		(pt 408 144)
		(output)
		(text "cppp[31..0]" (rect 0 0 103 16)(font "Arial" (font_size 8)))
		(text "cppp[31..0]" (rect 284 139 387 155)(font "Arial" (font_size 8)))
		(line (pt 408 144)(pt 392 144)(line_width 3))
	)
	(port
		(pt 408 160)
		(output)
		(text "start" (rect 0 0 47 16)(font "Arial" (font_size 8)))
		(text "start" (rect 340 155 387 171)(font "Arial" (font_size 8)))
		(line (pt 408 160)(pt 392 160))
	)
	(port
		(pt 408 176)
		(output)
		(text "rwn" (rect 0 0 28 16)(font "Arial" (font_size 8)))
		(text "rwn" (rect 359 171 387 187)(font "Arial" (font_size 8)))
		(line (pt 408 176)(pt 392 176))
	)
	(port
		(pt 408 192)
		(output)
		(text "Address[31..0]" (rect 0 0 132 16)(font "Arial" (font_size 8)))
		(text "Address[31..0]" (rect 255 187 387 203)(font "Arial" (font_size 8)))
		(line (pt 408 192)(pt 392 192)(line_width 3))
	)
	(port
		(pt 408 208)
		(output)
		(text "DR_out[31..0]" (rect 0 0 122 16)(font "Arial" (font_size 8)))
		(text "DR_out[31..0]" (rect 265 203 387 219)(font "Arial" (font_size 8)))
		(line (pt 408 208)(pt 392 208)(line_width 3))
	)
	(port
		(pt 408 224)
		(output)
		(text "ALU_B_entry[31..0]" (rect 0 0 169 16)(font "Arial" (font_size 8)))
		(text "ALU_B_entry[31..0]" (rect 218 219 387 235)(font "Arial" (font_size 8)))
		(line (pt 408 224)(pt 392 224)(line_width 3))
	)
	(port
		(pt 408 240)
		(output)
		(text "ALU_out[31..0]" (rect 0 0 132 16)(font "Arial" (font_size 8)))
		(text "ALU_out[31..0]" (rect 255 235 387 251)(font "Arial" (font_size 8)))
		(line (pt 408 240)(pt 392 240)(line_width 3))
	)
	(port
		(pt 408 256)
		(output)
		(text "AC_out[31..0]" (rect 0 0 122 16)(font "Arial" (font_size 8)))
		(text "AC_out[31..0]" (rect 265 251 387 267)(font "Arial" (font_size 8)))
		(line (pt 408 256)(pt 392 256)(line_width 3))
	)
	(port
		(pt 408 272)
		(output)
		(text "ER_out[31..0]" (rect 0 0 122 16)(font "Arial" (font_size 8)))
		(text "ER_out[31..0]" (rect 265 267 387 283)(font "Arial" (font_size 8)))
		(line (pt 408 272)(pt 392 272)(line_width 3))
	)
	(drawing
		(rectangle (rect 16 16 392 624))
	)
)
(connector
	(pt 728 240)
	(pt 880 240)
	(bus)
)
(connector
	(pt 728 224)
	(pt 880 224)
	(bus)
)
(connector
	(text "TR_clrn" (rect 823 80 880 94)(font "Arial" ))
	(pt 880 96)
	(pt 816 96)
)
(connector
	(text "CLK" (rect 824 96 848 110)(font "Arial" ))
	(pt 880 112)
	(pt 816 112)
)
(connector
	(text "IR_clrn" (rect 824 112 881 126)(font "Arial" ))
	(pt 880 128)
	(pt 816 128)
)
(connector
	(text "TR_load" (rect 823 128 880 142)(font "Arial" ))
	(pt 880 144)
	(pt 816 144)
)
(connector
	(text "IR_load" (rect 824 144 881 158)(font "Arial" ))
	(pt 880 160)
	(pt 816 160)
)
(connector
	(text "TR_shiftleft8" (rect 808 160 915 174)(font "Arial" ))
	(pt 880 176)
	(pt 800 176)
)
(connector
	(text "B_select" (rect 824 192 890 206)(font "Arial" ))
	(pt 880 208)
	(pt 816 208)
)
(connector
	(text "Counter_clrn" (rect 792 240 891 254)(font "Arial" ))
	(pt 880 256)
	(pt 784 256)
)
(connector
	(text "DR_clrn" (rect 824 304 881 318)(font "Arial" ))
	(pt 880 320)
	(pt 816 320)
)
(connector
	(text "DR_load" (rect 823 320 880 334)(font "Arial" ))
	(pt 880 336)
	(pt 816 336)
)
(connector
	(text "DR_inc" (rect 824 336 873 350)(font "Arial" ))
	(pt 880 352)
	(pt 816 352)
)
(connector
	(text "DR_shiftleft2" (rect 824 352 931 366)(font "Arial" ))
	(pt 880 368)
	(pt 816 368)
)
(connector
	(text "AC_clrn" (rect 824 400 881 414)(font "Arial" ))
	(pt 880 416)
	(pt 816 416)
)
(connector
	(text "AC_load" (rect 823 416 880 430)(font "Arial" ))
	(pt 880 432)
	(pt 816 432)
)
(connector
	(text "AC_inc" (rect 824 432 873 446)(font "Arial" ))
	(pt 880 448)
	(pt 816 448)
)
(connector
	(text "AC_load4" (rect 823 464 889 478)(font "Arial" ))
	(pt 880 480)
	(pt 816 480)
)
(connector
	(text "AC_shiftleft8" (rect 824 480 931 494)(font "Arial" ))
	(pt 880 496)
	(pt 816 496)
)
(connector
	(text "AC_shiftleft2" (rect 800 448 907 462)(font "Arial" ))
	(pt 880 464)
	(pt 792 464)
)
(connector
	(text "DR_load4" (rect 799 368 865 382)(font "Arial" ))
	(pt 880 384)
	(pt 792 384)
)
(connector
	(text "DR_shiftleft8" (rect 800 384 907 398)(font "Arial" ))
	(pt 880 400)
	(pt 792 400)
)
(connector
	(pt 880 192)
	(pt 752 192)
	(bus)
)
(connector
	(pt 728 240)
	(pt 728 504)
	(bus)
)
(connector
	(pt 168 0)
	(pt 168 136)
	(bus)
)
(connector
	(pt 168 136)
	(pt 216 136)
	(bus)
)
(connector
	(text "CLK" (rect 184 104 208 118)(font "Arial" ))
	(pt 216 120)
	(pt 176 120)
)
(connector
	(pt 24 -24)
	(pt 24 168)
	(bus)
)
(connector
	(pt 24 168)
	(pt 216 168)
	(bus)
)
(connector
	(text "DR_clrn" (rect 592 88 649 102)(font "Arial" ))
	(pt 584 104)
	(pt 624 104)
)
(connector
	(text "AC_clrn" (rect 592 216 649 230)(font "Arial" ))
	(pt 584 232)
	(pt 632 232)
)
(connector
	(text "AC_load" (rect 592 232 649 246)(font "Arial" ))
	(pt 584 248)
	(pt 632 248)
)
(connector
	(text "AC_inc" (rect 592 248 641 262)(font "Arial" ))
	(pt 584 264)
	(pt 632 264)
)
(connector
	(text "AC_shiftleft2" (rect 585 264 692 278)(font "Arial" ))
	(pt 584 280)
	(pt 632 280)
)
(connector
	(text "AC_load4" (rect 592 280 658 294)(font "Arial" ))
	(pt 584 296)
	(pt 632 296)
)
(connector
	(text "AC_shiftleft8" (rect 592 296 699 310)(font "Arial" ))
	(pt 584 312)
	(pt 632 312)
)
(connector
	(text "IR_clrn" (rect 592 312 649 326)(font "Arial" ))
	(pt 584 328)
	(pt 632 328)
)
(connector
	(text "TR_clrn" (rect 592 328 649 342)(font "Arial" ))
	(pt 584 344)
	(pt 632 344)
)
(connector
	(text "SR" (rect 592 344 608 358)(font "Arial" ))
	(pt 584 360)
	(pt 632 360)
)
(connector
	(text "IR_load" (rect 592 360 649 374)(font "Arial" ))
	(pt 584 376)
	(pt 632 376)
)
(connector
	(text "TR_load" (rect 585 376 642 390)(font "Arial" ))
	(pt 584 392)
	(pt 632 392)
)
(connector
	(text "rwnR" (rect 592 392 625 406)(font "Arial" ))
	(pt 584 408)
	(pt 632 408)
)
(connector
	(text "TR_shiftleft8" (rect 592 408 699 422)(font "Arial" ))
	(pt 584 424)
	(pt 632 424)
)
(connector
	(text "Counter_clrn" (rect 592 424 691 438)(font "Arial" ))
	(pt 584 440)
	(pt 632 440)
)
(connector
	(text "Counter_inc" (rect 592 440 682 454)(font "Arial" ))
	(pt 584 456)
	(pt 632 456)
)
(connector
	(text "B_select" (rect 592 456 658 470)(font "Arial" ))
	(pt 584 472)
	(pt 632 472)
)
(connector
	(pt 584 488)
	(pt 744 488)
	(bus)
)
(connector
	(pt 584 504)
	(pt 728 504)
	(bus)
)
(connector
	(text "AR_clrn" (rect 592 504 649 518)(font "Arial" ))
	(pt 584 520)
	(pt 632 520)
)
(connector
	(text "AR_load" (rect 592 520 649 534)(font "Arial" ))
	(pt 584 536)
	(pt 632 536)
)
(connector
	(text "ready" (rect 88 136 129 150)(font "Arial" ))
	(pt 216 152)
	(pt 80 152)
)
(connector
	(text "SP_load" (rect 594 536 651 550)(font "Arial" ))
	(pt 584 552)
	(pt 656 552)
)
(connector
	(text "PC_inc" (rect 598 552 647 566)(font "Arial" ))
	(pt 584 568)
	(pt 656 568)
)
(connector
	(text "SP_load" (rect 808 496 865 510)(font "Arial" ))
	(pt 880 512)
	(pt 800 512)
)
(connector
	(text "DR_load4" (rect 585 184 651 198)(font "Arial" ))
	(pt 584 200)
	(pt 632 200)
)
(connector
	(text "DR_shiftleft8" (rect 592 200 699 214)(font "Arial" ))
	(pt 584 216)
	(pt 632 216)
)
(connector
	(text "DR_shiftleft2" (rect 592 168 699 182)(font "Arial" ))
	(pt 584 184)
	(pt 632 184)
)
(connector
	(text "DR_inc" (rect 592 152 641 166)(font "Arial" ))
	(pt 584 168)
	(pt 624 168)
)
(connector
	(text "DR_load" (rect 592 120 649 134)(font "Arial" ))
	(pt 584 136)
	(pt 624 136)
)
(connector
	(pt 728 120)
	(pt 728 224)
	(bus)
)
(connector
	(pt 728 120)
	(pt 584 120)
	(bus)
)
(connector
	(text "SR" (rect 824 576 840 590)(font "Arial" ))
	(pt 880 592)
	(pt 816 592)
)
(connector
	(text "rwnR" (rect 824 592 857 606)(font "Arial" ))
	(pt 880 608)
	(pt 816 608)
)
(connector
	(text "AR_clrn" (rect 808 544 865 558)(font "Arial" ))
	(pt 880 560)
	(pt 800 560)
)
(connector
	(text "AR_load" (rect 808 560 865 574)(font "Arial" ))
	(pt 880 576)
	(pt 800 576)
)
(connector
	(text "PC_inc" (rect 812 528 861 542)(font "Arial" ))
	(pt 880 544)
	(pt 808 544)
)
(connector
	(text "PC_load" (rect 800 512 857 526)(font "Arial" ))
	(pt 880 528)
	(pt 792 528)
)
(connector
	(text "PC_load" (rect 585 568 642 582)(font "Arial" ))
	(pt 584 584)
	(pt 648 584)
)
(connector
	(text "CLK" (rect 784 800 808 814)(font "Arial" ))
	(pt 872 816)
	(pt 776 816)
)
(connector
	(text "ready" (rect 1128 816 1169 830)(font "Arial" ))
	(pt 1120 832)
	(pt 1192 832)
)
(connector
	(pt 1120 848)
	(pt 1224 848)
	(bus)
)
(connector
	(text "ER_clrn" (rect 816 608 873 622)(font "Arial" ))
	(pt 880 624)
	(pt 808 624)
)
(connector
	(text "ER_load" (rect 818 624 875 638)(font "Arial" ))
	(pt 880 640)
	(pt 808 640)
)
(connector
	(text "ER_clrn" (rect 592 584 649 598)(font "Arial" ))
	(pt 656 600)
	(pt 584 600)
)
(connector
	(text "ER_load" (rect 594 600 651 614)(font "Arial" ))
	(pt 656 616)
	(pt 584 616)
)
(connector
	(pt 744 288)
	(pt 880 288)
	(bus)
)
(connector
	(text "Counter_inc" (rect 799 256 889 270)(font "Arial" ))
	(pt 880 272)
	(pt 792 272)
)
(connector
	(text "strt" (rect 128 168 161 182)(font "Arial" ))
	(pt 216 184)
	(pt 120 184)
)
(connector
	(text "Mem_out[31..0]" (rect 1136 800 1251 814)(font "Arial" ))
	(pt 1120 816)
	(pt 1216 816)
	(bus)
)
(connector
	(text "Mem_out[31..0]" (rect 717 -5 731 110)(font "Arial" )(vertical))
	(pt 752 192)
	(pt 752 32)
	(bus)
)
(connector
	(pt 744 288)
	(pt 744 488)
	(bus)
)
(connector
	(pt 744 488)
	(pt 744 600)
	(bus)
)
(connector
	(pt 152 200)
	(pt 152 -48)
	(bus)
)
(connector
	(pt 152 200)
	(pt 216 200)
	(bus)
)
(connector
	(pt 872 848)
	(pt 864 848)
	(bus)
)
(connector
	(pt 864 848)
	(pt 864 800)
	(bus)
)
(connector
	(pt 864 864)
	(pt 864 872)
	(bus)
)
(connector
	(pt 872 864)
	(pt 864 864)
	(bus)
)
(connector
	(pt 1120 864)
	(pt 1208 864)
	(bus)
)
(connector
	(pt 856 896)
	(pt 872 896)
)
(connector
	(pt 856 896)
	(pt 856 752)
)
(connector
	(pt 848 880)
	(pt 872 880)
)
(connector
	(pt 848 880)
	(pt 848 768)
)
(connector
	(text "reset" (rect 400 -88 441 -74)(font "Arial" ))
	(pt 376 -72)
	(pt 480 -72)
)
(connector
	(text "reset" (rect 96 88 137 102)(font "Arial" ))
	(pt 216 104)
	(pt 88 104)
)
(connector
	(text "reset" (rect 816 288 857 302)(font "Arial" ))
	(pt 880 304)
	(pt 816 304)
)
(connector
	(pt 872 832)
	(pt 776 832)
)
(connector
	(pt 776 832)
	(pt 776 840)
)
(connector
	(text "reset" (rect 688 824 729 838)(font "Arial" ))
	(pt 728 840)
	(pt 680 840)
)
(connector
	(pt 1344 0)
	(pt 1344 112)
	(bus)
)
(connector
	(pt 168 0)
	(pt 1344 0)
	(bus)
)
(connector
	(pt 24 -24)
	(pt 1368 -24)
	(bus)
)
(connector
	(pt 1432 64)
	(pt 1368 64)
	(bus)
)
(connector
	(pt 1384 392)
	(pt 1336 392)
)
(connector
	(pt 1368 -24)
	(pt 1368 64)
	(bus)
)
(connector
	(pt 1368 64)
	(pt 1368 96)
	(bus)
)
(connector
	(pt 1288 112)
	(pt 1344 112)
	(bus)
)
(connector
	(pt 1288 96)
	(pt 1368 96)
	(bus)
)
(connector
	(pt 1288 128)
	(pt 1480 128)
	(bus)
)
(connector
	(pt 1696 768)
	(pt 848 768)
)
(connector
	(pt 1680 752)
	(pt 856 752)
)
(connector
	(pt 1288 288)
	(pt 1376 288)
	(bus)
)
(connector
	(pt 1288 304)
	(pt 1456 304)
	(bus)
)
(connector
	(pt 1480 320)
	(pt 1288 320)
	(bus)
)
(connector
	(text "Counter_inc" (rect 1560 344 1650 358)(font "Arial" ))
	(pt 1544 368)
	(pt 1672 368)
)
(connector
	(pt 1336 240)
	(pt 1288 240)
)
(connector
	(pt 1336 240)
	(pt 1336 392)
)
(connector
	(pt 1336 392)
	(pt 1336 696)
)
(connector
	(pt 1352 224)
	(pt 1288 224)
)
(connector
	(pt 1352 224)
	(pt 1352 360)
)
(connector
	(pt 1352 360)
	(pt 1352 528)
)
(connector
	(text "Address[31..0]" (rect 1368 240 1483 254)(font "Arial" ))
	(pt 1288 256)
	(pt 1472 256)
	(bus)
)
(connector
	(pt 1392 -48)
	(pt 152 -48)
	(bus)
)
(connector
	(pt 1392 -48)
	(pt 1392 272)
	(bus)
)
(connector
	(pt 1288 272)
	(pt 1392 272)
	(bus)
)
(connector
	(pt 1392 272)
	(pt 1512 272)
	(bus)
)
(connector
	(pt 1288 160)
	(pt 1480 160)
	(bus)
)
(connector
	(pt 1288 176)
	(pt 1480 176)
	(bus)
)
(connector
	(pt 1288 208)
	(pt 1480 208)
	(bus)
)
(connector
	(text "Bus[31..0]" (rect 1372 176 1454 190)(font "Arial" ))
	(pt 1288 192)
	(pt 1472 192)
	(bus)
)
(connector
	(pt 1288 144)
	(pt 1480 144)
	(bus)
)
(connector
	(pt 1288 336)
	(pt 1304 336)
	(bus)
)
(connector
	(pt 1304 432)
	(pt 1304 336)
	(bus)
)
(connector
	(pt 1304 432)
	(pt 1464 432)
	(bus)
)
(connector
	(pt 744 600)
	(pt 776 600)
	(bus)
)
(connector
	(pt 776 600)
	(pt 776 712)
	(bus)
)
(connector
	(pt 584 696)
	(pt 592 696)
)
(connector
	(pt 592 704)
	(pt 592 696)
)
(connector
	(text "DR_load8bit" (rect 612 688 702 702)(font "Arial" ))
	(pt 592 704)
	(pt 704 704)
)
(connector
	(text "DR_load8bit" (rect 800 640 890 654)(font "Arial" ))
	(pt 880 656)
	(pt 792 656)
)
(connector
	(text "AC_load" (rect 640 720 697 734)(font "Arial" ))
	(pt 696 736)
	(pt 632 736)
)
(connector
	(pt 864 928)
	(pt 864 936)
	(bus)
)
(connector
	(pt 872 928)
	(pt 864 928)
	(bus)
)
(connector
	(pt 864 936)
	(pt 856 936)
	(bus)
)
(connector
	(pt 864 912)
	(pt 864 904)
	(bus)
)
(connector
	(pt 872 912)
	(pt 864 912)
	(bus)
)
(connector
	(pt 864 904)
	(pt 848 904)
	(bus)
)
(connector
	(text "Counter_clrn" (rect 640 984 739 998)(font "Arial" ))
	(pt 744 1000)
	(pt 632 1000)
)
(connector
	(text "Bus[31..0]" (rect 607 856 689 870)(font "Arial" ))
	(pt 864 872)
	(pt 488 872)
	(bus)
)
(connector
	(text "Address[31..0]" (rect 544 784 659 798)(font "Arial" ))
	(pt 536 800)
	(pt 864 800)
	(bus)
)
(connector
	(pt 1696 768)
	(pt 1696 696)
)
(connector
	(pt 1336 696)
	(pt 1696 696)
)
(connector
	(pt 1680 752)
	(pt 1680 528)
)
(connector
	(text "strt" (rect 1428 512 1461 526)(font "Arial" ))
	(pt 1352 528)
	(pt 1680 528)
)
(junction (pt 744 488))
(junction (pt 1368 64))
(junction (pt 1336 392))
(junction (pt 1352 360))
(junction (pt 1392 272))
