/*
WARNING: Do NOT edit the input and output ports in this file in a text
editor if you plan to continue editing the block that represents it in
the Block Editor! File corruption is VERY likely to occur.
*/
/*
Copyright (C) 1991-2015 Altera Corporation. All rights reserved.
Your use of Altera Corporation's design tools, logic functions 
and other software and tools, and its AMPP partner logic 
functions, and any output files from any of the foregoing 
(including device programming or simulation files), and any 
associated documentation or information are expressly subject 
to the terms and conditions of the Altera Program License 
Subscription Agreement, the Altera Quartus Prime License Agreement,
the Altera MegaCore Function License Agreement, or other 
applicable license agreement, including, without limitation, 
that your use is for the sole purpose of programming logic 
devices manufactured by Altera and sold by Altera or its 
authorized distributors.  Please refer to the applicable 
agreement for further details.
*/
(header "graphic" (version "1.4"))
(pin
	(input)
	(rect 104 96 272 112)
	(text "INPUT" (rect 125 0 166 11)(font "Arial" (font_size 6)))
	(text "ready" (rect 5 0 46 14)(font "Arial" ))
	(pt 168 8)
	(drawing
		(line (pt 84 12)(pt 109 12))
		(line (pt 84 4)(pt 109 4))
		(line (pt 113 8)(pt 168 8))
		(line (pt 84 12)(pt 84 4))
		(line (pt 109 4)(pt 113 8))
		(line (pt 109 12)(pt 113 8))
	)
	(text "VCC" (rect 128 7 152 18)(font "Arial" (font_size 6)))
)
(pin
	(input)
	(rect 104 120 272 136)
	(text "INPUT" (rect 125 0 166 11)(font "Arial" (font_size 6)))
	(text "start" (rect 5 0 46 14)(font "Arial" ))
	(pt 168 8)
	(drawing
		(line (pt 84 12)(pt 109 12))
		(line (pt 84 4)(pt 109 4))
		(line (pt 113 8)(pt 168 8))
		(line (pt 84 12)(pt 84 4))
		(line (pt 109 4)(pt 113 8))
		(line (pt 109 12)(pt 113 8))
	)
	(text "VCC" (rect 128 7 152 18)(font "Arial" (font_size 6)))
)
(pin
	(input)
	(rect 80 144 272 160)
	(text "INPUT" (rect 149 0 190 11)(font "Arial" (font_size 6)))
	(text "cmnd[10..0]" (rect 5 0 95 14)(font "Arial" ))
	(pt 192 8)
	(drawing
		(line (pt 108 12)(pt 133 12))
		(line (pt 108 4)(pt 133 4))
		(line (pt 137 8)(pt 192 8))
		(line (pt 108 12)(pt 108 4))
		(line (pt 133 4)(pt 137 8))
		(line (pt 133 12)(pt 137 8))
	)
	(text "VCC" (rect 152 7 176 18)(font "Arial" (font_size 6)))
)
(pin
	(input)
	(rect 24 248 232 264)
	(text "INPUT" (rect 165 0 206 11)(font "Arial" (font_size 6)))
	(text "Counter[4..0]" (rect 5 0 112 14)(font "Arial" ))
	(pt 208 8)
	(drawing
		(line (pt 124 12)(pt 149 12))
		(line (pt 124 4)(pt 149 4))
		(line (pt 153 8)(pt 208 8))
		(line (pt 124 12)(pt 124 4))
		(line (pt 149 4)(pt 153 8))
		(line (pt 149 12)(pt 153 8))
	)
	(text "VCC" (rect 168 7 192 18)(font "Arial" (font_size 6)))
)
(pin
	(input)
	(rect 104 168 272 184)
	(text "INPUT" (rect 125 0 166 11)(font "Arial" (font_size 6)))
	(text "arldd" (rect 5 0 46 14)(font "Arial" ))
	(pt 168 8)
	(drawing
		(line (pt 84 12)(pt 109 12))
		(line (pt 84 4)(pt 109 4))
		(line (pt 113 8)(pt 168 8))
		(line (pt 84 12)(pt 84 4))
		(line (pt 109 4)(pt 113 8))
		(line (pt 109 12)(pt 113 8))
	)
	(text "VCC" (rect 128 7 152 18)(font "Arial" (font_size 6)))
)
(pin
	(output)
	(rect 1288 176 1464 192)
	(text "OUTPUT" (rect 1 0 50 11)(font "Arial" (font_size 6)))
	(text "Name_here" (rect 90 0 164 14)(font "Arial" ))
	(pt 0 8)
	(drawing
		(line (pt 0 8)(pt 52 8))
		(line (pt 52 4)(pt 78 4))
		(line (pt 52 12)(pt 78 12))
		(line (pt 52 12)(pt 52 4))
		(line (pt 78 4)(pt 82 8))
		(line (pt 82 8)(pt 78 12))
		(line (pt 78 12)(pt 82 8))
	)
)
(symbol
	(rect 256 376 288 392)
	(text "VCC" (rect 7 0 31 11)(font "Arial" (font_size 6)))
	(text "inst3" (rect 3 5 44 19)(font "Arial" )(invisible))
	(port
		(pt 16 16)
		(output)
		(text "1" (rect 19 7 24 21)(font "Courier New" (bold))(invisible))
		(text "1" (rect 19 7 24 21)(font "Courier New" (bold))(invisible))
		(line (pt 16 16)(pt 16 8))
	)
	(drawing
		(line (pt 8 8)(pt 24 8))
	)
)
(symbol
	(rect 312 432 344 464)
	(text "GND" (rect 8 16 32 27)(font "Arial" (font_size 6)))
	(text "inst14" (rect 3 21 52 35)(font "Arial" )(invisible))
	(port
		(pt 16 0)
		(output)
		(text "1" (rect 18 0 23 14)(font "Courier New" (bold))(invisible))
		(text "1" (rect 18 0 23 14)(font "Courier New" (bold))(invisible))
		(line (pt 16 8)(pt 16 0))
	)
	(drawing
		(line (pt 8 8)(pt 16 16))
		(line (pt 16 16)(pt 24 8))
		(line (pt 8 8)(pt 24 8))
	)
)
(symbol
	(rect 952 72 1016 120)
	(text "AND2" (rect 1 0 34 11)(font "Arial" (font_size 6)))
	(text "inst1" (rect 3 37 44 51)(font "Arial" ))
	(port
		(pt 0 16)
		(input)
		(text "IN1" (rect 2 7 19 21)(font "Courier New" (bold))(invisible))
		(text "IN1" (rect 2 7 19 21)(font "Courier New" (bold))(invisible))
		(line (pt 0 16)(pt 14 16))
	)
	(port
		(pt 0 32)
		(input)
		(text "IN2" (rect 2 23 19 37)(font "Courier New" (bold))(invisible))
		(text "IN2" (rect 2 23 19 37)(font "Courier New" (bold))(invisible))
		(line (pt 0 32)(pt 14 32))
	)
	(port
		(pt 64 24)
		(output)
		(text "OUT" (rect 48 15 65 29)(font "Courier New" (bold))(invisible))
		(text "OUT" (rect 48 15 65 29)(font "Courier New" (bold))(invisible))
		(line (pt 42 24)(pt 64 24))
	)
	(drawing
		(line (pt 14 12)(pt 30 12))
		(line (pt 14 37)(pt 31 37))
		(line (pt 14 12)(pt 14 37))
		(arc (pt 31 37)(pt 30 12)(rect 18 12 43 37))
	)
)
(symbol
	(rect 952 168 1016 216)
	(text "AND2" (rect 1 0 34 11)(font "Arial" (font_size 6)))
	(text "inst2" (rect 3 37 44 51)(font "Arial" ))
	(port
		(pt 0 16)
		(input)
		(text "IN1" (rect 2 7 19 21)(font "Courier New" (bold))(invisible))
		(text "IN1" (rect 2 7 19 21)(font "Courier New" (bold))(invisible))
		(line (pt 0 16)(pt 14 16))
	)
	(port
		(pt 0 32)
		(input)
		(text "IN2" (rect 2 23 19 37)(font "Courier New" (bold))(invisible))
		(text "IN2" (rect 2 23 19 37)(font "Courier New" (bold))(invisible))
		(line (pt 0 32)(pt 14 32))
	)
	(port
		(pt 64 24)
		(output)
		(text "OUT" (rect 48 15 65 29)(font "Courier New" (bold))(invisible))
		(text "OUT" (rect 48 15 65 29)(font "Courier New" (bold))(invisible))
		(line (pt 42 24)(pt 64 24))
	)
	(drawing
		(line (pt 14 12)(pt 30 12))
		(line (pt 14 37)(pt 31 37))
		(line (pt 14 12)(pt 14 37))
		(arc (pt 31 37)(pt 30 12)(rect 18 12 43 37))
	)
)
(symbol
	(rect 952 264 1016 312)
	(text "AND2" (rect 1 0 34 11)(font "Arial" (font_size 6)))
	(text "inst4" (rect 3 37 44 51)(font "Arial" ))
	(port
		(pt 0 16)
		(input)
		(text "IN1" (rect 2 7 19 21)(font "Courier New" (bold))(invisible))
		(text "IN1" (rect 2 7 19 21)(font "Courier New" (bold))(invisible))
		(line (pt 0 16)(pt 14 16))
	)
	(port
		(pt 0 32)
		(input)
		(text "IN2" (rect 2 23 19 37)(font "Courier New" (bold))(invisible))
		(text "IN2" (rect 2 23 19 37)(font "Courier New" (bold))(invisible))
		(line (pt 0 32)(pt 14 32))
	)
	(port
		(pt 64 24)
		(output)
		(text "OUT" (rect 48 15 65 29)(font "Courier New" (bold))(invisible))
		(text "OUT" (rect 48 15 65 29)(font "Courier New" (bold))(invisible))
		(line (pt 42 24)(pt 64 24))
	)
	(drawing
		(line (pt 14 12)(pt 30 12))
		(line (pt 14 37)(pt 31 37))
		(line (pt 14 12)(pt 14 37))
		(arc (pt 31 37)(pt 30 12)(rect 18 12 43 37))
	)
)
(symbol
	(rect 952 352 1016 400)
	(text "AND2" (rect 1 0 34 11)(font "Arial" (font_size 6)))
	(text "inst5" (rect 3 37 44 51)(font "Arial" ))
	(port
		(pt 0 16)
		(input)
		(text "IN1" (rect 2 7 19 21)(font "Courier New" (bold))(invisible))
		(text "IN1" (rect 2 7 19 21)(font "Courier New" (bold))(invisible))
		(line (pt 0 16)(pt 14 16))
	)
	(port
		(pt 0 32)
		(input)
		(text "IN2" (rect 2 23 19 37)(font "Courier New" (bold))(invisible))
		(text "IN2" (rect 2 23 19 37)(font "Courier New" (bold))(invisible))
		(line (pt 0 32)(pt 14 32))
	)
	(port
		(pt 64 24)
		(output)
		(text "OUT" (rect 48 15 65 29)(font "Courier New" (bold))(invisible))
		(text "OUT" (rect 48 15 65 29)(font "Courier New" (bold))(invisible))
		(line (pt 42 24)(pt 64 24))
	)
	(drawing
		(line (pt 14 12)(pt 30 12))
		(line (pt 14 37)(pt 31 37))
		(line (pt 14 12)(pt 14 37))
		(arc (pt 31 37)(pt 30 12)(rect 18 12 43 37))
	)
)
(symbol
	(rect 952 440 1016 488)
	(text "AND2" (rect 1 0 34 11)(font "Arial" (font_size 6)))
	(text "inst6" (rect 3 37 44 51)(font "Arial" ))
	(port
		(pt 0 16)
		(input)
		(text "IN1" (rect 2 7 19 21)(font "Courier New" (bold))(invisible))
		(text "IN1" (rect 2 7 19 21)(font "Courier New" (bold))(invisible))
		(line (pt 0 16)(pt 14 16))
	)
	(port
		(pt 0 32)
		(input)
		(text "IN2" (rect 2 23 19 37)(font "Courier New" (bold))(invisible))
		(text "IN2" (rect 2 23 19 37)(font "Courier New" (bold))(invisible))
		(line (pt 0 32)(pt 14 32))
	)
	(port
		(pt 64 24)
		(output)
		(text "OUT" (rect 48 15 65 29)(font "Courier New" (bold))(invisible))
		(text "OUT" (rect 48 15 65 29)(font "Courier New" (bold))(invisible))
		(line (pt 42 24)(pt 64 24))
	)
	(drawing
		(line (pt 14 12)(pt 30 12))
		(line (pt 14 37)(pt 31 37))
		(line (pt 14 12)(pt 14 37))
		(arc (pt 31 37)(pt 30 12)(rect 18 12 43 37))
	)
)
(symbol
	(rect 952 544 1016 592)
	(text "AND2" (rect 1 0 34 11)(font "Arial" (font_size 6)))
	(text "inst7" (rect 3 37 44 51)(font "Arial" ))
	(port
		(pt 0 16)
		(input)
		(text "IN1" (rect 2 7 19 21)(font "Courier New" (bold))(invisible))
		(text "IN1" (rect 2 7 19 21)(font "Courier New" (bold))(invisible))
		(line (pt 0 16)(pt 14 16))
	)
	(port
		(pt 0 32)
		(input)
		(text "IN2" (rect 2 23 19 37)(font "Courier New" (bold))(invisible))
		(text "IN2" (rect 2 23 19 37)(font "Courier New" (bold))(invisible))
		(line (pt 0 32)(pt 14 32))
	)
	(port
		(pt 64 24)
		(output)
		(text "OUT" (rect 48 15 65 29)(font "Courier New" (bold))(invisible))
		(text "OUT" (rect 48 15 65 29)(font "Courier New" (bold))(invisible))
		(line (pt 42 24)(pt 64 24))
	)
	(drawing
		(line (pt 14 12)(pt 30 12))
		(line (pt 14 37)(pt 31 37))
		(line (pt 14 12)(pt 14 37))
		(arc (pt 31 37)(pt 30 12)(rect 18 12 43 37))
	)
)
(symbol
	(rect 952 632 1016 680)
	(text "AND2" (rect 1 0 34 11)(font "Arial" (font_size 6)))
	(text "inst8" (rect 3 37 44 51)(font "Arial" ))
	(port
		(pt 0 16)
		(input)
		(text "IN1" (rect 2 7 19 21)(font "Courier New" (bold))(invisible))
		(text "IN1" (rect 2 7 19 21)(font "Courier New" (bold))(invisible))
		(line (pt 0 16)(pt 14 16))
	)
	(port
		(pt 0 32)
		(input)
		(text "IN2" (rect 2 23 19 37)(font "Courier New" (bold))(invisible))
		(text "IN2" (rect 2 23 19 37)(font "Courier New" (bold))(invisible))
		(line (pt 0 32)(pt 14 32))
	)
	(port
		(pt 64 24)
		(output)
		(text "OUT" (rect 48 15 65 29)(font "Courier New" (bold))(invisible))
		(text "OUT" (rect 48 15 65 29)(font "Courier New" (bold))(invisible))
		(line (pt 42 24)(pt 64 24))
	)
	(drawing
		(line (pt 14 12)(pt 30 12))
		(line (pt 14 37)(pt 31 37))
		(line (pt 14 12)(pt 14 37))
		(arc (pt 31 37)(pt 30 12)(rect 18 12 43 37))
	)
)
(symbol
	(rect 952 712 1016 760)
	(text "AND2" (rect 1 0 34 11)(font "Arial" (font_size 6)))
	(text "inst9" (rect 3 37 44 51)(font "Arial" ))
	(port
		(pt 0 16)
		(input)
		(text "IN1" (rect 2 7 19 21)(font "Courier New" (bold))(invisible))
		(text "IN1" (rect 2 7 19 21)(font "Courier New" (bold))(invisible))
		(line (pt 0 16)(pt 14 16))
	)
	(port
		(pt 0 32)
		(input)
		(text "IN2" (rect 2 23 19 37)(font "Courier New" (bold))(invisible))
		(text "IN2" (rect 2 23 19 37)(font "Courier New" (bold))(invisible))
		(line (pt 0 32)(pt 14 32))
	)
	(port
		(pt 64 24)
		(output)
		(text "OUT" (rect 48 15 65 29)(font "Courier New" (bold))(invisible))
		(text "OUT" (rect 48 15 65 29)(font "Courier New" (bold))(invisible))
		(line (pt 42 24)(pt 64 24))
	)
	(drawing
		(line (pt 14 12)(pt 30 12))
		(line (pt 14 37)(pt 31 37))
		(line (pt 14 12)(pt 14 37))
		(arc (pt 31 37)(pt 30 12)(rect 18 12 43 37))
	)
)
(symbol
	(rect 952 792 1016 840)
	(text "AND2" (rect 1 0 34 11)(font "Arial" (font_size 6)))
	(text "inst10" (rect 3 37 52 51)(font "Arial" ))
	(port
		(pt 0 16)
		(input)
		(text "IN1" (rect 2 7 19 21)(font "Courier New" (bold))(invisible))
		(text "IN1" (rect 2 7 19 21)(font "Courier New" (bold))(invisible))
		(line (pt 0 16)(pt 14 16))
	)
	(port
		(pt 0 32)
		(input)
		(text "IN2" (rect 2 23 19 37)(font "Courier New" (bold))(invisible))
		(text "IN2" (rect 2 23 19 37)(font "Courier New" (bold))(invisible))
		(line (pt 0 32)(pt 14 32))
	)
	(port
		(pt 64 24)
		(output)
		(text "OUT" (rect 48 15 65 29)(font "Courier New" (bold))(invisible))
		(text "OUT" (rect 48 15 65 29)(font "Courier New" (bold))(invisible))
		(line (pt 42 24)(pt 64 24))
	)
	(drawing
		(line (pt 14 12)(pt 30 12))
		(line (pt 14 37)(pt 31 37))
		(line (pt 14 12)(pt 14 37))
		(arc (pt 31 37)(pt 30 12)(rect 18 12 43 37))
	)
)
(symbol
	(rect 952 880 1016 928)
	(text "AND2" (rect 1 0 34 11)(font "Arial" (font_size 6)))
	(text "inst11" (rect 3 37 52 51)(font "Arial" ))
	(port
		(pt 0 16)
		(input)
		(text "IN1" (rect 2 7 19 21)(font "Courier New" (bold))(invisible))
		(text "IN1" (rect 2 7 19 21)(font "Courier New" (bold))(invisible))
		(line (pt 0 16)(pt 14 16))
	)
	(port
		(pt 0 32)
		(input)
		(text "IN2" (rect 2 23 19 37)(font "Courier New" (bold))(invisible))
		(text "IN2" (rect 2 23 19 37)(font "Courier New" (bold))(invisible))
		(line (pt 0 32)(pt 14 32))
	)
	(port
		(pt 64 24)
		(output)
		(text "OUT" (rect 48 15 65 29)(font "Courier New" (bold))(invisible))
		(text "OUT" (rect 48 15 65 29)(font "Courier New" (bold))(invisible))
		(line (pt 42 24)(pt 64 24))
	)
	(drawing
		(line (pt 14 12)(pt 30 12))
		(line (pt 14 37)(pt 31 37))
		(line (pt 14 12)(pt 14 37))
		(arc (pt 31 37)(pt 30 12)(rect 18 12 43 37))
	)
)
(symbol
	(rect 952 968 1016 1016)
	(text "AND2" (rect 1 0 34 11)(font "Arial" (font_size 6)))
	(text "inst12" (rect 3 37 52 51)(font "Arial" ))
	(port
		(pt 0 16)
		(input)
		(text "IN1" (rect 2 7 19 21)(font "Courier New" (bold))(invisible))
		(text "IN1" (rect 2 7 19 21)(font "Courier New" (bold))(invisible))
		(line (pt 0 16)(pt 14 16))
	)
	(port
		(pt 0 32)
		(input)
		(text "IN2" (rect 2 23 19 37)(font "Courier New" (bold))(invisible))
		(text "IN2" (rect 2 23 19 37)(font "Courier New" (bold))(invisible))
		(line (pt 0 32)(pt 14 32))
	)
	(port
		(pt 64 24)
		(output)
		(text "OUT" (rect 48 15 65 29)(font "Courier New" (bold))(invisible))
		(text "OUT" (rect 48 15 65 29)(font "Courier New" (bold))(invisible))
		(line (pt 42 24)(pt 64 24))
	)
	(drawing
		(line (pt 14 12)(pt 30 12))
		(line (pt 14 37)(pt 31 37))
		(line (pt 14 12)(pt 14 37))
		(arc (pt 31 37)(pt 30 12)(rect 18 12 43 37))
	)
)
(symbol
	(rect 1136 80 1200 288)
	(text "OR12" (rect 1 0 34 11)(font "Arial" (font_size 6)))
	(text "inst15" (rect 3 197 52 211)(font "Arial" ))
	(port
		(pt 0 48)
		(input)
		(text "IN3" (rect 2 39 19 53)(font "Courier New" (bold))(invisible))
		(text "IN3" (rect 2 39 19 53)(font "Courier New" (bold))(invisible))
		(line (pt 0 48)(pt 13 48))
	)
	(port
		(pt 0 32)
		(input)
		(text "IN2" (rect 2 23 19 37)(font "Courier New" (bold))(invisible))
		(text "IN2" (rect 2 23 19 37)(font "Courier New" (bold))(invisible))
		(line (pt 0 32)(pt 13 32))
	)
	(port
		(pt 0 16)
		(input)
		(text "IN1" (rect 2 7 19 21)(font "Courier New" (bold))(invisible))
		(text "IN1" (rect 2 7 19 21)(font "Courier New" (bold))(invisible))
		(line (pt 0 16)(pt 13 16))
	)
	(port
		(pt 0 96)
		(input)
		(text "IN6" (rect 2 87 19 101)(font "Courier New" (bold))(invisible))
		(text "IN6" (rect 2 87 19 101)(font "Courier New" (bold))(invisible))
		(line (pt 0 96)(pt 15 96))
	)
	(port
		(pt 0 80)
		(input)
		(text "IN5" (rect 2 71 19 85)(font "Courier New" (bold))(invisible))
		(text "IN5" (rect 2 71 19 85)(font "Courier New" (bold))(invisible))
		(line (pt 0 80)(pt 13 80))
	)
	(port
		(pt 0 64)
		(input)
		(text "IN4" (rect 2 55 19 69)(font "Courier New" (bold))(invisible))
		(text "IN4" (rect 2 55 19 69)(font "Courier New" (bold))(invisible))
		(line (pt 0 64)(pt 13 64))
	)
	(port
		(pt 0 128)
		(input)
		(text "IN8" (rect 2 119 19 133)(font "Courier New" (bold))(invisible))
		(text "IN8" (rect 2 119 19 133)(font "Courier New" (bold))(invisible))
		(line (pt 0 128)(pt 13 128))
	)
	(port
		(pt 0 112)
		(input)
		(text "IN7" (rect 2 103 19 117)(font "Courier New" (bold))(invisible))
		(text "IN7" (rect 2 103 19 117)(font "Courier New" (bold))(invisible))
		(line (pt 0 112)(pt 15 112))
	)
	(port
		(pt 0 144)
		(input)
		(text "IN9" (rect 2 135 19 149)(font "Courier New" (bold))(invisible))
		(text "IN9" (rect 2 135 19 149)(font "Courier New" (bold))(invisible))
		(line (pt 0 144)(pt 13 144))
	)
	(port
		(pt 0 176)
		(input)
		(text "IN11" (rect 2 167 25 181)(font "Courier New" (bold))(invisible))
		(text "IN11" (rect 2 167 25 181)(font "Courier New" (bold))(invisible))
		(line (pt 0 176)(pt 13 176))
	)
	(port
		(pt 0 160)
		(input)
		(text "IN10" (rect 2 151 25 165)(font "Courier New" (bold))(invisible))
		(text "IN10" (rect 2 151 25 165)(font "Courier New" (bold))(invisible))
		(line (pt 0 160)(pt 13 160))
	)
	(port
		(pt 0 192)
		(input)
		(text "IN12" (rect 2 183 25 197)(font "Courier New" (bold))(invisible))
		(text "IN12" (rect 2 183 25 197)(font "Courier New" (bold))(invisible))
		(line (pt 0 192)(pt 13 192))
	)
	(port
		(pt 64 104)
		(output)
		(text "OUT" (rect 48 95 65 109)(font "Courier New" (bold))(invisible))
		(text "OUT" (rect 48 95 65 109)(font "Courier New" (bold))(invisible))
		(line (pt 48 104)(pt 64 104))
	)
	(drawing
		(line (pt 14 93)(pt 25 93))
		(line (pt 14 116)(pt 25 116))
		(line (pt 13 93)(pt 13 13))
		(line (pt 13 195)(pt 13 115))
		(arc (pt 7 109)(pt 7 99)(rect -14 88 19 121))
		(arc (pt 49 104)(pt 25 93)(rect -6 93 57 156))
		(arc (pt 25 115)(pt 49 104)(rect -6 53 57 116))
	)
)
(symbol
	(rect 448 64 576 448)
	(text "Decoder5_1" (rect 20 0 149 18)(font "Arial" (font_size 10)))
	(text "inst" (rect 8 366 41 380)(font "Arial" ))
	(port
		(pt 0 192)
		(input)
		(text "data[4..0]" (rect 0 0 94 16)(font "Arial" (font_size 8)))
		(text "data[4..0]" (rect 20 184 114 200)(font "Arial" (font_size 8)))
		(line (pt 0 192)(pt 16 192)(line_width 3))
	)
	(port
		(pt 128 32)
		(output)
		(text "eq0" (rect 0 0 28 16)(font "Arial" (font_size 8)))
		(text "eq0" (rect 88 24 116 40)(font "Arial" (font_size 8)))
		(line (pt 128 32)(pt 112 32))
	)
	(port
		(pt 128 48)
		(output)
		(text "eq1" (rect 0 0 28 16)(font "Arial" (font_size 8)))
		(text "eq1" (rect 88 40 116 56)(font "Arial" (font_size 8)))
		(line (pt 128 48)(pt 112 48))
	)
	(port
		(pt 128 64)
		(output)
		(text "eq2" (rect 0 0 28 16)(font "Arial" (font_size 8)))
		(text "eq2" (rect 88 56 116 72)(font "Arial" (font_size 8)))
		(line (pt 128 64)(pt 112 64))
	)
	(port
		(pt 128 80)
		(output)
		(text "eq3" (rect 0 0 28 16)(font "Arial" (font_size 8)))
		(text "eq3" (rect 88 72 116 88)(font "Arial" (font_size 8)))
		(line (pt 128 80)(pt 112 80))
	)
	(port
		(pt 128 96)
		(output)
		(text "eq4" (rect 0 0 28 16)(font "Arial" (font_size 8)))
		(text "eq4" (rect 88 88 116 104)(font "Arial" (font_size 8)))
		(line (pt 128 96)(pt 112 96))
	)
	(port
		(pt 128 112)
		(output)
		(text "eq5" (rect 0 0 28 16)(font "Arial" (font_size 8)))
		(text "eq5" (rect 88 104 116 120)(font "Arial" (font_size 8)))
		(line (pt 128 112)(pt 112 112))
	)
	(port
		(pt 128 128)
		(output)
		(text "eq6" (rect 0 0 28 16)(font "Arial" (font_size 8)))
		(text "eq6" (rect 88 120 116 136)(font "Arial" (font_size 8)))
		(line (pt 128 128)(pt 112 128))
	)
	(port
		(pt 128 144)
		(output)
		(text "eq7" (rect 0 0 28 16)(font "Arial" (font_size 8)))
		(text "eq7" (rect 88 136 116 152)(font "Arial" (font_size 8)))
		(line (pt 128 144)(pt 112 144))
	)
	(port
		(pt 128 160)
		(output)
		(text "eq8" (rect 0 0 28 16)(font "Arial" (font_size 8)))
		(text "eq8" (rect 88 152 116 168)(font "Arial" (font_size 8)))
		(line (pt 128 160)(pt 112 160))
	)
	(port
		(pt 128 176)
		(output)
		(text "eq9" (rect 0 0 28 16)(font "Arial" (font_size 8)))
		(text "eq9" (rect 88 168 116 184)(font "Arial" (font_size 8)))
		(line (pt 128 176)(pt 112 176))
	)
	(port
		(pt 128 192)
		(output)
		(text "eq10" (rect 0 0 37 16)(font "Arial" (font_size 8)))
		(text "eq10" (rect 81 184 118 200)(font "Arial" (font_size 8)))
		(line (pt 128 192)(pt 112 192))
	)
	(port
		(pt 128 208)
		(output)
		(text "eq11" (rect 0 0 37 16)(font "Arial" (font_size 8)))
		(text "eq11" (rect 82 200 119 216)(font "Arial" (font_size 8)))
		(line (pt 128 208)(pt 112 208))
	)
	(port
		(pt 128 224)
		(output)
		(text "eq12" (rect 0 0 37 16)(font "Arial" (font_size 8)))
		(text "eq12" (rect 81 216 118 232)(font "Arial" (font_size 8)))
		(line (pt 128 224)(pt 112 224))
	)
	(port
		(pt 128 240)
		(output)
		(text "eq13" (rect 0 0 37 16)(font "Arial" (font_size 8)))
		(text "eq13" (rect 81 232 118 248)(font "Arial" (font_size 8)))
		(line (pt 128 240)(pt 112 240))
	)
	(port
		(pt 128 256)
		(output)
		(text "eq14" (rect 0 0 37 16)(font "Arial" (font_size 8)))
		(text "eq14" (rect 81 248 118 264)(font "Arial" (font_size 8)))
		(line (pt 128 256)(pt 112 256))
	)
	(port
		(pt 128 272)
		(output)
		(text "eq15" (rect 0 0 37 16)(font "Arial" (font_size 8)))
		(text "eq15" (rect 81 264 118 280)(font "Arial" (font_size 8)))
		(line (pt 128 272)(pt 112 272))
	)
	(port
		(pt 128 288)
		(output)
		(text "eq16" (rect 0 0 37 16)(font "Arial" (font_size 8)))
		(text "eq16" (rect 81 280 118 296)(font "Arial" (font_size 8)))
		(line (pt 128 288)(pt 112 288))
	)
	(port
		(pt 128 304)
		(output)
		(text "eq17" (rect 0 0 37 16)(font "Arial" (font_size 8)))
		(text "eq17" (rect 81 296 118 312)(font "Arial" (font_size 8)))
		(line (pt 128 304)(pt 112 304))
	)
	(port
		(pt 128 320)
		(output)
		(text "eq18" (rect 0 0 37 16)(font "Arial" (font_size 8)))
		(text "eq18" (rect 81 312 118 328)(font "Arial" (font_size 8)))
		(line (pt 128 320)(pt 112 320))
	)
	(port
		(pt 128 336)
		(output)
		(text "eq19" (rect 0 0 37 16)(font "Arial" (font_size 8)))
		(text "eq19" (rect 81 328 118 344)(font "Arial" (font_size 8)))
		(line (pt 128 336)(pt 112 336))
	)
	(port
		(pt 128 352)
		(output)
		(text "eq20" (rect 0 0 37 16)(font "Arial" (font_size 8)))
		(text "eq20" (rect 81 344 118 360)(font "Arial" (font_size 8)))
		(line (pt 128 352)(pt 112 352))
	)
	(drawing
		(line (pt 16 16)(pt 16 368))
		(line (pt 16 16)(pt 112 16))
		(line (pt 16 368)(pt 112 368))
		(line (pt 112 16)(pt 112 368))
		(line (pt 0 0)(pt 130 0))
		(line (pt 130 0)(pt 130 386))
		(line (pt 0 386)(pt 130 386))
		(line (pt 0 0)(pt 0 386))
		(line (pt 0 0)(pt 0 0))
		(line (pt 0 0)(pt 0 0))
		(line (pt 0 0)(pt 0 0))
		(line (pt 0 0)(pt 0 0))
	)
)
(symbol
	(rect 824 160 888 208)
	(text "OR2" (rect 1 0 25 11)(font "Arial" (font_size 6)))
	(text "inst13" (rect 3 37 52 51)(font "Arial" ))
	(port
		(pt 0 32)
		(input)
		(text "IN2" (rect 2 23 19 37)(font "Courier New" (bold))(invisible))
		(text "IN2" (rect 2 23 19 37)(font "Courier New" (bold))(invisible))
		(line (pt 0 32)(pt 15 32))
	)
	(port
		(pt 0 16)
		(input)
		(text "IN1" (rect 2 7 19 21)(font "Courier New" (bold))(invisible))
		(text "IN1" (rect 2 7 19 21)(font "Courier New" (bold))(invisible))
		(line (pt 0 16)(pt 15 16))
	)
	(port
		(pt 64 24)
		(output)
		(text "OUT" (rect 48 15 65 29)(font "Courier New" (bold))(invisible))
		(text "OUT" (rect 48 15 65 29)(font "Courier New" (bold))(invisible))
		(line (pt 48 24)(pt 64 24))
	)
	(drawing
		(line (pt 14 36)(pt 25 36))
		(line (pt 14 13)(pt 25 13))
		(arc (pt 7 29)(pt 7 19)(rect -14 8 19 41))
		(arc (pt 49 24)(pt 25 13)(rect -6 13 57 76))
		(arc (pt 25 35)(pt 49 24)(rect -6 -27 57 36))
	)
)
(symbol
	(rect 664 536 728 584)
	(text "AND2" (rect 1 0 34 11)(font "Arial" (font_size 6)))
	(text "inst21" (rect 3 37 52 51)(font "Arial" ))
	(port
		(pt 0 16)
		(input)
		(text "IN1" (rect 2 7 19 21)(font "Courier New" (bold))(invisible))
		(text "IN1" (rect 2 7 19 21)(font "Courier New" (bold))(invisible))
		(line (pt 0 16)(pt 14 16))
	)
	(port
		(pt 0 32)
		(input)
		(text "IN2" (rect 2 23 19 37)(font "Courier New" (bold))(invisible))
		(text "IN2" (rect 2 23 19 37)(font "Courier New" (bold))(invisible))
		(line (pt 0 32)(pt 14 32))
	)
	(port
		(pt 64 24)
		(output)
		(text "OUT" (rect 48 15 65 29)(font "Courier New" (bold))(invisible))
		(text "OUT" (rect 48 15 65 29)(font "Courier New" (bold))(invisible))
		(line (pt 42 24)(pt 64 24))
	)
	(drawing
		(line (pt 14 12)(pt 30 12))
		(line (pt 14 37)(pt 31 37))
		(line (pt 14 12)(pt 14 37))
		(arc (pt 31 37)(pt 30 12)(rect 18 12 43 37))
	)
)
(symbol
	(rect 816 528 880 576)
	(text "OR2" (rect 1 0 25 11)(font "Arial" (font_size 6)))
	(text "inst22" (rect 3 37 52 51)(font "Arial" ))
	(port
		(pt 0 32)
		(input)
		(text "IN2" (rect 2 23 19 37)(font "Courier New" (bold))(invisible))
		(text "IN2" (rect 2 23 19 37)(font "Courier New" (bold))(invisible))
		(line (pt 0 32)(pt 15 32))
	)
	(port
		(pt 0 16)
		(input)
		(text "IN1" (rect 2 7 19 21)(font "Courier New" (bold))(invisible))
		(text "IN1" (rect 2 7 19 21)(font "Courier New" (bold))(invisible))
		(line (pt 0 16)(pt 15 16))
	)
	(port
		(pt 64 24)
		(output)
		(text "OUT" (rect 48 15 65 29)(font "Courier New" (bold))(invisible))
		(text "OUT" (rect 48 15 65 29)(font "Courier New" (bold))(invisible))
		(line (pt 48 24)(pt 64 24))
	)
	(drawing
		(line (pt 14 36)(pt 25 36))
		(line (pt 14 13)(pt 25 13))
		(arc (pt 7 29)(pt 7 19)(rect -14 8 19 41))
		(arc (pt 49 24)(pt 25 13)(rect -6 13 57 76))
		(arc (pt 25 35)(pt 49 24)(rect -6 -27 57 36))
	)
)
(symbol
	(rect 504 568 568 616)
	(text "OR3" (rect 1 0 25 11)(font "Arial" (font_size 6)))
	(text "inst23" (rect 3 37 52 51)(font "Arial" ))
	(port
		(pt 0 24)
		(input)
		(text "IN2" (rect 2 15 19 29)(font "Courier New" (bold))(invisible))
		(text "IN2" (rect 2 15 19 29)(font "Courier New" (bold))(invisible))
		(line (pt 0 24)(pt 18 24))
	)
	(port
		(pt 0 32)
		(input)
		(text "IN3" (rect 2 24 19 38)(font "Courier New" (bold))(invisible))
		(text "IN3" (rect 2 24 19 38)(font "Courier New" (bold))(invisible))
		(line (pt 0 32)(pt 16 32))
	)
	(port
		(pt 0 16)
		(input)
		(text "IN1" (rect 2 7 19 21)(font "Courier New" (bold))(invisible))
		(text "IN1" (rect 2 7 19 21)(font "Courier New" (bold))(invisible))
		(line (pt 0 16)(pt 16 16))
	)
	(port
		(pt 64 24)
		(output)
		(text "OUT" (rect 47 15 64 29)(font "Courier New" (bold))(invisible))
		(text "OUT" (rect 47 15 64 29)(font "Courier New" (bold))(invisible))
		(line (pt 49 24)(pt 64 24))
	)
	(drawing
		(line (pt 14 13)(pt 25 13))
		(line (pt 14 36)(pt 25 36))
		(arc (pt 7 29)(pt 7 19)(rect -14 8 19 41))
		(arc (pt 49 24)(pt 25 13)(rect -6 13 57 76))
		(arc (pt 25 35)(pt 49 24)(rect -6 -27 57 36))
	)
)
(symbol
	(rect 496 632 560 680)
	(text "AND2" (rect 1 0 34 11)(font "Arial" (font_size 6)))
	(text "inst24" (rect 3 37 52 51)(font "Arial" ))
	(port
		(pt 0 16)
		(input)
		(text "IN1" (rect 2 7 19 21)(font "Courier New" (bold))(invisible))
		(text "IN1" (rect 2 7 19 21)(font "Courier New" (bold))(invisible))
		(line (pt 0 16)(pt 14 16))
	)
	(port
		(pt 0 32)
		(input)
		(text "IN2" (rect 2 23 19 37)(font "Courier New" (bold))(invisible))
		(text "IN2" (rect 2 23 19 37)(font "Courier New" (bold))(invisible))
		(line (pt 0 32)(pt 14 32))
	)
	(port
		(pt 64 24)
		(output)
		(text "OUT" (rect 48 15 65 29)(font "Courier New" (bold))(invisible))
		(text "OUT" (rect 48 15 65 29)(font "Courier New" (bold))(invisible))
		(line (pt 42 24)(pt 64 24))
	)
	(drawing
		(line (pt 14 12)(pt 30 12))
		(line (pt 14 37)(pt 31 37))
		(line (pt 14 12)(pt 14 37))
		(arc (pt 31 37)(pt 30 12)(rect 18 12 43 37))
	)
)
(symbol
	(rect 672 624 736 672)
	(text "OR2" (rect 1 0 25 11)(font "Arial" (font_size 6)))
	(text "inst25" (rect 3 37 52 51)(font "Arial" ))
	(port
		(pt 0 32)
		(input)
		(text "IN2" (rect 2 23 19 37)(font "Courier New" (bold))(invisible))
		(text "IN2" (rect 2 23 19 37)(font "Courier New" (bold))(invisible))
		(line (pt 0 32)(pt 15 32))
	)
	(port
		(pt 0 16)
		(input)
		(text "IN1" (rect 2 7 19 21)(font "Courier New" (bold))(invisible))
		(text "IN1" (rect 2 7 19 21)(font "Courier New" (bold))(invisible))
		(line (pt 0 16)(pt 15 16))
	)
	(port
		(pt 64 24)
		(output)
		(text "OUT" (rect 48 15 65 29)(font "Courier New" (bold))(invisible))
		(text "OUT" (rect 48 15 65 29)(font "Courier New" (bold))(invisible))
		(line (pt 48 24)(pt 64 24))
	)
	(drawing
		(line (pt 14 36)(pt 25 36))
		(line (pt 14 13)(pt 25 13))
		(arc (pt 7 29)(pt 7 19)(rect -14 8 19 41))
		(arc (pt 49 24)(pt 25 13)(rect -6 13 57 76))
		(arc (pt 25 35)(pt 49 24)(rect -6 -27 57 36))
	)
)
(symbol
	(rect 824 784 888 832)
	(text "OR2" (rect 1 0 25 11)(font "Arial" (font_size 6)))
	(text "inst27" (rect 3 37 52 51)(font "Arial" ))
	(port
		(pt 0 32)
		(input)
		(text "IN2" (rect 2 23 19 37)(font "Courier New" (bold))(invisible))
		(text "IN2" (rect 2 23 19 37)(font "Courier New" (bold))(invisible))
		(line (pt 0 32)(pt 15 32))
	)
	(port
		(pt 0 16)
		(input)
		(text "IN1" (rect 2 7 19 21)(font "Courier New" (bold))(invisible))
		(text "IN1" (rect 2 7 19 21)(font "Courier New" (bold))(invisible))
		(line (pt 0 16)(pt 15 16))
	)
	(port
		(pt 64 24)
		(output)
		(text "OUT" (rect 48 15 65 29)(font "Courier New" (bold))(invisible))
		(text "OUT" (rect 48 15 65 29)(font "Courier New" (bold))(invisible))
		(line (pt 48 24)(pt 64 24))
	)
	(drawing
		(line (pt 14 36)(pt 25 36))
		(line (pt 14 13)(pt 25 13))
		(arc (pt 7 29)(pt 7 19)(rect -14 8 19 41))
		(arc (pt 49 24)(pt 25 13)(rect -6 13 57 76))
		(arc (pt 25 35)(pt 49 24)(rect -6 -27 57 36))
	)
)
(symbol
	(rect 824 872 888 920)
	(text "OR2" (rect 1 0 25 11)(font "Arial" (font_size 6)))
	(text "inst28" (rect 3 37 52 51)(font "Arial" ))
	(port
		(pt 0 32)
		(input)
		(text "IN2" (rect 2 23 19 37)(font "Courier New" (bold))(invisible))
		(text "IN2" (rect 2 23 19 37)(font "Courier New" (bold))(invisible))
		(line (pt 0 32)(pt 15 32))
	)
	(port
		(pt 0 16)
		(input)
		(text "IN1" (rect 2 7 19 21)(font "Courier New" (bold))(invisible))
		(text "IN1" (rect 2 7 19 21)(font "Courier New" (bold))(invisible))
		(line (pt 0 16)(pt 15 16))
	)
	(port
		(pt 64 24)
		(output)
		(text "OUT" (rect 48 15 65 29)(font "Courier New" (bold))(invisible))
		(text "OUT" (rect 48 15 65 29)(font "Courier New" (bold))(invisible))
		(line (pt 48 24)(pt 64 24))
	)
	(drawing
		(line (pt 14 36)(pt 25 36))
		(line (pt 14 13)(pt 25 13))
		(arc (pt 7 29)(pt 7 19)(rect -14 8 19 41))
		(arc (pt 49 24)(pt 25 13)(rect -6 13 57 76))
		(arc (pt 25 35)(pt 49 24)(rect -6 -27 57 36))
	)
)
(symbol
	(rect 1232 384 1296 432)
	(text "AND2" (rect 1 0 34 11)(font "Arial" (font_size 6)))
	(text "inst29" (rect 3 37 52 51)(font "Arial" ))
	(port
		(pt 0 16)
		(input)
		(text "IN1" (rect 2 7 19 21)(font "Courier New" (bold))(invisible))
		(text "IN1" (rect 2 7 19 21)(font "Courier New" (bold))(invisible))
		(line (pt 0 16)(pt 14 16))
	)
	(port
		(pt 0 32)
		(input)
		(text "IN2" (rect 2 23 19 37)(font "Courier New" (bold))(invisible))
		(text "IN2" (rect 2 23 19 37)(font "Courier New" (bold))(invisible))
		(line (pt 0 32)(pt 14 32))
	)
	(port
		(pt 64 24)
		(output)
		(text "OUT" (rect 48 15 65 29)(font "Courier New" (bold))(invisible))
		(text "OUT" (rect 48 15 65 29)(font "Courier New" (bold))(invisible))
		(line (pt 42 24)(pt 64 24))
	)
	(drawing
		(line (pt 14 12)(pt 30 12))
		(line (pt 14 37)(pt 31 37))
		(line (pt 14 12)(pt 14 37))
		(arc (pt 31 37)(pt 30 12)(rect 18 12 43 37))
	)
)
(symbol
	(rect 824 56 888 104)
	(text "AND2" (rect 1 0 34 11)(font "Arial" (font_size 6)))
	(text "inst30" (rect 3 37 52 51)(font "Arial" ))
	(port
		(pt 0 16)
		(input)
		(text "IN1" (rect 2 7 19 21)(font "Courier New" (bold))(invisible))
		(text "IN1" (rect 2 7 19 21)(font "Courier New" (bold))(invisible))
		(line (pt 0 16)(pt 14 16))
	)
	(port
		(pt 0 32)
		(input)
		(text "IN2" (rect 2 23 19 37)(font "Courier New" (bold))(invisible))
		(text "IN2" (rect 2 23 19 37)(font "Courier New" (bold))(invisible))
		(line (pt 0 32)(pt 14 32))
	)
	(port
		(pt 64 24)
		(output)
		(text "OUT" (rect 48 15 65 29)(font "Courier New" (bold))(invisible))
		(text "OUT" (rect 48 15 65 29)(font "Courier New" (bold))(invisible))
		(line (pt 42 24)(pt 64 24))
	)
	(drawing
		(line (pt 14 12)(pt 30 12))
		(line (pt 14 37)(pt 31 37))
		(line (pt 14 12)(pt 14 37))
		(arc (pt 31 37)(pt 30 12)(rect 18 12 43 37))
	)
)
(symbol
	(rect 712 184 776 232)
	(text "AND2" (rect 1 0 34 11)(font "Arial" (font_size 6)))
	(text "inst31" (rect 3 37 52 51)(font "Arial" ))
	(port
		(pt 0 16)
		(input)
		(text "IN1" (rect 2 7 19 21)(font "Courier New" (bold))(invisible))
		(text "IN1" (rect 2 7 19 21)(font "Courier New" (bold))(invisible))
		(line (pt 0 16)(pt 14 16))
	)
	(port
		(pt 0 32)
		(input)
		(text "IN2" (rect 2 23 19 37)(font "Courier New" (bold))(invisible))
		(text "IN2" (rect 2 23 19 37)(font "Courier New" (bold))(invisible))
		(line (pt 0 32)(pt 14 32))
	)
	(port
		(pt 64 24)
		(output)
		(text "OUT" (rect 48 15 65 29)(font "Courier New" (bold))(invisible))
		(text "OUT" (rect 48 15 65 29)(font "Courier New" (bold))(invisible))
		(line (pt 42 24)(pt 64 24))
	)
	(drawing
		(line (pt 14 12)(pt 30 12))
		(line (pt 14 37)(pt 31 37))
		(line (pt 14 12)(pt 14 37))
		(arc (pt 31 37)(pt 30 12)(rect 18 12 43 37))
	)
)
(symbol
	(rect 744 288 808 336)
	(text "OR3" (rect 1 0 25 11)(font "Arial" (font_size 6)))
	(text "inst18" (rect 3 37 52 51)(font "Arial" ))
	(port
		(pt 0 24)
		(input)
		(text "IN2" (rect 2 15 19 29)(font "Courier New" (bold))(invisible))
		(text "IN2" (rect 2 15 19 29)(font "Courier New" (bold))(invisible))
		(line (pt 0 24)(pt 18 24))
	)
	(port
		(pt 0 32)
		(input)
		(text "IN3" (rect 2 24 19 38)(font "Courier New" (bold))(invisible))
		(text "IN3" (rect 2 24 19 38)(font "Courier New" (bold))(invisible))
		(line (pt 0 32)(pt 16 32))
	)
	(port
		(pt 0 16)
		(input)
		(text "IN1" (rect 2 7 19 21)(font "Courier New" (bold))(invisible))
		(text "IN1" (rect 2 7 19 21)(font "Courier New" (bold))(invisible))
		(line (pt 0 16)(pt 16 16))
	)
	(port
		(pt 64 24)
		(output)
		(text "OUT" (rect 47 15 64 29)(font "Courier New" (bold))(invisible))
		(text "OUT" (rect 47 15 64 29)(font "Courier New" (bold))(invisible))
		(line (pt 49 24)(pt 64 24))
	)
	(drawing
		(line (pt 14 13)(pt 25 13))
		(line (pt 14 36)(pt 25 36))
		(arc (pt 7 29)(pt 7 19)(rect -14 8 19 41))
		(arc (pt 49 24)(pt 25 13)(rect -6 13 57 76))
		(arc (pt 25 35)(pt 49 24)(rect -6 -27 57 36))
	)
)
(symbol
	(rect 864 296 928 344)
	(text "AND2" (rect 1 0 34 11)(font "Arial" (font_size 6)))
	(text "inst32" (rect 3 37 52 51)(font "Arial" ))
	(port
		(pt 0 16)
		(input)
		(text "IN1" (rect 2 7 19 21)(font "Courier New" (bold))(invisible))
		(text "IN1" (rect 2 7 19 21)(font "Courier New" (bold))(invisible))
		(line (pt 0 16)(pt 14 16))
	)
	(port
		(pt 0 32)
		(input)
		(text "IN2" (rect 2 23 19 37)(font "Courier New" (bold))(invisible))
		(text "IN2" (rect 2 23 19 37)(font "Courier New" (bold))(invisible))
		(line (pt 0 32)(pt 14 32))
	)
	(port
		(pt 64 24)
		(output)
		(text "OUT" (rect 48 15 65 29)(font "Courier New" (bold))(invisible))
		(text "OUT" (rect 48 15 65 29)(font "Courier New" (bold))(invisible))
		(line (pt 42 24)(pt 64 24))
	)
	(drawing
		(line (pt 14 12)(pt 30 12))
		(line (pt 14 37)(pt 31 37))
		(line (pt 14 12)(pt 14 37))
		(arc (pt 31 37)(pt 30 12)(rect 18 12 43 37))
	)
)
(symbol
	(rect 392 504 456 552)
	(text "AND2" (rect 1 0 34 11)(font "Arial" (font_size 6)))
	(text "inst33" (rect 3 37 52 51)(font "Arial" ))
	(port
		(pt 0 16)
		(input)
		(text "IN1" (rect 2 7 19 21)(font "Courier New" (bold))(invisible))
		(text "IN1" (rect 2 7 19 21)(font "Courier New" (bold))(invisible))
		(line (pt 0 16)(pt 14 16))
	)
	(port
		(pt 0 32)
		(input)
		(text "IN2" (rect 2 23 19 37)(font "Courier New" (bold))(invisible))
		(text "IN2" (rect 2 23 19 37)(font "Courier New" (bold))(invisible))
		(line (pt 0 32)(pt 14 32))
	)
	(port
		(pt 64 24)
		(output)
		(text "OUT" (rect 48 15 65 29)(font "Courier New" (bold))(invisible))
		(text "OUT" (rect 48 15 65 29)(font "Courier New" (bold))(invisible))
		(line (pt 42 24)(pt 64 24))
	)
	(drawing
		(line (pt 14 12)(pt 30 12))
		(line (pt 14 37)(pt 31 37))
		(line (pt 14 12)(pt 14 37))
		(arc (pt 31 37)(pt 30 12)(rect 18 12 43 37))
	)
)
(symbol
	(rect 336 568 400 616)
	(text "AND2" (rect 1 0 34 11)(font "Arial" (font_size 6)))
	(text "inst34" (rect 3 37 52 51)(font "Arial" ))
	(port
		(pt 0 16)
		(input)
		(text "IN1" (rect 2 7 19 21)(font "Courier New" (bold))(invisible))
		(text "IN1" (rect 2 7 19 21)(font "Courier New" (bold))(invisible))
		(line (pt 0 16)(pt 14 16))
	)
	(port
		(pt 0 32)
		(input)
		(text "IN2" (rect 2 23 19 37)(font "Courier New" (bold))(invisible))
		(text "IN2" (rect 2 23 19 37)(font "Courier New" (bold))(invisible))
		(line (pt 0 32)(pt 14 32))
	)
	(port
		(pt 64 24)
		(output)
		(text "OUT" (rect 48 15 65 29)(font "Courier New" (bold))(invisible))
		(text "OUT" (rect 48 15 65 29)(font "Courier New" (bold))(invisible))
		(line (pt 42 24)(pt 64 24))
	)
	(drawing
		(line (pt 14 12)(pt 30 12))
		(line (pt 14 37)(pt 31 37))
		(line (pt 14 12)(pt 14 37))
		(arc (pt 31 37)(pt 30 12)(rect 18 12 43 37))
	)
)
(symbol
	(rect 656 760 720 808)
	(text "AND2" (rect 1 0 34 11)(font "Arial" (font_size 6)))
	(text "inst35" (rect 3 37 52 51)(font "Arial" ))
	(port
		(pt 0 16)
		(input)
		(text "IN1" (rect 2 7 19 21)(font "Courier New" (bold))(invisible))
		(text "IN1" (rect 2 7 19 21)(font "Courier New" (bold))(invisible))
		(line (pt 0 16)(pt 14 16))
	)
	(port
		(pt 0 32)
		(input)
		(text "IN2" (rect 2 23 19 37)(font "Courier New" (bold))(invisible))
		(text "IN2" (rect 2 23 19 37)(font "Courier New" (bold))(invisible))
		(line (pt 0 32)(pt 14 32))
	)
	(port
		(pt 64 24)
		(output)
		(text "OUT" (rect 48 15 65 29)(font "Courier New" (bold))(invisible))
		(text "OUT" (rect 48 15 65 29)(font "Courier New" (bold))(invisible))
		(line (pt 42 24)(pt 64 24))
	)
	(drawing
		(line (pt 14 12)(pt 30 12))
		(line (pt 14 37)(pt 31 37))
		(line (pt 14 12)(pt 14 37))
		(arc (pt 31 37)(pt 30 12)(rect 18 12 43 37))
	)
)
(symbol
	(rect 656 808 720 856)
	(text "AND2" (rect 1 0 34 11)(font "Arial" (font_size 6)))
	(text "inst36" (rect 3 37 52 51)(font "Arial" ))
	(port
		(pt 0 16)
		(input)
		(text "IN1" (rect 2 7 19 21)(font "Courier New" (bold))(invisible))
		(text "IN1" (rect 2 7 19 21)(font "Courier New" (bold))(invisible))
		(line (pt 0 16)(pt 14 16))
	)
	(port
		(pt 0 32)
		(input)
		(text "IN2" (rect 2 23 19 37)(font "Courier New" (bold))(invisible))
		(text "IN2" (rect 2 23 19 37)(font "Courier New" (bold))(invisible))
		(line (pt 0 32)(pt 14 32))
	)
	(port
		(pt 64 24)
		(output)
		(text "OUT" (rect 48 15 65 29)(font "Courier New" (bold))(invisible))
		(text "OUT" (rect 48 15 65 29)(font "Courier New" (bold))(invisible))
		(line (pt 42 24)(pt 64 24))
	)
	(drawing
		(line (pt 14 12)(pt 30 12))
		(line (pt 14 37)(pt 31 37))
		(line (pt 14 12)(pt 14 37))
		(arc (pt 31 37)(pt 30 12)(rect 18 12 43 37))
	)
)
(symbol
	(rect 648 888 712 936)
	(text "AND2" (rect 1 0 34 11)(font "Arial" (font_size 6)))
	(text "inst37" (rect 3 37 52 51)(font "Arial" ))
	(port
		(pt 0 16)
		(input)
		(text "IN1" (rect 2 7 19 21)(font "Courier New" (bold))(invisible))
		(text "IN1" (rect 2 7 19 21)(font "Courier New" (bold))(invisible))
		(line (pt 0 16)(pt 14 16))
	)
	(port
		(pt 0 32)
		(input)
		(text "IN2" (rect 2 23 19 37)(font "Courier New" (bold))(invisible))
		(text "IN2" (rect 2 23 19 37)(font "Courier New" (bold))(invisible))
		(line (pt 0 32)(pt 14 32))
	)
	(port
		(pt 64 24)
		(output)
		(text "OUT" (rect 48 15 65 29)(font "Courier New" (bold))(invisible))
		(text "OUT" (rect 48 15 65 29)(font "Courier New" (bold))(invisible))
		(line (pt 42 24)(pt 64 24))
	)
	(drawing
		(line (pt 14 12)(pt 30 12))
		(line (pt 14 37)(pt 31 37))
		(line (pt 14 12)(pt 14 37))
		(arc (pt 31 37)(pt 30 12)(rect 18 12 43 37))
	)
)
(symbol
	(rect 592 944 656 992)
	(text "AND2" (rect 1 0 34 11)(font "Arial" (font_size 6)))
	(text "inst38" (rect 3 37 52 51)(font "Arial" ))
	(port
		(pt 0 16)
		(input)
		(text "IN1" (rect 2 7 19 21)(font "Courier New" (bold))(invisible))
		(text "IN1" (rect 2 7 19 21)(font "Courier New" (bold))(invisible))
		(line (pt 0 16)(pt 14 16))
	)
	(port
		(pt 0 32)
		(input)
		(text "IN2" (rect 2 23 19 37)(font "Courier New" (bold))(invisible))
		(text "IN2" (rect 2 23 19 37)(font "Courier New" (bold))(invisible))
		(line (pt 0 32)(pt 14 32))
	)
	(port
		(pt 64 24)
		(output)
		(text "OUT" (rect 48 15 65 29)(font "Courier New" (bold))(invisible))
		(text "OUT" (rect 48 15 65 29)(font "Courier New" (bold))(invisible))
		(line (pt 42 24)(pt 64 24))
	)
	(drawing
		(line (pt 14 12)(pt 30 12))
		(line (pt 14 37)(pt 31 37))
		(line (pt 14 12)(pt 14 37))
		(arc (pt 31 37)(pt 30 12)(rect 18 12 43 37))
	)
)
(connector
	(text "VCC" (rect 256 403 270 427)(font "Arial" )(vertical))
	(pt 272 392)
	(pt 272 440)
)
(connector
	(text "GND" (rect 312 395 326 419)(font "Arial" )(vertical))
	(pt 328 432)
	(pt 328 384)
)
(connector
	(text "ready" (rect 280 88 321 102)(font "Arial" ))
	(pt 272 104)
	(pt 320 104)
)
(connector
	(text "strt" (rect 289 112 322 126)(font "Arial" ))
	(pt 272 128)
	(pt 312 128)
)
(connector
	(pt 1128 272)
	(pt 1136 272)
)
(connector
	(pt 1016 96)
	(pt 1136 96)
)
(connector
	(pt 1032 112)
	(pt 1136 112)
)
(connector
	(pt 1056 160)
	(pt 1136 160)
)
(connector
	(pt 1048 144)
	(pt 1136 144)
)
(connector
	(pt 1040 128)
	(pt 1136 128)
)
(connector
	(pt 1072 192)
	(pt 1136 192)
)
(connector
	(pt 1064 176)
	(pt 1136 176)
)
(connector
	(pt 1080 208)
	(pt 1136 208)
)
(connector
	(pt 1096 240)
	(pt 1136 240)
)
(connector
	(pt 1088 224)
	(pt 1136 224)
)
(connector
	(pt 1104 256)
	(pt 1136 256)
)
(connector
	(pt 1032 112)
	(pt 1032 192)
)
(connector
	(pt 1016 192)
	(pt 1032 192)
)
(connector
	(pt 1040 128)
	(pt 1040 288)
)
(connector
	(pt 1040 288)
	(pt 1016 288)
)
(connector
	(pt 1048 144)
	(pt 1048 376)
)
(connector
	(pt 1016 376)
	(pt 1048 376)
)
(connector
	(pt 1056 464)
	(pt 1016 464)
)
(connector
	(pt 1056 160)
	(pt 1056 464)
)
(connector
	(pt 1064 176)
	(pt 1064 568)
)
(connector
	(pt 1016 568)
	(pt 1064 568)
)
(connector
	(pt 1088 224)
	(pt 1088 816)
)
(connector
	(pt 1096 240)
	(pt 1096 904)
)
(connector
	(pt 1104 256)
	(pt 1104 992)
)
(connector
	(pt 1016 656)
	(pt 1072 656)
)
(connector
	(pt 1016 736)
	(pt 1080 736)
)
(connector
	(pt 1016 816)
	(pt 1088 816)
)
(connector
	(pt 1016 904)
	(pt 1096 904)
)
(connector
	(pt 1016 992)
	(pt 1104 992)
)
(connector
	(pt 952 104)
	(pt 944 104)
)
(connector
	(pt 944 136)
	(pt 944 104)
)
(connector
	(text "cmnd[0]" (rect 964 120 1021 134)(font "Arial" ))
	(pt 944 136)
	(pt 1008 136)
)
(connector
	(pt 952 200)
	(pt 944 200)
)
(connector
	(pt 944 232)
	(pt 944 200)
)
(connector
	(pt 952 296)
	(pt 944 296)
)
(connector
	(pt 944 328)
	(pt 944 296)
)
(connector
	(pt 952 384)
	(pt 944 384)
)
(connector
	(pt 944 416)
	(pt 944 384)
)
(connector
	(pt 952 472)
	(pt 944 472)
)
(connector
	(pt 944 504)
	(pt 944 472)
)
(connector
	(pt 952 576)
	(pt 944 576)
)
(connector
	(pt 944 608)
	(pt 944 576)
)
(connector
	(pt 952 664)
	(pt 944 664)
)
(connector
	(pt 944 696)
	(pt 944 664)
)
(connector
	(pt 952 744)
	(pt 944 744)
)
(connector
	(pt 944 776)
	(pt 944 744)
)
(connector
	(pt 952 912)
	(pt 944 912)
)
(connector
	(pt 944 944)
	(pt 944 912)
)
(connector
	(pt 952 1000)
	(pt 944 1000)
)
(connector
	(pt 944 1032)
	(pt 944 1000)
)
(connector
	(text "cmnd[1]" (rect 964 216 1021 230)(font "Arial" ))
	(pt 944 232)
	(pt 1008 232)
)
(connector
	(text "cmnd[2]" (rect 964 312 1021 326)(font "Arial" ))
	(pt 944 328)
	(pt 1008 328)
)
(connector
	(text "cmnd[3]" (rect 964 400 1021 414)(font "Arial" ))
	(pt 944 416)
	(pt 1008 416)
)
(connector
	(text "cmnd[4]" (rect 964 488 1021 502)(font "Arial" ))
	(pt 944 504)
	(pt 1008 504)
)
(connector
	(text "cmnd[5]" (rect 964 592 1021 606)(font "Arial" ))
	(pt 944 608)
	(pt 1008 608)
)
(connector
	(text "cmnd[6]" (rect 964 680 1021 694)(font "Arial" ))
	(pt 944 696)
	(pt 1008 696)
)
(connector
	(text "cmnd[7]" (rect 964 760 1021 774)(font "Arial" ))
	(pt 944 776)
	(pt 1008 776)
)
(connector
	(pt 952 824)
	(pt 944 824)
)
(connector
	(pt 944 856)
	(pt 944 824)
)
(connector
	(text "cmnd[8]" (rect 964 840 1021 854)(font "Arial" ))
	(pt 944 856)
	(pt 1008 856)
)
(connector
	(text "cmnd[9]" (rect 964 928 1021 942)(font "Arial" ))
	(pt 944 944)
	(pt 1008 944)
)
(connector
	(text "cmnd[10]" (rect 964 1016 1030 1030)(font "Arial" ))
	(pt 944 1032)
	(pt 1008 1032)
)
(connector
	(pt 1360 296)
	(pt 1360 408)
)
(connector
	(text "GND" (rect 904 968 928 982)(font "Arial" ))
	(pt 952 984)
	(pt 896 984)
)
(connector
	(text "cmnd[10..0]" (rect 284 136 374 150)(font "Arial" ))
	(pt 272 152)
	(pt 312 152)
	(bus)
)
(connector
	(pt 1128 272)
	(pt 1128 296)
)
(connector
	(text "Cntr[4..0]" (rect 270 240 352 254)(font "Arial" ))
	(pt 232 256)
	(pt 448 256)
	(bus)
)
(connector
	(text "T0" (rect 584 80 600 94)(font "Arial" ))
	(pt 576 96)
	(pt 624 96)
)
(connector
	(text "T1" (rect 584 96 600 110)(font "Arial" ))
	(pt 576 112)
	(pt 624 112)
)
(connector
	(text "T2" (rect 584 112 600 126)(font "Arial" ))
	(pt 576 128)
	(pt 624 128)
)
(connector
	(text "T3" (rect 585 128 601 142)(font "Arial" ))
	(pt 576 144)
	(pt 624 144)
)
(connector
	(text "T4" (rect 584 144 600 158)(font "Arial" ))
	(pt 576 160)
	(pt 624 160)
)
(connector
	(text "T5" (rect 584 160 600 174)(font "Arial" ))
	(pt 576 176)
	(pt 624 176)
)
(connector
	(text "T6" (rect 584 176 600 190)(font "Arial" ))
	(pt 576 192)
	(pt 624 192)
)
(connector
	(text "T7" (rect 585 192 601 206)(font "Arial" ))
	(pt 576 208)
	(pt 624 208)
)
(connector
	(text "T8" (rect 584 208 600 222)(font "Arial" ))
	(pt 576 224)
	(pt 624 224)
)
(connector
	(text "T9" (rect 584 224 600 238)(font "Arial" ))
	(pt 576 240)
	(pt 624 240)
)
(connector
	(text "T10" (rect 584 240 608 254)(font "Arial" ))
	(pt 576 256)
	(pt 624 256)
)
(connector
	(text "T11" (rect 585 256 609 270)(font "Arial" ))
	(pt 576 272)
	(pt 624 272)
)
(connector
	(text "T12" (rect 584 272 608 286)(font "Arial" ))
	(pt 576 288)
	(pt 624 288)
)
(connector
	(text "T13" (rect 584 288 608 302)(font "Arial" ))
	(pt 576 304)
	(pt 624 304)
)
(connector
	(text "T14" (rect 584 304 608 318)(font "Arial" ))
	(pt 576 320)
	(pt 624 320)
)
(connector
	(text "T15" (rect 585 320 609 334)(font "Arial" ))
	(pt 576 336)
	(pt 624 336)
)
(connector
	(text "T16" (rect 585 336 609 350)(font "Arial" ))
	(pt 576 352)
	(pt 624 352)
)
(connector
	(text "T17" (rect 584 352 608 366)(font "Arial" ))
	(pt 576 368)
	(pt 624 368)
)
(connector
	(text "T18" (rect 584 368 608 382)(font "Arial" ))
	(pt 576 384)
	(pt 624 384)
)
(connector
	(text "T19" (rect 584 384 608 398)(font "Arial" ))
	(pt 576 400)
	(pt 624 400)
)
(connector
	(text "T20" (rect 585 400 609 414)(font "Arial" ))
	(pt 576 416)
	(pt 624 416)
)
(connector
	(pt 1080 208)
	(pt 1080 736)
)
(connector
	(pt 1128 296)
	(pt 1360 296)
)
(connector
	(pt 1072 192)
	(pt 1072 656)
)
(connector
	(pt 1288 184)
	(pt 1200 184)
)
(connector
	(text "T14" (rect 608 536 632 550)(font "Arial" ))
	(pt 600 552)
	(pt 664 552)
)
(connector
	(text "ready" (rect 608 552 649 566)(font "Arial" ))
	(pt 664 568)
	(pt 600 568)
)
(connector
	(pt 728 560)
	(pt 816 560)
)
(connector
	(text "<<__$DEF_ALIAS160215>>" (rect 904 544 1085 558)(font "Arial" )(invisible))
	(pt 880 560)
	(pt 952 560)
)
(connector
	(pt 880 560)
	(pt 880 552)
)
(connector
	(pt 576 592)
	(pt 568 592)
)
(connector
	(text "GND" (rect 424 584 448 598)(font "Arial" ))
	(pt 416 600)
	(pt 504 600)
)
(connector
	(pt 576 640)
	(pt 672 640)
)
(connector
	(text "ready" (rect 440 648 481 662)(font "Arial" ))
	(pt 496 664)
	(pt 432 664)
)
(connector
	(text "T9" (rect 440 632 456 646)(font "Arial" ))
	(pt 432 648)
	(pt 496 648)
)
(connector
	(pt 560 656)
	(pt 672 656)
)
(connector
	(text "<<__$DEF_ALIAS5855>>" (rect 872 632 1037 646)(font "Arial" )(invisible))
	(pt 736 648)
	(pt 952 648)
)
(connector
	(text "<<__$DEF_ALIAS16150>>" (rect 904 792 1077 806)(font "Arial" )(invisible))
	(pt 888 808)
	(pt 952 808)
)
(connector
	(text "<<__$DEF_ALIAS17401>>" (rect 904 880 1077 894)(font "Arial" )(invisible))
	(pt 888 896)
	(pt 952 896)
)
(connector
	(text "arldd" (rect 280 160 321 174)(font "Arial" ))
	(pt 272 176)
	(pt 328 176)
)
(connector
	(text "T0" (rect 1184 384 1200 398)(font "Arial" ))
	(pt 1232 400)
	(pt 1176 400)
)
(connector
	(text "arldd" (rect 1160 400 1201 414)(font "Arial" ))
	(pt 1232 416)
	(pt 1152 416)
)
(connector
	(text "<<__$DEF_ALIAS8025>>" (rect 1310 392 1475 406)(font "Arial" )(invisible))
	(pt 1296 408)
	(pt 1360 408)
)
(connector
	(text "arldd" (rect 752 72 793 86)(font "Arial" ))
	(pt 824 88)
	(pt 744 88)
)
(connector
	(pt 952 80)
	(pt 952 88)
)
(connector
	(text "T3" (rect 776 56 792 70)(font "Arial" ))
	(pt 824 72)
	(pt 768 72)
)
(connector
	(pt 896 144)
	(pt 896 80)
)
(connector
	(pt 896 144)
	(pt 808 144)
)
(connector
	(pt 888 80)
	(pt 896 80)
)
(connector
	(pt 896 80)
	(pt 952 80)
)
(connector
	(pt 824 176)
	(pt 808 176)
)
(connector
	(pt 808 176)
	(pt 808 144)
)
(connector
	(text "arldd" (rect 640 200 681 214)(font "Arial" ))
	(pt 712 216)
	(pt 632 216)
)
(connector
	(pt 784 192)
	(pt 784 208)
)
(connector
	(pt 784 208)
	(pt 776 208)
)
(connector
	(text "T6" (rect 664 184 680 198)(font "Arial" ))
	(pt 712 200)
	(pt 656 200)
)
(connector
	(pt 784 192)
	(pt 824 192)
)
(connector
	(text "<<__$DEF_ALIAS136152>>" (rect 904 264 1085 278)(font "Arial" )(invisible))
	(pt 920 280)
	(pt 952 280)
)
(connector
	(pt 920 280)
	(pt 920 184)
)
(connector
	(pt 952 184)
	(pt 920 184)
)
(connector
	(text "<<__$DEF_ALIAS125522>>" (rect 960 168 1141 182)(font "Arial" )(invisible))
	(pt 920 184)
	(pt 888 184)
)
(connector
	(text "T6" (rect 696 296 712 310)(font "Arial" ))
	(pt 744 312)
	(pt 688 312)
)
(connector
	(text "T3" (rect 696 288 712 302)(font "Arial" ))
	(pt 688 304)
	(pt 744 304)
)
(connector
	(text "T12" (rect 664 304 688 318)(font "Arial" ))
	(pt 656 320)
	(pt 744 320)
)
(connector
	(pt 808 312)
	(pt 864 312)
)
(connector
	(text "arldd" (rect 832 312 873 326)(font "Arial" ))
	(pt 824 328)
	(pt 864 328)
)
(connector
	(pt 928 320)
	(pt 936 320)
)
(connector
	(pt 936 320)
	(pt 936 368)
)
(connector
	(pt 928 368)
	(pt 928 456)
)
(connector
	(pt 928 368)
	(pt 936 368)
)
(connector
	(text "<<__$DEF_ALIAS138413>>" (rect 920 352 1101 366)(font "Arial" )(invisible))
	(pt 936 368)
	(pt 952 368)
)
(connector
	(pt 792 456)
	(pt 928 456)
)
(connector
	(text "<<__$DEF_ALIAS149724>>" (rect 904 440 1085 454)(font "Arial" )(invisible))
	(pt 928 456)
	(pt 952 456)
)
(connector
	(pt 816 544)
	(pt 792 544)
)
(connector
	(pt 792 544)
	(pt 792 456)
)
(connector
	(text "arldd" (rect 320 520 361 534)(font "Arial" ))
	(pt 392 536)
	(pt 312 536)
)
(connector
	(text "T3" (rect 344 504 360 518)(font "Arial" ))
	(pt 392 520)
	(pt 336 520)
)
(connector
	(pt 504 584)
	(pt 496 584)
)
(connector
	(pt 496 584)
	(pt 496 528)
)
(connector
	(pt 456 528)
	(pt 496 528)
)
(connector
	(text "<<__$DEF_ALIAS13885>>" (rect 480 576 653 590)(font "Arial" )(invisible))
	(pt 504 592)
	(pt 400 592)
)
(connector
	(text "T7" (rect 296 568 312 582)(font "Arial" ))
	(pt 336 584)
	(pt 288 584)
)
(connector
	(text "arldd" (rect 296 584 337 598)(font "Arial" ))
	(pt 336 600)
	(pt 288 600)
)
(connector
	(pt 576 592)
	(pt 576 640)
)
(connector
	(pt 576 640)
	(pt 576 728)
)
(connector
	(text "<<__$DEF_ALIAS14868>>" (rect 904 712 1077 726)(font "Arial" )(invisible))
	(pt 576 728)
	(pt 952 728)
)
(connector
	(text "arldd" (rect 584 776 625 790)(font "Arial" ))
	(pt 656 792)
	(pt 576 792)
)
(connector
	(text "T4" (rect 608 760 624 774)(font "Arial" ))
	(pt 656 776)
	(pt 600 776)
)
(connector
	(text "<<__$DEF_ALIAS21550>>" (rect 776 800 949 814)(font "Arial" )(invisible))
	(pt 768 816)
	(pt 824 816)
)
(connector
	(text "T7" (rect 616 808 632 822)(font "Arial" ))
	(pt 656 824)
	(pt 608 824)
)
(connector
	(text "arldd" (rect 616 824 657 838)(font "Arial" ))
	(pt 656 840)
	(pt 608 840)
)
(connector
	(pt 720 832)
	(pt 768 832)
)
(connector
	(pt 768 832)
	(pt 768 816)
)
(connector
	(text "<<__$DEF_ALIAS21552>>" (rect 776 784 949 798)(font "Arial" )(invisible))
	(pt 824 800)
	(pt 784 800)
)
(connector
	(pt 720 784)
	(pt 784 784)
)
(connector
	(pt 784 784)
	(pt 784 800)
)
(connector
	(text "arldd" (rect 576 904 617 918)(font "Arial" ))
	(pt 568 920)
	(pt 648 920)
)
(connector
	(text "arldd" (rect 552 960 593 974)(font "Arial" ))
	(pt 544 976)
	(pt 592 976)
)
(connector
	(text "T3" (rect 600 888 616 902)(font "Arial" ))
	(pt 592 904)
	(pt 648 904)
)
(connector
	(text "T6" (rect 552 944 568 958)(font "Arial" ))
	(pt 544 960)
	(pt 592 960)
)
(connector
	(pt 656 968)
	(pt 720 968)
)
(connector
	(pt 720 936)
	(pt 720 968)
)
(connector
	(pt 720 936)
	(pt 768 936)
)
(connector
	(pt 768 904)
	(pt 768 936)
)
(connector
	(pt 720 888)
	(pt 720 912)
)
(connector
	(pt 712 912)
	(pt 720 912)
)
(connector
	(text "<<__$DEF_ALIAS22674>>" (rect 776 872 949 886)(font "Arial" )(invisible))
	(pt 720 888)
	(pt 824 888)
)
(connector
	(text "<<__$DEF_ALIAS22676>>" (rect 776 888 949 902)(font "Arial" )(invisible))
	(pt 768 904)
	(pt 824 904)
)
(junction (pt 896 80))
(junction (pt 920 184))
(junction (pt 936 368))
(junction (pt 928 456))
(junction (pt 576 640))
