{
	"partitions" : [
		{
			"name" : "Top",
			"pins" : [
				{
					"name" : "TS0",
					"strict" : false
				},
				{
					"name" : "ready",
					"strict" : false
				},
				{
					"name" : "Mem_out[31]",
					"strict" : false
				},
				{
					"name" : "Mem_out[30]",
					"strict" : false
				},
				{
					"name" : "Mem_out[29]",
					"strict" : false
				},
				{
					"name" : "Mem_out[28]",
					"strict" : false
				},
				{
					"name" : "Mem_out[27]",
					"strict" : false
				},
				{
					"name" : "Mem_out[26]",
					"strict" : false
				},
				{
					"name" : "Mem_out[25]",
					"strict" : false
				},
				{
					"name" : "Mem_out[24]",
					"strict" : false
				},
				{
					"name" : "Mem_out[23]",
					"strict" : false
				},
				{
					"name" : "Mem_out[22]",
					"strict" : false
				},
				{
					"name" : "Mem_out[21]",
					"strict" : false
				},
				{
					"name" : "Mem_out[20]",
					"strict" : false
				},
				{
					"name" : "Mem_out[19]",
					"strict" : false
				},
				{
					"name" : "Mem_out[18]",
					"strict" : false
				},
				{
					"name" : "Mem_out[17]",
					"strict" : false
				},
				{
					"name" : "Mem_out[16]",
					"strict" : false
				},
				{
					"name" : "Mem_out[15]",
					"strict" : false
				},
				{
					"name" : "Mem_out[14]",
					"strict" : false
				},
				{
					"name" : "Mem_out[13]",
					"strict" : false
				},
				{
					"name" : "Mem_out[12]",
					"strict" : false
				},
				{
					"name" : "Mem_out[11]",
					"strict" : false
				},
				{
					"name" : "Mem_out[10]",
					"strict" : false
				},
				{
					"name" : "Mem_out[9]",
					"strict" : false
				},
				{
					"name" : "Mem_out[8]",
					"strict" : false
				},
				{
					"name" : "Mem_out[7]",
					"strict" : false
				},
				{
					"name" : "Mem_out[6]",
					"strict" : false
				},
				{
					"name" : "Mem_out[5]",
					"strict" : false
				},
				{
					"name" : "Mem_out[4]",
					"strict" : false
				},
				{
					"name" : "Mem_out[3]",
					"strict" : false
				},
				{
					"name" : "Mem_out[2]",
					"strict" : false
				},
				{
					"name" : "Mem_out[1]",
					"strict" : false
				},
				{
					"name" : "Mem_out[0]",
					"strict" : false
				},
				{
					"name" : "TS1",
					"strict" : false
				},
				{
					"name" : "cinc",
					"strict" : false
				},
				{
					"name" : "start",
					"strict" : false
				},
				{
					"name" : "rawantadan",
					"strict" : false
				},
				{
					"name" : "acld",
					"strict" : false
				},
				{
					"name" : "cntr_clrn",
					"strict" : false
				},
				{
					"name" : "AC_out[31]",
					"strict" : false
				},
				{
					"name" : "AC_out[30]",
					"strict" : false
				},
				{
					"name" : "AC_out[29]",
					"strict" : false
				},
				{
					"name" : "AC_out[28]",
					"strict" : false
				},
				{
					"name" : "AC_out[27]",
					"strict" : false
				},
				{
					"name" : "AC_out[26]",
					"strict" : false
				},
				{
					"name" : "AC_out[25]",
					"strict" : false
				},
				{
					"name" : "AC_out[24]",
					"strict" : false
				},
				{
					"name" : "AC_out[23]",
					"strict" : false
				},
				{
					"name" : "AC_out[22]",
					"strict" : false
				},
				{
					"name" : "AC_out[21]",
					"strict" : false
				},
				{
					"name" : "AC_out[20]",
					"strict" : false
				},
				{
					"name" : "AC_out[19]",
					"strict" : false
				},
				{
					"name" : "AC_out[18]",
					"strict" : false
				},
				{
					"name" : "AC_out[17]",
					"strict" : false
				},
				{
					"name" : "AC_out[16]",
					"strict" : false
				},
				{
					"name" : "AC_out[15]",
					"strict" : false
				},
				{
					"name" : "AC_out[14]",
					"strict" : false
				},
				{
					"name" : "AC_out[13]",
					"strict" : false
				},
				{
					"name" : "AC_out[12]",
					"strict" : false
				},
				{
					"name" : "AC_out[11]",
					"strict" : false
				},
				{
					"name" : "AC_out[10]",
					"strict" : false
				},
				{
					"name" : "AC_out[9]",
					"strict" : false
				},
				{
					"name" : "AC_out[8]",
					"strict" : false
				},
				{
					"name" : "AC_out[7]",
					"strict" : false
				},
				{
					"name" : "AC_out[6]",
					"strict" : false
				},
				{
					"name" : "AC_out[5]",
					"strict" : false
				},
				{
					"name" : "AC_out[4]",
					"strict" : false
				},
				{
					"name" : "AC_out[3]",
					"strict" : false
				},
				{
					"name" : "AC_out[2]",
					"strict" : false
				},
				{
					"name" : "AC_out[1]",
					"strict" : false
				},
				{
					"name" : "AC_out[0]",
					"strict" : false
				},
				{
					"name" : "Address_out[15]",
					"strict" : false
				},
				{
					"name" : "Address_out[14]",
					"strict" : false
				},
				{
					"name" : "Address_out[13]",
					"strict" : false
				},
				{
					"name" : "Address_out[12]",
					"strict" : false
				},
				{
					"name" : "Address_out[11]",
					"strict" : false
				},
				{
					"name" : "Address_out[10]",
					"strict" : false
				},
				{
					"name" : "Address_out[9]",
					"strict" : false
				},
				{
					"name" : "Address_out[8]",
					"strict" : false
				},
				{
					"name" : "Address_out[7]",
					"strict" : false
				},
				{
					"name" : "Address_out[6]",
					"strict" : false
				},
				{
					"name" : "Address_out[5]",
					"strict" : false
				},
				{
					"name" : "Address_out[4]",
					"strict" : false
				},
				{
					"name" : "Address_out[3]",
					"strict" : false
				},
				{
					"name" : "Address_out[2]",
					"strict" : false
				},
				{
					"name" : "Address_out[1]",
					"strict" : false
				},
				{
					"name" : "Address_out[0]",
					"strict" : false
				},
				{
					"name" : "ALU_B_entry[31]",
					"strict" : false
				},
				{
					"name" : "ALU_B_entry[30]",
					"strict" : false
				},
				{
					"name" : "ALU_B_entry[29]",
					"strict" : false
				},
				{
					"name" : "ALU_B_entry[28]",
					"strict" : false
				},
				{
					"name" : "ALU_B_entry[27]",
					"strict" : false
				},
				{
					"name" : "ALU_B_entry[26]",
					"strict" : false
				},
				{
					"name" : "ALU_B_entry[25]",
					"strict" : false
				},
				{
					"name" : "ALU_B_entry[24]",
					"strict" : false
				},
				{
					"name" : "ALU_B_entry[23]",
					"strict" : false
				},
				{
					"name" : "ALU_B_entry[22]",
					"strict" : false
				},
				{
					"name" : "ALU_B_entry[21]",
					"strict" : false
				},
				{
					"name" : "ALU_B_entry[20]",
					"strict" : false
				},
				{
					"name" : "ALU_B_entry[19]",
					"strict" : false
				},
				{
					"name" : "ALU_B_entry[18]",
					"strict" : false
				},
				{
					"name" : "ALU_B_entry[17]",
					"strict" : false
				},
				{
					"name" : "ALU_B_entry[16]",
					"strict" : false
				},
				{
					"name" : "ALU_B_entry[15]",
					"strict" : false
				},
				{
					"name" : "ALU_B_entry[14]",
					"strict" : false
				},
				{
					"name" : "ALU_B_entry[13]",
					"strict" : false
				},
				{
					"name" : "ALU_B_entry[12]",
					"strict" : false
				},
				{
					"name" : "ALU_B_entry[11]",
					"strict" : false
				},
				{
					"name" : "ALU_B_entry[10]",
					"strict" : false
				},
				{
					"name" : "ALU_B_entry[9]",
					"strict" : false
				},
				{
					"name" : "ALU_B_entry[8]",
					"strict" : false
				},
				{
					"name" : "ALU_B_entry[7]",
					"strict" : false
				},
				{
					"name" : "ALU_B_entry[6]",
					"strict" : false
				},
				{
					"name" : "ALU_B_entry[5]",
					"strict" : false
				},
				{
					"name" : "ALU_B_entry[4]",
					"strict" : false
				},
				{
					"name" : "ALU_B_entry[3]",
					"strict" : false
				},
				{
					"name" : "ALU_B_entry[2]",
					"strict" : false
				},
				{
					"name" : "ALU_B_entry[1]",
					"strict" : false
				},
				{
					"name" : "ALU_B_entry[0]",
					"strict" : false
				},
				{
					"name" : "ALU_out[31]",
					"strict" : false
				},
				{
					"name" : "ALU_out[30]",
					"strict" : false
				},
				{
					"name" : "ALU_out[29]",
					"strict" : false
				},
				{
					"name" : "ALU_out[28]",
					"strict" : false
				},
				{
					"name" : "ALU_out[27]",
					"strict" : false
				},
				{
					"name" : "ALU_out[26]",
					"strict" : false
				},
				{
					"name" : "ALU_out[25]",
					"strict" : false
				},
				{
					"name" : "ALU_out[24]",
					"strict" : false
				},
				{
					"name" : "ALU_out[23]",
					"strict" : false
				},
				{
					"name" : "ALU_out[22]",
					"strict" : false
				},
				{
					"name" : "ALU_out[21]",
					"strict" : false
				},
				{
					"name" : "ALU_out[20]",
					"strict" : false
				},
				{
					"name" : "ALU_out[19]",
					"strict" : false
				},
				{
					"name" : "ALU_out[18]",
					"strict" : false
				},
				{
					"name" : "ALU_out[17]",
					"strict" : false
				},
				{
					"name" : "ALU_out[16]",
					"strict" : false
				},
				{
					"name" : "ALU_out[15]",
					"strict" : false
				},
				{
					"name" : "ALU_out[14]",
					"strict" : false
				},
				{
					"name" : "ALU_out[13]",
					"strict" : false
				},
				{
					"name" : "ALU_out[12]",
					"strict" : false
				},
				{
					"name" : "ALU_out[11]",
					"strict" : false
				},
				{
					"name" : "ALU_out[10]",
					"strict" : false
				},
				{
					"name" : "ALU_out[9]",
					"strict" : false
				},
				{
					"name" : "ALU_out[8]",
					"strict" : false
				},
				{
					"name" : "ALU_out[7]",
					"strict" : false
				},
				{
					"name" : "ALU_out[6]",
					"strict" : false
				},
				{
					"name" : "ALU_out[5]",
					"strict" : false
				},
				{
					"name" : "ALU_out[4]",
					"strict" : false
				},
				{
					"name" : "ALU_out[3]",
					"strict" : false
				},
				{
					"name" : "ALU_out[2]",
					"strict" : false
				},
				{
					"name" : "ALU_out[1]",
					"strict" : false
				},
				{
					"name" : "ALU_out[0]",
					"strict" : false
				},
				{
					"name" : "Buss[31]",
					"strict" : false
				},
				{
					"name" : "Buss[30]",
					"strict" : false
				},
				{
					"name" : "Buss[29]",
					"strict" : false
				},
				{
					"name" : "Buss[28]",
					"strict" : false
				},
				{
					"name" : "Buss[27]",
					"strict" : false
				},
				{
					"name" : "Buss[26]",
					"strict" : false
				},
				{
					"name" : "Buss[25]",
					"strict" : false
				},
				{
					"name" : "Buss[24]",
					"strict" : false
				},
				{
					"name" : "Buss[23]",
					"strict" : false
				},
				{
					"name" : "Buss[22]",
					"strict" : false
				},
				{
					"name" : "Buss[21]",
					"strict" : false
				},
				{
					"name" : "Buss[20]",
					"strict" : false
				},
				{
					"name" : "Buss[19]",
					"strict" : false
				},
				{
					"name" : "Buss[18]",
					"strict" : false
				},
				{
					"name" : "Buss[17]",
					"strict" : false
				},
				{
					"name" : "Buss[16]",
					"strict" : false
				},
				{
					"name" : "Buss[15]",
					"strict" : false
				},
				{
					"name" : "Buss[14]",
					"strict" : false
				},
				{
					"name" : "Buss[13]",
					"strict" : false
				},
				{
					"name" : "Buss[12]",
					"strict" : false
				},
				{
					"name" : "Buss[11]",
					"strict" : false
				},
				{
					"name" : "Buss[10]",
					"strict" : false
				},
				{
					"name" : "Buss[9]",
					"strict" : false
				},
				{
					"name" : "Buss[8]",
					"strict" : false
				},
				{
					"name" : "Buss[7]",
					"strict" : false
				},
				{
					"name" : "Buss[6]",
					"strict" : false
				},
				{
					"name" : "Buss[5]",
					"strict" : false
				},
				{
					"name" : "Buss[4]",
					"strict" : false
				},
				{
					"name" : "Buss[3]",
					"strict" : false
				},
				{
					"name" : "Buss[2]",
					"strict" : false
				},
				{
					"name" : "Buss[1]",
					"strict" : false
				},
				{
					"name" : "Buss[0]",
					"strict" : false
				},
				{
					"name" : "Busselect[2]",
					"strict" : false
				},
				{
					"name" : "Busselect[1]",
					"strict" : false
				},
				{
					"name" : "Busselect[0]",
					"strict" : false
				},
				{
					"name" : "Cntr[4]",
					"strict" : false
				},
				{
					"name" : "Cntr[3]",
					"strict" : false
				},
				{
					"name" : "Cntr[2]",
					"strict" : false
				},
				{
					"name" : "Cntr[1]",
					"strict" : false
				},
				{
					"name" : "Cntr[0]",
					"strict" : false
				},
				{
					"name" : "data_test1[31]",
					"strict" : false
				},
				{
					"name" : "data_test1[30]",
					"strict" : false
				},
				{
					"name" : "data_test1[29]",
					"strict" : false
				},
				{
					"name" : "data_test1[28]",
					"strict" : false
				},
				{
					"name" : "data_test1[27]",
					"strict" : false
				},
				{
					"name" : "data_test1[26]",
					"strict" : false
				},
				{
					"name" : "data_test1[25]",
					"strict" : false
				},
				{
					"name" : "data_test1[24]",
					"strict" : false
				},
				{
					"name" : "data_test1[23]",
					"strict" : false
				},
				{
					"name" : "data_test1[22]",
					"strict" : false
				},
				{
					"name" : "data_test1[21]",
					"strict" : false
				},
				{
					"name" : "data_test1[20]",
					"strict" : false
				},
				{
					"name" : "data_test1[19]",
					"strict" : false
				},
				{
					"name" : "data_test1[18]",
					"strict" : false
				},
				{
					"name" : "data_test1[17]",
					"strict" : false
				},
				{
					"name" : "data_test1[16]",
					"strict" : false
				},
				{
					"name" : "data_test1[15]",
					"strict" : false
				},
				{
					"name" : "data_test1[14]",
					"strict" : false
				},
				{
					"name" : "data_test1[13]",
					"strict" : false
				},
				{
					"name" : "data_test1[12]",
					"strict" : false
				},
				{
					"name" : "data_test1[11]",
					"strict" : false
				},
				{
					"name" : "data_test1[10]",
					"strict" : false
				},
				{
					"name" : "data_test1[9]",
					"strict" : false
				},
				{
					"name" : "data_test1[8]",
					"strict" : false
				},
				{
					"name" : "data_test1[7]",
					"strict" : false
				},
				{
					"name" : "data_test1[6]",
					"strict" : false
				},
				{
					"name" : "data_test1[5]",
					"strict" : false
				},
				{
					"name" : "data_test1[4]",
					"strict" : false
				},
				{
					"name" : "data_test1[3]",
					"strict" : false
				},
				{
					"name" : "data_test1[2]",
					"strict" : false
				},
				{
					"name" : "data_test1[1]",
					"strict" : false
				},
				{
					"name" : "data_test1[0]",
					"strict" : false
				},
				{
					"name" : "data_test2[31]",
					"strict" : false
				},
				{
					"name" : "data_test2[30]",
					"strict" : false
				},
				{
					"name" : "data_test2[29]",
					"strict" : false
				},
				{
					"name" : "data_test2[28]",
					"strict" : false
				},
				{
					"name" : "data_test2[27]",
					"strict" : false
				},
				{
					"name" : "data_test2[26]",
					"strict" : false
				},
				{
					"name" : "data_test2[25]",
					"strict" : false
				},
				{
					"name" : "data_test2[24]",
					"strict" : false
				},
				{
					"name" : "data_test2[23]",
					"strict" : false
				},
				{
					"name" : "data_test2[22]",
					"strict" : false
				},
				{
					"name" : "data_test2[21]",
					"strict" : false
				},
				{
					"name" : "data_test2[20]",
					"strict" : false
				},
				{
					"name" : "data_test2[19]",
					"strict" : false
				},
				{
					"name" : "data_test2[18]",
					"strict" : false
				},
				{
					"name" : "data_test2[17]",
					"strict" : false
				},
				{
					"name" : "data_test2[16]",
					"strict" : false
				},
				{
					"name" : "data_test2[15]",
					"strict" : false
				},
				{
					"name" : "data_test2[14]",
					"strict" : false
				},
				{
					"name" : "data_test2[13]",
					"strict" : false
				},
				{
					"name" : "data_test2[12]",
					"strict" : false
				},
				{
					"name" : "data_test2[11]",
					"strict" : false
				},
				{
					"name" : "data_test2[10]",
					"strict" : false
				},
				{
					"name" : "data_test2[9]",
					"strict" : false
				},
				{
					"name" : "data_test2[8]",
					"strict" : false
				},
				{
					"name" : "data_test2[7]",
					"strict" : false
				},
				{
					"name" : "data_test2[6]",
					"strict" : false
				},
				{
					"name" : "data_test2[5]",
					"strict" : false
				},
				{
					"name" : "data_test2[4]",
					"strict" : false
				},
				{
					"name" : "data_test2[3]",
					"strict" : false
				},
				{
					"name" : "data_test2[2]",
					"strict" : false
				},
				{
					"name" : "data_test2[1]",
					"strict" : false
				},
				{
					"name" : "data_test2[0]",
					"strict" : false
				},
				{
					"name" : "DR_out[31]",
					"strict" : false
				},
				{
					"name" : "DR_out[30]",
					"strict" : false
				},
				{
					"name" : "DR_out[29]",
					"strict" : false
				},
				{
					"name" : "DR_out[28]",
					"strict" : false
				},
				{
					"name" : "DR_out[27]",
					"strict" : false
				},
				{
					"name" : "DR_out[26]",
					"strict" : false
				},
				{
					"name" : "DR_out[25]",
					"strict" : false
				},
				{
					"name" : "DR_out[24]",
					"strict" : false
				},
				{
					"name" : "DR_out[23]",
					"strict" : false
				},
				{
					"name" : "DR_out[22]",
					"strict" : false
				},
				{
					"name" : "DR_out[21]",
					"strict" : false
				},
				{
					"name" : "DR_out[20]",
					"strict" : false
				},
				{
					"name" : "DR_out[19]",
					"strict" : false
				},
				{
					"name" : "DR_out[18]",
					"strict" : false
				},
				{
					"name" : "DR_out[17]",
					"strict" : false
				},
				{
					"name" : "DR_out[16]",
					"strict" : false
				},
				{
					"name" : "DR_out[15]",
					"strict" : false
				},
				{
					"name" : "DR_out[14]",
					"strict" : false
				},
				{
					"name" : "DR_out[13]",
					"strict" : false
				},
				{
					"name" : "DR_out[12]",
					"strict" : false
				},
				{
					"name" : "DR_out[11]",
					"strict" : false
				},
				{
					"name" : "DR_out[10]",
					"strict" : false
				},
				{
					"name" : "DR_out[9]",
					"strict" : false
				},
				{
					"name" : "DR_out[8]",
					"strict" : false
				},
				{
					"name" : "DR_out[7]",
					"strict" : false
				},
				{
					"name" : "DR_out[6]",
					"strict" : false
				},
				{
					"name" : "DR_out[5]",
					"strict" : false
				},
				{
					"name" : "DR_out[4]",
					"strict" : false
				},
				{
					"name" : "DR_out[3]",
					"strict" : false
				},
				{
					"name" : "DR_out[2]",
					"strict" : false
				},
				{
					"name" : "DR_out[1]",
					"strict" : false
				},
				{
					"name" : "DR_out[0]",
					"strict" : false
				},
				{
					"name" : "ERreg[15]",
					"strict" : false
				},
				{
					"name" : "ERreg[14]",
					"strict" : false
				},
				{
					"name" : "ERreg[13]",
					"strict" : false
				},
				{
					"name" : "ERreg[12]",
					"strict" : false
				},
				{
					"name" : "ERreg[11]",
					"strict" : false
				},
				{
					"name" : "ERreg[10]",
					"strict" : false
				},
				{
					"name" : "ERreg[9]",
					"strict" : false
				},
				{
					"name" : "ERreg[8]",
					"strict" : false
				},
				{
					"name" : "ERreg[7]",
					"strict" : false
				},
				{
					"name" : "ERreg[6]",
					"strict" : false
				},
				{
					"name" : "ERreg[5]",
					"strict" : false
				},
				{
					"name" : "ERreg[4]",
					"strict" : false
				},
				{
					"name" : "ERreg[3]",
					"strict" : false
				},
				{
					"name" : "ERreg[2]",
					"strict" : false
				},
				{
					"name" : "ERreg[1]",
					"strict" : false
				},
				{
					"name" : "ERreg[0]",
					"strict" : false
				},
				{
					"name" : "I_out[7]",
					"strict" : false
				},
				{
					"name" : "I_out[6]",
					"strict" : false
				},
				{
					"name" : "I_out[5]",
					"strict" : false
				},
				{
					"name" : "I_out[4]",
					"strict" : false
				},
				{
					"name" : "I_out[3]",
					"strict" : false
				},
				{
					"name" : "I_out[2]",
					"strict" : false
				},
				{
					"name" : "I_out[1]",
					"strict" : false
				},
				{
					"name" : "I_out[0]",
					"strict" : false
				},
				{
					"name" : "IR[7]",
					"strict" : false
				},
				{
					"name" : "IR[6]",
					"strict" : false
				},
				{
					"name" : "IR[5]",
					"strict" : false
				},
				{
					"name" : "IR[4]",
					"strict" : false
				},
				{
					"name" : "IR[3]",
					"strict" : false
				},
				{
					"name" : "IR[2]",
					"strict" : false
				},
				{
					"name" : "IR[1]",
					"strict" : false
				},
				{
					"name" : "IR[0]",
					"strict" : false
				},
				{
					"name" : "pcc[15]",
					"strict" : false
				},
				{
					"name" : "pcc[14]",
					"strict" : false
				},
				{
					"name" : "pcc[13]",
					"strict" : false
				},
				{
					"name" : "pcc[12]",
					"strict" : false
				},
				{
					"name" : "pcc[11]",
					"strict" : false
				},
				{
					"name" : "pcc[10]",
					"strict" : false
				},
				{
					"name" : "pcc[9]",
					"strict" : false
				},
				{
					"name" : "pcc[8]",
					"strict" : false
				},
				{
					"name" : "pcc[7]",
					"strict" : false
				},
				{
					"name" : "pcc[6]",
					"strict" : false
				},
				{
					"name" : "pcc[5]",
					"strict" : false
				},
				{
					"name" : "pcc[4]",
					"strict" : false
				},
				{
					"name" : "pcc[3]",
					"strict" : false
				},
				{
					"name" : "pcc[2]",
					"strict" : false
				},
				{
					"name" : "pcc[1]",
					"strict" : false
				},
				{
					"name" : "pcc[0]",
					"strict" : false
				},
				{
					"name" : "spp[15]",
					"strict" : false
				},
				{
					"name" : "spp[14]",
					"strict" : false
				},
				{
					"name" : "spp[13]",
					"strict" : false
				},
				{
					"name" : "spp[12]",
					"strict" : false
				},
				{
					"name" : "spp[11]",
					"strict" : false
				},
				{
					"name" : "spp[10]",
					"strict" : false
				},
				{
					"name" : "spp[9]",
					"strict" : false
				},
				{
					"name" : "spp[8]",
					"strict" : false
				},
				{
					"name" : "spp[7]",
					"strict" : false
				},
				{
					"name" : "spp[6]",
					"strict" : false
				},
				{
					"name" : "spp[5]",
					"strict" : false
				},
				{
					"name" : "spp[4]",
					"strict" : false
				},
				{
					"name" : "spp[3]",
					"strict" : false
				},
				{
					"name" : "spp[2]",
					"strict" : false
				},
				{
					"name" : "spp[1]",
					"strict" : false
				},
				{
					"name" : "spp[0]",
					"strict" : false
				},
				{
					"name" : "TR_out[15]",
					"strict" : false
				},
				{
					"name" : "TR_out[14]",
					"strict" : false
				},
				{
					"name" : "TR_out[13]",
					"strict" : false
				},
				{
					"name" : "TR_out[12]",
					"strict" : false
				},
				{
					"name" : "TR_out[11]",
					"strict" : false
				},
				{
					"name" : "TR_out[10]",
					"strict" : false
				},
				{
					"name" : "TR_out[9]",
					"strict" : false
				},
				{
					"name" : "TR_out[8]",
					"strict" : false
				},
				{
					"name" : "TR_out[7]",
					"strict" : false
				},
				{
					"name" : "TR_out[6]",
					"strict" : false
				},
				{
					"name" : "TR_out[5]",
					"strict" : false
				},
				{
					"name" : "TR_out[4]",
					"strict" : false
				},
				{
					"name" : "TR_out[3]",
					"strict" : false
				},
				{
					"name" : "TR_out[2]",
					"strict" : false
				},
				{
					"name" : "TR_out[1]",
					"strict" : false
				},
				{
					"name" : "TR_out[0]",
					"strict" : false
				},
				{
					"name" : "reset",
					"strict" : false
				},
				{
					"name" : "Address_test1[1]",
					"strict" : false
				},
				{
					"name" : "Address_test1[5]",
					"strict" : false
				},
				{
					"name" : "Address_test1[4]",
					"strict" : false
				},
				{
					"name" : "Address_test1[7]",
					"strict" : false
				},
				{
					"name" : "Address_test1[6]",
					"strict" : false
				},
				{
					"name" : "Address_test1[2]",
					"strict" : false
				},
				{
					"name" : "Address_test1[3]",
					"strict" : false
				},
				{
					"name" : "Address_test1[0]",
					"strict" : false
				},
				{
					"name" : "Address_test2[1]",
					"strict" : false
				},
				{
					"name" : "Address_test2[5]",
					"strict" : false
				},
				{
					"name" : "Address_test2[4]",
					"strict" : false
				},
				{
					"name" : "Address_test2[7]",
					"strict" : false
				},
				{
					"name" : "Address_test2[6]",
					"strict" : false
				},
				{
					"name" : "Address_test2[2]",
					"strict" : false
				},
				{
					"name" : "Address_test2[3]",
					"strict" : false
				},
				{
					"name" : "Address_test2[0]",
					"strict" : false
				},
				{
					"name" : "CLK",
					"strict" : false
				}
			]
		}
	]
}